7073508743,own01aae547121e4a8d9bbc7f890962ad56,fac4854ca5a26a9510e9a25c3c4c1439ef0
7604774389,own022bb84e5bed44adb3ef2b94f8d16c36,faca31e4f3a49094727947666447281bb88
2363620338,own02655f845c11488498a112811789837e,fac19e6b12d16a64f75addfd53d8e4bd375
4075947529,own028f0b908f0641beb5b2acc1a404a2c5,fac99e03f0f7bda4eb4bb505e6d7cb1786c
3603187224,own07f1b2311b9748338adfc47351b310f7,facad062f5062505377881238fcb6b30305
9252676503,own08df43a5db624f7a8bc2af87aac238c9,fac5843ea9656a757908305e209959bedb6
5126413407,own09fb3b841c6848c9a2c4af6b78143ace,fac056c576434da58bfa4010cb0cdfcd8b8
5127149529,own09fb3b841c6848c9a2c4af6b78143ace,fac09f3c83b5e6d538fa3b1818499b66cb6
5128669878,own09fb3b841c6848c9a2c4af6b78143ace,fac797b093fc1d85d3c90d44cac2d0f14c7
5128669275,own09fb3b841c6848c9a2c4af6b78143ace,faccddb3b69860452f9aec5801d1c7649d4
8438746849,own0d78dea8220a44f2b20244591426a2f5,fac32e33b77d8434bf595e311cb4fe6aee3
8436038596,own0d78dea8220a44f2b20244591426a2f5,fac8837a839cb5a4b20bf6dca429d040fd4
7147354953,own0d990176d2dd4b43bb83179167530c29,fac7ece55012a2d5d8299337e153bf634ab
7146461793,own0d990176d2dd4b43bb83179167530c29,faccc7826533ebf5b07ba9e7105cdf48556
7146177374,own0d990176d2dd4b43bb83179167530c29,facde4c286035975df186e1deb6cf1372b5
7144921846,own0d990176d2dd4b43bb83179167530c29,facde4c286035975df186e1deb6cf1372b5
7145998962,own0d990176d2dd4b43bb83179167530c29,facde4c286035975df186e1deb6cf1372b5
9495390278,own0d990176d2dd4b43bb83179167530c29,face3d2a270a77b54efafdf670112b97cfc
7146178799,own0d990176d2dd4b43bb83179167530c29,facfe7147845c1257cc85ffa334cb5e26e4
7579828558,own1607bc05528e44ab90eb0c95dcc50422,fac2b552310d3cd4814a053ffe1cd29dcb0
7579828431,own1607bc05528e44ab90eb0c95dcc50422,fac31b6fe9637cd424887c0835aa754c7b6
7579828530,own1607bc05528e44ab90eb0c95dcc50422,fac3a2f7ede7f7b41f2a79cdcdf8a943f71
7579828619,own1607bc05528e44ab90eb0c95dcc50422,fac3b138a300d18493f8ef6e65ce935e001
5408705925,own1607bc05528e44ab90eb0c95dcc50422,fac4b3c84e03dc346cbb8ac73533d1c7e92
7579828612,own1607bc05528e44ab90eb0c95dcc50422,fac88ceb76580e9447f9f12fa4d291dbb34
7579828637,own1607bc05528e44ab90eb0c95dcc50422,fac9897144c706046adb2e21db490672fce
7579828453,own1607bc05528e44ab90eb0c95dcc50422,faca6b0618197394d5abba1956ebf049ca5
7579828485,own1607bc05528e44ab90eb0c95dcc50422,facdeb4f2209b6f471cbe3cf0d4d46a8704
7579828692,own1607bc05528e44ab90eb0c95dcc50422,face857ae5eac864466a0be08e29b894f55
7579828766,own1607bc05528e44ab90eb0c95dcc50422,facfc67924f65bc4e3082cba88caeee6c93
9496490252,own180923347ef746ffbcc6b25e9462825c,fac9d9458c7830a4b55a5e41200e2b97823
9253321408,own1872b2ba6d6a4468accfaf64564248e0,facc6df4486eeb04a6d9ba0d722e34b0f2e
9166666518,own191c8ab7a0f44e04812502b036e3c213,facf0f1c19a331842c69fa4b183562a494e
5105883695,own19a15a1bdc8d430ca1738778bf7fa5af,faca78f323a736a456ca324ec935a0c1cb0
2082683169,own1c093ef8307047528a9b2d58e94e1d28,fac02bd9500d75c5d48a32dd645ff838b2f
9094154576,own1c093ef8307047528a9b2d58e94e1d28,fac27a2324744d648f280c691a835d35ddf
9094036394,own1c093ef8307047528a9b2d58e94e1d28,fac6d54714f9d7647a687dcc6346056e4d5
9094067019,own1c093ef8307047528a9b2d58e94e1d28,faccc9cdb1e82ba4a86a8fb93ba7fcd5f44
8438251979,own1fd8ef1e952b40e98ce273581ca5f182,fac13e82028d3764cfbb9438741a42dc593
8437734107,own1fd8ef1e952b40e98ce273581ca5f182,facdf0ed2419b634f8ab52d95bfb3d91b2b
8434170377,own1fd8ef1e952b40e98ce273581ca5f182,facf6d239915a6d4704acad922dd0e86ca3
9729629606,own1fe9995d421b4f12b0b73b23e9f021ca,faca28436bbaa25464db39b199af92e969f
5596576420,own217c59f33fb6469d986624ed72272e57,fac10836a9a2de94a51bb78c89d330c6bd4
5592723670,own217c59f33fb6469d986624ed72272e57,fac13ad967a6780537b84ce10ae38ca06b5
5592723812,own217c59f33fb6469d986624ed72272e57,fac16907435e09250bf8be1201a498f8476
5592344475,own217c59f33fb6469d986624ed72272e57,fac1a01be6c0ed056f4b62fff501707d8bd
6614516227,own217c59f33fb6469d986624ed72272e57,fac1e09cd68a4565f8ba542604e7226740b
5593795328,own217c59f33fb6469d986624ed72272e57,fac25cd90dd86985c2cb1673f47b05a8a91
5593386968,own217c59f33fb6469d986624ed72272e57,fac278682eef2f151a7a2b3cbce4da4f10a
6614639220,own217c59f33fb6469d986624ed72272e57,fac2802b36ccf575f8c8a0c13f6039d0e1e
5593649311,own217c59f33fb6469d986624ed72272e57,fac2b23999cce035003ad59bd300f8bf133
6614436428,own217c59f33fb6469d986624ed72272e57,fac2c3017f5a68d5ceba63e207406daf6ed
6614647692,own217c59f33fb6469d986624ed72272e57,fac3130d1c10eda599abf7b3871c44b0e41
5593643650,own217c59f33fb6469d986624ed72272e57,fac37ebafae7f285028a42d198bd2261563
5593643957,own217c59f33fb6469d986624ed72272e57,fac3f0e7018c60e5ea092dfea84bb01fc32
6614637765,own217c59f33fb6469d986624ed72272e57,fac41ec93c61d5351178bc6dbd4cf14c99b
8058926350,own217c59f33fb6469d986624ed72272e57,fac4244f2942b5854baaa4c771f2e7a3580
5593649429,own217c59f33fb6469d986624ed72272e57,fac42c55aa9926256589f42687fc3051033
5592456478,own217c59f33fb6469d986624ed72272e57,fac4aa6ef44772b5caba07a4168a55011cd
6614436931,own217c59f33fb6469d986624ed72272e57,fac4f9904fad50c5a8ab55934f16ee54a8a
5592429489,own217c59f33fb6469d986624ed72272e57,fac52abd7a8b2535ddfa76179687fec75a0
5593459976,own217c59f33fb6469d986624ed72272e57,fac5963a17f31e6571a99eb4c928d1aeec4
5596084815,own217c59f33fb6469d986624ed72272e57,fac5f3e08a4763d555cbd14ddb5a9eea14a
6614653436,own217c59f33fb6469d986624ed72272e57,fac60e8945e3f1f5fc2acce919e7eb7b06d
2093181506,own217c59f33fb6469d986624ed72272e57,fac60ff3f94893a535faa0996ec7bccc6c0
2095638428,own217c59f33fb6469d986624ed72272e57,fac6ddbf06fa9d058bf991df31131971f58
6617625677,own217c59f33fb6469d986624ed72272e57,fac74a526d1bbc45065b7fed50ff8acf03e
2092314604,own217c59f33fb6469d986624ed72272e57,fac7672114fbcd0509e93e15fb2117686bb
5592357393,own217c59f33fb6469d986624ed72272e57,fac7cf6f0cc60b55531bf84d85f4861b3b8
6612156706,own217c59f33fb6469d986624ed72272e57,fac7fa23c9e37355f91b9bcce43fb52e6a3
5593795794,own217c59f33fb6469d986624ed72272e57,fac80bc634af1965847896f4fce60759967
5592723705,own217c59f33fb6469d986624ed72272e57,fac8270b0a2e1785c40bfcb626ef8372fc8
5592456139,own217c59f33fb6469d986624ed72272e57,fac828c4d2edbe75eebb746e67b6bb51f4e
6614641970,own217c59f33fb6469d986624ed72272e57,fac913cf52f613a58c2b029c52d9b9ad5ad
5592037717,own217c59f33fb6469d986624ed72272e57,fac918010d8e15c5eb2a0b1324f663c0ac1
9165174746,own217c59f33fb6469d986624ed72272e57,fac954aefd1ddd055dd84288c1e9404a73d
5593375518,own217c59f33fb6469d986624ed72272e57,fac95bbb351a9c65ecf82c85adb477b2aa0
2095833395,own217c59f33fb6469d986624ed72272e57,fac99dbe6ddc7985b3180f8ff7f51398393
6614639187,own217c59f33fb6469d986624ed72272e57,fac9b7171d39dea52ca9d4e871e1d23ad93
2093181544,own217c59f33fb6469d986624ed72272e57,fac9c655870ae07548d98b733f4c20fd9da
6614662521,own217c59f33fb6469d986624ed72272e57,fac9cc7761272f757938b8fa183de8fb4f4
5593795688,own217c59f33fb6469d986624ed72272e57,fac9e3d74e9e79e5b92b075a303c226a832
5593643564,own217c59f33fb6469d986624ed72272e57,faca2a29db7f95057399e571e90b9539b34
5593795476,own217c59f33fb6469d986624ed72272e57,faca4bcd8ea86cc50ab80e38a636118ff35
6614637962,own217c59f33fb6469d986624ed72272e57,faca861ec27d4075efca12a931785d7a6a7
6614639162,own217c59f33fb6469d986624ed72272e57,facad875ac36ed2526e840181ae96834dfe
5593795508,own217c59f33fb6469d986624ed72272e57,facadaee78066ef59269cf35d31143b1da6
5592366488,own217c59f33fb6469d986624ed72272e57,facb035a865cb0c538f93a5018f9f7ba353
6614637900,own217c59f33fb6469d986624ed72272e57,facb068aa005ec85ad4bf127c19c6ec8dd4
5593643302,own217c59f33fb6469d986624ed72272e57,facb06bef78313d54c5aa5a952260dc5fd6
5593795758,own217c59f33fb6469d986624ed72272e57,facb349ac6295a45e4daf62914eab4802b3
5595605123,own217c59f33fb6469d986624ed72272e57,facb63a88467ad75041b0ba236283686629
5592453644,own217c59f33fb6469d986624ed72272e57,facbf15fd24009b5e3dbc763a1cbb5298a8
6614653481,own217c59f33fb6469d986624ed72272e57,facbfba484df3e25565b8a6273ece431ac6
5593795785,own217c59f33fb6469d986624ed72272e57,facc0fc5cff7cab59738b5cf841e1c0bed9
5593649577,own217c59f33fb6469d986624ed72272e57,facdb92e9cc74ad5310be1b4acef0c88912
5593795532,own217c59f33fb6469d986624ed72272e57,facdd2de03266fd565ca22f875c190853ea
6614653099,own217c59f33fb6469d986624ed72272e57,face0803b3136aa5b45b0f62669474b9f2c
5592456415,own217c59f33fb6469d986624ed72272e57,face18842c021665a4980ad5d4b6eb9fb16
5592455636,own217c59f33fb6469d986624ed72272e57,face8a9dc476f5557b69933e0b42e90dfb4
5592723875,own217c59f33fb6469d986624ed72272e57,faceeb8812dc06c5a26b757d56fb2d3757d
6614436089,own217c59f33fb6469d986624ed72272e57,facf71de3c9593a5f0cbc58474d5303e19e
5592723727,own217c59f33fb6469d986624ed72272e57,facfa67b74939fd526dbae67990f186092d
3158963094,own2605db96728d4b92a23e2306a096ac23,fac43fb849d50d25925bd5199a03f1e027a
3157574769,own2605db96728d4b92a23e2306a096ac23,facdb92be687d2556c983d855b87d775422
4086621117,own267fe1b891bc4294acee40ca84b544b5,facad4caa37239146fd83f5c42491183658
5412307959,own275a412523f34c3d8f0db5bc5570d54f,fac2fcc6fef2bc34cec884dec61c3c84761
8055198244,own283ec0035b904fe0aa8271442d63c5f1,fac141ab0eab50943b2a75b94bdb0cad4d7
9362158739,own2f7d37c861074e8689b76ea7a7b793c1,fac19149bf498a14b5b9122b2732c65f2c4
9365062749,own2f7d37c861074e8689b76ea7a7b793c1,fac32b56f89e2694054b1aa20cc3b1de1e9
9362158804,own2f7d37c861074e8689b76ea7a7b793c1,fac7deb6c02ed994f88a499ace70f6b1cec
9362155333,own2f7d37c861074e8689b76ea7a7b793c1,facefc7da8cf7c14358b78c55ca1f449eec
9362434543,own2f7d37c861074e8689b76ea7a7b793c1,facfdb71f9c23a94cb1a3a8ff5c8bdc982c
9032258395,own312d179cf3df45f1b3c5a34149ddf10c,fac8e19c142a8164be395218bc613f67f2e
9094155842,own3205a078b4054b7bb5481a4d3f172d80,fac09be1a2d6b4d42e988c2e0d3bd62769f
5622684736,own3205a078b4054b7bb5481a4d3f172d80,fac17c9d7dfb0da4f03bd071c571f7fb092
7147354969,own3205a078b4054b7bb5481a4d3f172d80,fac609de94202b04aa5bdb1c07dd2a4640f
6195144916,own3205a078b4054b7bb5481a4d3f172d80,fac72a2a7846d8c47209dc1547b4c90f624
5622684664,own3205a078b4054b7bb5481a4d3f172d80,fac7a04c609c5284ab5a9e12be3f935f6e8
7147909295,own3205a078b4054b7bb5481a4d3f172d80,fac7e5e9a2b6b54410dab06c64182cac26a
9094425199,own3205a078b4054b7bb5481a4d3f172d80,fac8da4e0eb353a47bda64333362ae04725
3107421495,own3205a078b4054b7bb5481a4d3f172d80,fac9691ee473990462b86387d58f1f003fa
6266282649,own3205a078b4054b7bb5481a4d3f172d80,faccd9d7156b1d54c88ad4e673ab282456c
7602272854,own3205a078b4054b7bb5481a4d3f172d80,face6568ff2f0da4fbbb89a2be3ded71d05
2093702029,own3489762c38f741e8a7911471f8ca7e5a,fac28ee48e3ecc15c97beb5bc2e9d2b7a76
9284960501,own3635fb2e825d49a9a7a9f8d9bcdcd304,fac02007e3e67e359b3af24cd05848d58c4
5304216980,own3635fb2e825d49a9a7a9f8d9bcdcd304,fac0b13773ed8e941eda3eac30f148a193e
7073090867,own3635fb2e825d49a9a7a9f8d9bcdcd304,fac12fb80be1b0047508bbd0d167676bf6b
5304221676,own3635fb2e825d49a9a7a9f8d9bcdcd304,fac179d7c1cccc840eda78c7b91d65f0753
7073835448,own3635fb2e825d49a9a7a9f8d9bcdcd304,fac179f13467b045db5a50c7f65795b7c2b
9256903562,own3635fb2e825d49a9a7a9f8d9bcdcd304,fac17fbfa7f419146eab4531f643f1b57aa
2095638424,own3635fb2e825d49a9a7a9f8d9bcdcd304,fac190e671d301e44ca84ba00fe470fb476
2095542085,own3635fb2e825d49a9a7a9f8d9bcdcd304,fac1adcc78b57a84f4090e63293adccb334
9256903544,own3635fb2e825d49a9a7a9f8d9bcdcd304,fac1d687504b4f24ca398e87cb2eee03782
5302989855,own3635fb2e825d49a9a7a9f8d9bcdcd304,fac21e256c4df954a1999de9df7bcb07aac
2095833504,own3635fb2e825d49a9a7a9f8d9bcdcd304,fac253c3285dc9748399d121698f6f5541c
4085473655,own3635fb2e825d49a9a7a9f8d9bcdcd304,fac2b1d1067c24d4501b6263a6b80ecfe40
9165806327,own3635fb2e825d49a9a7a9f8d9bcdcd304,fac2cbb1c6db5504095ada52da1ff539f16
5302908319,own3635fb2e825d49a9a7a9f8d9bcdcd304,fac2f3abc5a89c644bea0165ba3aed4fd3c
9166209742,own3635fb2e825d49a9a7a9f8d9bcdcd304,fac2fffe33c62054b389fdf82ae12b43672
8055197910,own3635fb2e825d49a9a7a9f8d9bcdcd304,fac315085a238d75ce3a9bf76ee2c58835b
8314259664,own3635fb2e825d49a9a7a9f8d9bcdcd304,fac32fd9bf036b64629bffc81f381436420
9256903585,own3635fb2e825d49a9a7a9f8d9bcdcd304,fac3b479cf75811400e929c1b07208fddbf
4086621267,own3635fb2e825d49a9a7a9f8d9bcdcd304,fac3c0a9da69d5b468ab80d7ec24d7e4b68
9164714667,own3635fb2e825d49a9a7a9f8d9bcdcd304,fac3dca9d70975f4c988cbab6358b945a99
5593795743,own3635fb2e825d49a9a7a9f8d9bcdcd304,fac4022777bb48549619c9b7160f66228c5
6614653784,own3635fb2e825d49a9a7a9f8d9bcdcd304,fac40aaf88bd5304ca782e182af78d63ee8
4243206020,own3635fb2e825d49a9a7a9f8d9bcdcd304,fac42671cd1bd704011bb566c5a97aa8259
2095833613,own3635fb2e825d49a9a7a9f8d9bcdcd304,fac4392f0c01a3748399a0ca609753194f5
5104919926,own3635fb2e825d49a9a7a9f8d9bcdcd304,fac470fac1f25d241d4b467b1eedec3629f
2093181411,own3635fb2e825d49a9a7a9f8d9bcdcd304,fac488a27bbe9da46939ca98b17788e389e
7073090879,own3635fb2e825d49a9a7a9f8d9bcdcd304,fac48e9870377c24fc9ae38ff8878f1b087
5108801399,own3635fb2e825d49a9a7a9f8d9bcdcd304,fac49274f166987448ea60d74b769e9415d
7073090892,own3635fb2e825d49a9a7a9f8d9bcdcd304,fac4a31c42b89c043f48bc91404de44e94d
8312925024,own3635fb2e825d49a9a7a9f8d9bcdcd304,fac4da5b8936dab452cb92b1342c47fd183
8312736942,own3635fb2e825d49a9a7a9f8d9bcdcd304,fac518187b2eca944edb46be135a30926cf
6505358349,own3635fb2e825d49a9a7a9f8d9bcdcd304,fac534a64d5a33e44188e1efa7c01e3952f
5304221655,own3635fb2e825d49a9a7a9f8d9bcdcd304,fac53889435eeb95f568e3376c7b3b65f65
9254774835,own3635fb2e825d49a9a7a9f8d9bcdcd304,fac53c7fcaa3e79410ba231a779f313f410
5592340302,own3635fb2e825d49a9a7a9f8d9bcdcd304,fac5438d7731c0245ea9aa3993412bd913c
5304216942,own3635fb2e825d49a9a7a9f8d9bcdcd304,fac57170d2f9f6d43e5a37ec623b6b89ebe
7073090825,own3635fb2e825d49a9a7a9f8d9bcdcd304,fac58a85d6bebd44ece9ce0921e8f1ee619
7252138417,own3635fb2e825d49a9a7a9f8d9bcdcd304,fac5bd97271b4305224a845a61209db4903
5302968734,own3635fb2e825d49a9a7a9f8d9bcdcd304,fac5f548c89a97f46598d951b4eea9dfc25
4083516168,own3635fb2e825d49a9a7a9f8d9bcdcd304,fac6acf93b3c2b1495ca8e005f3d9331dc2
8053019708,own3635fb2e825d49a9a7a9f8d9bcdcd304,fac6cd0953841a0470ebadf1b73fb4c055a
5107819896,own3635fb2e825d49a9a7a9f8d9bcdcd304,fac70ed97fed4d64517ae01d09c36cbc839
5595504837,own3635fb2e825d49a9a7a9f8d9bcdcd304,fac764ff2ad940c4792a2a0fd72a3ba37f2
2093181540,own3635fb2e825d49a9a7a9f8d9bcdcd304,fac78f5ac743bec4cc3834c77cfac454d9f
3239732711,own3635fb2e825d49a9a7a9f8d9bcdcd304,fac7cd566b4c75d4c83a656c69e06acd89e
5624162934,own3635fb2e825d49a9a7a9f8d9bcdcd304,fac7e5f83d0af7c403b945129d713dce166
4422391703,own3635fb2e825d49a9a7a9f8d9bcdcd304,fac7f546311ae0c4ae39ef6dafe878ca5a3
8053603582,own3635fb2e825d49a9a7a9f8d9bcdcd304,fac8808ea52be2b4e8091f2b727b9df40c4
7073090558,own3635fb2e825d49a9a7a9f8d9bcdcd304,fac8b1f991a207342d6bdf326de29f7f87a
7073908402,own3635fb2e825d49a9a7a9f8d9bcdcd304,fac9473058dd6065d048f68c3e197cea763
8312686654,own3635fb2e825d49a9a7a9f8d9bcdcd304,fac992f061ab251477ab750b19468e1954b
9166654520,own3635fb2e825d49a9a7a9f8d9bcdcd304,fac999a27e473154b10b057d43d946adc9a
9167569030,own3635fb2e825d49a9a7a9f8d9bcdcd304,faca0d94ad8151e4f3684a3241ca5942b6a
5105448013,own3635fb2e825d49a9a7a9f8d9bcdcd304,faca0fcf86050534075885443c58cb74a79
5094022976,own3635fb2e825d49a9a7a9f8d9bcdcd304,faca3ce1272fff448caac2085243d846de0
7073835038,own3635fb2e825d49a9a7a9f8d9bcdcd304,faca9a10626484e4f168f55eef949c6445c
7073908601,own3635fb2e825d49a9a7a9f8d9bcdcd304,facab409f1efd25441e85c32e52e6fd1d4f
8055197978,own3635fb2e825d49a9a7a9f8d9bcdcd304,facb296a2dcfb024d6b9cf617157e8f06d9
6614638649,own3635fb2e825d49a9a7a9f8d9bcdcd304,facb52d9687862648e3b168490f242c35cb
2093181519,own3635fb2e825d49a9a7a9f8d9bcdcd304,facb60a03a45ffc45f5b12cba42c555a892
9256903541,own3635fb2e825d49a9a7a9f8d9bcdcd304,facbd31b3ca7c5647548907910f6f41cc50
4254904427,own3635fb2e825d49a9a7a9f8d9bcdcd304,facc42ed73eb834488fb874f229c8183f2a
2093094473,own3635fb2e825d49a9a7a9f8d9bcdcd304,faccd22ad06a64245b8880c561d0c3103ff
8312736607,own3635fb2e825d49a9a7a9f8d9bcdcd304,facd09319b1217d4dce8e55c892abeb2409
5103991076,own3635fb2e825d49a9a7a9f8d9bcdcd304,facd64d4246e9a945749fe7fab63a78afe5
6572984546,own3635fb2e825d49a9a7a9f8d9bcdcd304,facd765b500ce8548e8ae6b1379c3bd1430
8312924452,own3635fb2e825d49a9a7a9f8d9bcdcd304,facd7b75cfcd1cd4ad2bbba59c2fefac12e
9256903158,own3635fb2e825d49a9a7a9f8d9bcdcd304,facda27104bf85d45e3a65792453b1a18e1
6692677891,own3635fb2e825d49a9a7a9f8d9bcdcd304,facdd38cd65a658456ab9874ac95c097c4e
6619644429,own3635fb2e825d49a9a7a9f8d9bcdcd304,facdd8e54f6c19d4600a30c35795d34ed30
5106175741,own3635fb2e825d49a9a7a9f8d9bcdcd304,face24ea43138374f6eb3acafe3c013a322
9252817030,own3635fb2e825d49a9a7a9f8d9bcdcd304,face3a5b1e39f574830b8fdea5c83da4506
2093181390,own3635fb2e825d49a9a7a9f8d9bcdcd304,face4a54ca9860e4784866411711a855ded
5103192839,own3635fb2e825d49a9a7a9f8d9bcdcd304,face5035c473c7352efb03a9071bfc3b3b8
6612707794,own3635fb2e825d49a9a7a9f8d9bcdcd304,face9abae36fbe94e73ae0d569ba9d74642
5104053649,own3635fb2e825d49a9a7a9f8d9bcdcd304,face9edae2542004cd191397c2f91aefbe2
8312786722,own3635fb2e825d49a9a7a9f8d9bcdcd304,facea87f5a9eb8442368f0e3eb6983e389c
4085169147,own3635fb2e825d49a9a7a9f8d9bcdcd304,faceefb4c3ba5ea5d3b96d6b1e1c120fa58
2095638592,own3635fb2e825d49a9a7a9f8d9bcdcd304,facefedb0954a2045d3ad87bf59076b7f47
9256785914,own3635fb2e825d49a9a7a9f8d9bcdcd304,facf1584a509e6152db9a2e1c995d966b52
7073090859,own3635fb2e825d49a9a7a9f8d9bcdcd304,facf39773b8f8434abba23fa908a372e4f0
5105183249,own3635fb2e825d49a9a7a9f8d9bcdcd304,facf631268b83764b1eaf48fb51e239a89c
8058657365,own3635fb2e825d49a9a7a9f8d9bcdcd304,facf88308dd4ad946bcadc4db9c29435636
7073923854,own3635fb2e825d49a9a7a9f8d9bcdcd304,facfba823d515024c78908f353f64b1695e
2092687902,own3635fb2e825d49a9a7a9f8d9bcdcd304,facfc550f493dd34ea3ac9dbd9ce74fb42b
7073833553,own3635fb2e825d49a9a7a9f8d9bcdcd304,facfe817a9fa4264673b86ae1c35231c36e
7073908657,own3635fb2e825d49a9a7a9f8d9bcdcd304,facfeeab3d2bcef52cdb8f6d9eea61d9fb0
4127547571,own372b26e62d6c4975952a97c3582657de,fac2aa78a0ce8d0585c8df80524d2e20d0b
4124727675,own372b26e62d6c4975952a97c3582657de,facacfb4888052f5baa93cc01a7afbac003
4127547955,own372b26e62d6c4975952a97c3582657de,facd72202700f6c590c8651f4ebabc4264e
3602307787,own3d83b2e701b84187bb9596445f8303db,fac54d3cd20d6b24221883c856ad7afd5f9
4085394834,own4433614016114c74aade11d2a04b1220,fac55916c65ebd459089267114393246c1b
7072896942,own47d065645aa44d2ea2121f30746fc327,fac149c9ed5a41e403a80ec4fdc8efc6cd9
8178597802,own4d98b6a8385c464d854af84391feec8c,fac0880e4ce3909405282d72f29f69c4f91
5094367968,own4ff3663faeb040a187f00a2f20cc9a43,facc2532466e0485eec8a949e8179d694bf
2093181542,own5292aad551774730b81d7b9bb47404c5,fac3200adae73aa5cbcb391d0db173bda11
5034478040,own538a889f23c04106939b36cfbf5202ef,fac1b657f027f375e468322d1620f9ff9c5
2055649191,own54e7255c07404554b422279e863104cb,fac44970acb6ff048eea5661320a9442a4a
7786546319,own558c67f34cb74171b4b4b09b82581e32,facc22a32af2282553bb91d47db1b0a2ba0
7579828739,own581728e6a28a4aeeba639f1aecfe8610,facb37c4b4f504a4f5ca11f790334a7fbb9
7072895572,own597e9e2171504a878d6951dde9120d8e,fac7f2e2b450d634302baf9bb0fec680362
4012354846,own5ea2b384f6394a57811d2bde485f33c1,fac3a25a15f7ce94b998807896fa06556d4
4012494059,own5ea2b384f6394a57811d2bde485f33c1,facb4a7ec8829df403aad8d5b685f8dd933
8106423456,own5ef4632f5cf64384906940917ad8087c,facb54264a0524a4028ae86b0d96408edb6
8056084472,own6570ce740cc94c5fbe02a6e13bd1a183,fac4a0acd87425849faab326995b9ba8408
8056084735,own6755c7d05acc4ba9b9e370910ba39089,fac0926d32f0d414f76a1e631c247ecd373
8053348578,own6755c7d05acc4ba9b9e370910ba39089,fac6bb7040ffc31405db0971ca7a5843a98
8053348731,own6a4d88e9514a4c79b90771b2bc431cb1,fac10bf03ec9af85377ac9e8c4a6f49d9c3
6156496734,own6beaae73695940038185e623813536c3,fac0d4984943b485d19a3ca868da0ad243d
6156175456,own6beaae73695940038185e623813536c3,fac198d41f73aaa5420ba4751443bc5fc1a
6156564313,own6beaae73695940038185e623813536c3,fac35b6e66f6865593489c7f216989c07e5
6158234918,own6beaae73695940038185e623813536c3,fac3604e845495e5ae9887666bbd00e0933
6159885045,own6beaae73695940038185e623813536c3,fac4f1869ab2c5057a8a6a9c32a1c297236
6153488691,own6beaae73695940038185e623813536c3,fac5c8ab00ff9a0590c845ce34e4dffcd8b
6159539922,own6beaae73695940038185e623813536c3,fac5f7bd8daa8e65562a8b7a2e04799bcf4
6152837248,own6beaae73695940038185e623813536c3,fac5fff41e78890550487517164cff29d9c
2709368506,own6beaae73695940038185e623813536c3,fac70bd917d13af5025b932cfeb2caf9dd6
6156063205,own6beaae73695940038185e623813536c3,fac77b29d8a80cb50979fb0266d49a691b4
6159004818,own6beaae73695940038185e623813536c3,fac8daf1ba124255467b81b44ded44d2a58
6153691984,own6beaae73695940038185e623813536c3,facc076c9607de454598095af45b6da4baf
6156496125,own6beaae73695940038185e623813536c3,facc0a2630324a65c5fb15c5f24d1998d65
6159884811,own6beaae73695940038185e623813536c3,facc90db4301f89527d8797971ad265b3c0
6156244761,own6beaae73695940038185e623813536c3,facd0895eec42af5a0ebb7cc39a49daebae
6156249635,own6beaae73695940038185e623813536c3,face618075c343b5c0ea1a94cfb86e5ec1c
6156175943,own6beaae73695940038185e623813536c3,face83f91ca56835457b69896f3f597a4fa
6159884001,own6beaae73695940038185e623813536c3,facfe3b2ffdeec35842aabdf5a802c141c8
5108263603,own732b28f907b348edb68e0b94e98ea636,face7a482e669415ce8846799a2337dde8d
7179372246,own74627bd0efbe41a19c356fe50af92c49,fac2cd3ae0d06b34d88b61696ccb0b692c3
9256903532,own74a6b79d99e14403891f616b2fbdbfa0,fac8e18013b9ffe5bb8b8716a6597696b34
6182683262,own7bd95d7014224b4aa24db47fbfdc088f,fac1c8b68177fc5419eb59eddf4d67fd2f4
6182695106,own7bd95d7014224b4aa24db47fbfdc088f,fac566b905cf4d149dbb4676e8832c84ad5
6182695125,own7bd95d7014224b4aa24db47fbfdc088f,fac61b5dc7c9db64620b4f82aebf9ff8b47
6182430997,own7bd95d7014224b4aa24db47fbfdc088f,fac8e9877db9e81401a914643f76085d154
6182279276,own7bd95d7014224b4aa24db47fbfdc088f,facc2a4b43aa4cd497ba80d7c44e1157a0c
8082154203,own7f078249881b4e4f9d66f6958679504f,fac089829d59349437390bb7bc6657a139f
8082155115,own7f078249881b4e4f9d66f6958679504f,facea3038bc58344c839e1b3b49e245f13e
8583584336,own800e528d304d469180ff5089ca0f4cc1,fac03eeb200d8a04e349e7dc8e6a27bfd16
5622684792,own800e528d304d469180ff5089ca0f4cc1,fac14b9aca402cc41e78ce8fc0253c71ba7
6266282825,own800e528d304d469180ff5089ca0f4cc1,fac1bdeb219a7db4e88b17c4be921acef1b
8582990908,own800e528d304d469180ff5089ca0f4cc1,fac1ce7aad9794049c38f371756db4b363d
4086760965,own800e528d304d469180ff5089ca0f4cc1,fac236baaf894e2415d8b92d026d60eb421
7602806048,own800e528d304d469180ff5089ca0f4cc1,fac259a70e7bc8d4c5ebff020eb1faa0460
8188394950,own800e528d304d469180ff5089ca0f4cc1,fac2a2081dfa8ff4431b9d0bb8aa0cfba17
7146461258,own800e528d304d469180ff5089ca0f4cc1,fac2aeed0ff30014954b23ec22be7554e3b
7146461728,own800e528d304d469180ff5089ca0f4cc1,fac2afd81f2c3fb4e60906c0eeaced17e3c
8185729873,own800e528d304d469180ff5089ca0f4cc1,fac2d95f625a8c34e0b93f05878ab752448
6194574451,own800e528d304d469180ff5089ca0f4cc1,fac32f010c009554d4bae83852d76453845
6196030257,own800e528d304d469180ff5089ca0f4cc1,fac349438b343d44db394e0d3a628c201db
4244031878,own800e528d304d469180ff5089ca0f4cc1,fac36ad1e663ee4478d9025aeaf1374c22b
8583584396,own800e528d304d469180ff5089ca0f4cc1,fac3e9935131b5044ee975a06ca331b5977
9496490523,own800e528d304d469180ff5089ca0f4cc1,fac4020405403ed4c859150a71a747e3753
6192730326,own800e528d304d469180ff5089ca0f4cc1,fac491388dfa3e046e28a9286a09de54383
6193779993,own800e528d304d469180ff5089ca0f4cc1,fac51ae33a87ee84fd1b06e29e8c48c23c1
6197895726,own800e528d304d469180ff5089ca0f4cc1,fac582c84f9e93a47f28081b722c91ff686
6197681478,own800e528d304d469180ff5089ca0f4cc1,fac58e60d525b2a483389fda33fc727150b
7602592134,own800e528d304d469180ff5089ca0f4cc1,fac5959b74ac8ed41c9b37fc1965324dc00
7145157088,own800e528d304d469180ff5089ca0f4cc1,fac673bad8dd3b44c608064ed4539c07b69
4085473676,own800e528d304d469180ff5089ca0f4cc1,fac6df30c0456d6430bb2e2eb1399419431
4084045766,own800e528d304d469180ff5089ca0f4cc1,fac70ed1adb94de449ba69d1747b8204e5c
6195540332,own800e528d304d469180ff5089ca0f4cc1,fac7e0b11ea5bee40509edf040f79edbf57
8188555384,own800e528d304d469180ff5089ca0f4cc1,fac8606f2ca14b74457b26c0ad2b8a1ef2a
4086760875,own800e528d304d469180ff5089ca0f4cc1,fac868fca55ba424be78e3eab5aff1e5f65
4243988016,own800e528d304d469180ff5089ca0f4cc1,fac88ca0d66e5054c6bb5106755989bb589
6505358295,own800e528d304d469180ff5089ca0f4cc1,fac9a633a629cde4fd9a790df30ae4361a7
7603503909,own800e528d304d469180ff5089ca0f4cc1,fac9e5c1bc1de344c2ca6b3ab84f21dbc09
6194925646,own800e528d304d469180ff5089ca0f4cc1,faca499db72391b4e17aa5340372451a318
6195144544,own800e528d304d469180ff5089ca0f4cc1,faca6e8d12ac31b4c62ab50a0b8593bf105
4086621232,own800e528d304d469180ff5089ca0f4cc1,faca77e9ae46d834e6e9e131dd4884fff0c
9256903493,own800e528d304d469180ff5089ca0f4cc1,facaa31429014114a2e94a2bd5fdd99bb53
6266282410,own800e528d304d469180ff5089ca0f4cc1,facac9c887b92e34a85adf3b34981e30d38
5104054982,own800e528d304d469180ff5089ca0f4cc1,facace8392034c34b57abe3e564e08924fc
6193913752,own800e528d304d469180ff5089ca0f4cc1,facc5540417bc96457aa0d8f126a41af90d
6195540887,own800e528d304d469180ff5089ca0f4cc1,faccf5a188d88834a8da45469a83369dc9c
7144870298,own800e528d304d469180ff5089ca0f4cc1,facd102cbeae5f8479ab45631bd20fbd420
5622684956,own800e528d304d469180ff5089ca0f4cc1,facd1ab4bc730bc4969aae49953be75e4ed
6196125447,own800e528d304d469180ff5089ca0f4cc1,facd8cac81e0c4140cbbe8ae0c7c079313a
4086621180,own800e528d304d469180ff5089ca0f4cc1,facdee7a69278a04335a2c4db6d94de956d
7146406681,own800e528d304d469180ff5089ca0f4cc1,face06c99e8ce7445679fd11c97ecd4ebf7
6197896739,own800e528d304d469180ff5089ca0f4cc1,face9c59bac79bc432ab9bf81da63a225b1
9496494484,own800e528d304d469180ff5089ca0f4cc1,facee7759cfa3ec4dfbb85949dcd9b44007
7144921054,own800e528d304d469180ff5089ca0f4cc1,facfa83c89510664baab01f7d2ecaeb53de
4069094353,own8218a15c896c4c829b9d1ac5f0d91a2c,fac67c0fcb64f755b91b42065b4aa143707
7067058224,own82e6a0b57eff4981b28851ebd21be8cf,fac1366d53082e95c4cb7066521286ac6d2
8082154172,own82e6a0b57eff4981b28851ebd21be8cf,fac1a823ec923855b9baa1b62de0ac76141
6614638812,own82e6a0b57eff4981b28851ebd21be8cf,fac53e595eaa9c153aea0b938c1bb9f2a69
6614665775,own82e6a0b57eff4981b28851ebd21be8cf,fac71fa926370b350ecae1db920083aa655
9094425761,own82e6a0b57eff4981b28851ebd21be8cf,fac96049c539cd6520aac8c6e7e4102359a
6612288730,own82e6a0b57eff4981b28851ebd21be8cf,facb9372df85309470c8ebcb58dd04f7fe4
7067058127,own82e6a0b57eff4981b28851ebd21be8cf,face2e0769b16ba5e7d8cf1f49cb1cfb4ad
5103183714,own89b30b3d0c3c496e9e526a1cd53111d7,fac1d20682957ba4939b2177e91e6abed8f
5104051070,own89b30b3d0c3c496e9e526a1cd53111d7,fac3c7290b829614f51ba13c897237fee66
5105883383,own89b30b3d0c3c496e9e526a1cd53111d7,facd22caba4118544d285cd1e12fd4b4605
4084098655,own8c5a51ae78c911e98dd48c85905c4a8b,facd71825eb6caf53088ecd6ea71d320b1a
7073090562,own8d3e03d3f61647a08c75246e05512135,faca61e4cda986259b696c7df38b7c0cdb7
8163578761,own8f01a247de0b44f688421391faac1524,fac0a15a656d99a49689eb09cb41e641811
5094781959,own8f01a247de0b44f688421391faac1524,fac162451fd9eb6527aa9df2f5637dd09fa
2084278706,own8f01a247de0b44f688421391faac1524,fac31c931c1fe274f9b845429090af79082
5095871742,own8f01a247de0b44f688421391faac1524,fac3e7565600d494a2fab6cfd40b973ffa4
7752523805,own8f01a247de0b44f688421391faac1524,fac5d81a46ba40945ab81caca09fa869760
2084005910,own8f01a247de0b44f688421391faac1524,fac61f0f724c83240319e4a14e121d69743
4052516335,own8f01a247de0b44f688421391faac1524,fac6aa569b394044c2088caaa8a89c5eb52
2082258974,own8f01a247de0b44f688421391faac1524,fac7376a02556f94160ad4779118cc0e8bd
5095605659,own8f01a247de0b44f688421391faac1524,fac871535bb287b4d839443493abbed708b
2084278561,own8f01a247de0b44f688421391faac1524,fac9024a2bbba1f46199aeb39120314a0e1
2084278734,own8f01a247de0b44f688421391faac1524,fac9375f0202c7143b1a162af752545c2b1
2088442619,own8f01a247de0b44f688421391faac1524,facb98bbcf5ab2c4f0eb26d7daab0622dba
5412563310,own8f01a247de0b44f688421391faac1524,facd44f7ee1283c473ebfef7da4509f2d07
4056438958,own8f01a247de0b44f688421391faac1524,face3afd16fd12f4f84ab58433a2fd03222
2084278588,own8f01a247de0b44f688421391faac1524,facf5131b21d1644925818c63de9cb6041d
2076402785,own8fd86d5d040e4d1aa0ddaf3ab6ecc04c,fac925d207f001259bcbec687315105cc5c
9156153074,own912376a0c75e46649021a283a3f69a41,fac0856b660ab844f95b99e254167c60238
4352445433,own912376a0c75e46649021a283a3f69a41,fac3c7e958420c84f2cb2ebb961fcda3a69
5203768332,own912376a0c75e46649021a283a3f69a41,fac43820acbb1f141a4aa5942f057dfe9c3
9156153267,own912376a0c75e46649021a283a3f69a41,fac46b14b3190814c2fb681c6fadd7c0034
5755004620,own912376a0c75e46649021a283a3f69a41,fac707fd65822704934bf10158d3a534ef9
9152212381,own912376a0c75e46649021a283a3f69a41,fac8782c412e8a15f3e947e75ad6d00a0b3
9156153251,own912376a0c75e46649021a283a3f69a41,fac98b3b2cd177041f1a60868c64f95eee5
5202631198,own912376a0c75e46649021a283a3f69a41,facb141ee03a594452ab3b52b30cdb5b994
9167964879,own912376a0c75e46649021a283a3f69a41,facb32d9bede0724dd8bd4a96588669f550
5204706025,own912376a0c75e46649021a283a3f69a41,facb3ff5f49296c4e4aa401745c46b2c129
9156153268,own912376a0c75e46649021a283a3f69a41,face296683729664678a15b8bbb577dd4e2
9155294870,own912376a0c75e46649021a283a3f69a41,facee0c3beb82df4100939ece58eb33d817
9033547981,own91d2d6ef1b2843748189c1a677289801,fac3e3bbb4deec84389a4f850373241a50e
9032257995,own91d2d6ef1b2843748189c1a677289801,fac4539322b69475c2d8d7597de0fc2f9dd
5128900208,own9770f6ffdb924c539850fd170b6b52ef,fac03f5f0b2c4f84371a03aa8c563c1b232
5125591608,own9770f6ffdb924c539850fd170b6b52ef,fac1b900f8d47144b5a8abe7129e191a6f5
5128661365,own9770f6ffdb924c539850fd170b6b52ef,fac4634dfb694344ec392977e4f59fa9522
5129678425,own9770f6ffdb924c539850fd170b6b52ef,facb7c091394ff54e19a2465cc3c1a716ef
7043974155,own9b8e62b7f678499698dfcea89bff09df,fac4d8da598442f417b8b1dcd6efdee24c7
7043973120,own9b8e62b7f678499698dfcea89bff09df,fac5eba7c8cad3545d5a7c3b1617cec4f58
2084278532,own9bb5235b0e4d43299d13ad3f06d483db,faccb2ac90ad1f1418b92f226edf8917f47
7073907624,own9e30416739e543378a303de64ad561d6,facfd605b96f4e553a7ab027c56513b98b7
4172753573,own9e4e59327e324196bb4c0eb5109a644d,facd65decc3a26a48b3bf1305cfa8c8cb81
6182695138,own9e4e59327e324196bb4c0eb5109a644d,facf2531006aad448acb8b886564d06ac86
7144091189,owna4d7ca9b85d74cc982089bbfa9f4ebd7,fac2f1f301a2f4251199c1b50c0277636ac
7146461827,owna4d7ca9b85d74cc982089bbfa9f4ebd7,fac5becb7ca2b9452809067e8423fc496f4
6197890760,owna4d7ca9b85d74cc982089bbfa9f4ebd7,fac833ca0b691845a339c52688e7826e721
7146406709,owna4d7ca9b85d74cc982089bbfa9f4ebd7,fac8d08ada1df04500482de70351116e70a
8312925127,owna5e6a3f2cbb54d03b3e2c5debd34598c,fac4ad1b93e35ae5b0abe6be62977e324ca
8452951539,owna9fa8a0d78d6430c9ad684bd694a1f0d,fac40b6e1b7a8814a03aeaa6d2ed53947ff
7073833556,ownaa98655c5c164d3fa2325d70d1cb4ee8,facae2614bf729456e9b215d38405a1c71a
9496490719,ownace02f8b8c67414e8419e2e0ecdcfedb,fac7deb8e6625145e0fa6051838e6162437
6106653351,ownb0af63627b5242a098b61fdb24e80134,fac1adc949c68145a9da72883c8bbaaea0a
4842468601,ownb0af63627b5242a098b61fdb24e80134,fac40efd59073a34ecc9f526649578193e8
6105955723,ownb0af63627b5242a098b61fdb24e80134,fac4751082f786057e4899ae649e6d13329
2674594310,ownb0af63627b5242a098b61fdb24e80134,facb58cf95319785d89a84b69224037966c
6105104701,ownb0af63627b5242a098b61fdb24e80134,facb8e7c95c96f251ad83b08dd16ef2486b
9402912825,ownb1e08d9baa77418d90bbe56a44e662dd,facb28b6809cc0d59c9989d8b2a0de3c338
2138553695,ownb3519bd0d8c24c39b36ab1f01e29335e,fac052395827a5e51b8b3f0dc62ef0bf989
2132952056,ownb3519bd0d8c24c39b36ab1f01e29335e,fac062e528e110e541a800b9e7586c900f0
2137704169,ownb3519bd0d8c24c39b36ab1f01e29335e,fac07f576ddbf535218a326d217f98c3c0c
2134933594,ownb3519bd0d8c24c39b36ab1f01e29335e,fac802c6f82f82c426b8b4503563ca808c8
5106192532,ownb7ec5962e26f469fb3ac3adc0ae51127,fac4cc777b69faa4c0c8a9ef18e5c5527c9
3606376163,ownb82c094aa19642178f4e93aeae0e8930,fac0c8f9778a54f4e939b97fd1efd0e1978
5095900373,ownb82c094aa19642178f4e93aeae0e8930,fac2837722064d1408fb9d0ea0a1e254a3a
5094166200,ownb82c094aa19642178f4e93aeae0e8930,fac61dfcb1c846845689ca4ae1a1e4df525
2535011703,ownb82c094aa19642178f4e93aeae0e8930,fac8feae3a911c945a6aed5b1d337e625e3
5095900327,ownb82c094aa19642178f4e93aeae0e8930,fac9503d625a6be436291ad3d0a46517607
5092287598,ownb82c094aa19642178f4e93aeae0e8930,facc1f11111c7584215a4d24626cc6e9091
5094245347,ownb82c094aa19642178f4e93aeae0e8930,facdfc6d9bd39d745cc973fb0e906c808f4
2542763668,ownb886360c97794fd8aa8b769e3a184338,fac47dfc71461b94bfe91e76478a3d33a97
2542763988,ownb886360c97794fd8aa8b769e3a184338,facc1d456c2469a40a88b3b76767421f2ba
4234012768,ownb8a10b98230f4dd584377936cc1fde3d,fac0a2dc244a71147cca5e802f1ca0b3391
4234552847,ownb8a10b98230f4dd584377936cc1fde3d,fac0ca4909b8c7043818e64596f18c061f8
9312832290,ownb8a10b98230f4dd584377936cc1fde3d,facaa42d5dbc94652ff977c75cf35363353
4233761190,ownb8a10b98230f4dd584377936cc1fde3d,facd249bbe669cb48e4918c3620b5d96cf6
4233972779,ownb8a10b98230f4dd584377936cc1fde3d,facea9314258d374b4fb53d9e57e05735e7
9705488944,ownb8a10b98230f4dd584377936cc1fde3d,facfe4b32ea1da541e9955b1693056833e3
9162378437,ownb90db224a7fb45608647b3269d2d50a9,fac0aeb24509dff50bb929c34b6e629a564
9094795305,ownb90db224a7fb45608647b3269d2d50a9,fac192fb3f5961e5846820ff91da6a51258
9312836125,ownb90db224a7fb45608647b3269d2d50a9,fac26549af27b985c74bff73bc11d8754d9
6152355596,ownb90db224a7fb45608647b3269d2d50a9,fac36528c8abacf44e6af1f597ec22f196d
6158134944,ownb90db224a7fb45608647b3269d2d50a9,fac41a44a6a72df50138012cd2616b6875f
5095605692,ownb90db224a7fb45608647b3269d2d50a9,fac4dcf8e23cf495a4f87ee1361d4e64d0c
7752434028,ownb90db224a7fb45608647b3269d2d50a9,fac50cd628843d8476888c40f5b5365d118
7252175589,ownb90db224a7fb45608647b3269d2d50a9,fac55de5de23cc05d0eb361033f59afffa9
5084666343,ownb90db224a7fb45608647b3269d2d50a9,fac5a324cc78b7850bb96ae2e74515cc03b
9514702803,ownb90db224a7fb45608647b3269d2d50a9,fac5b03c948d8da5b548165a0eca7460a56
7742338610,ownb90db224a7fb45608647b3269d2d50a9,fac635820cc867a58c5bc1d9dd72d885331
2818433493,ownb90db224a7fb45608647b3269d2d50a9,fac6a67e1cb20725beea1c95d12e20a6083
7603503815,ownb90db224a7fb45608647b3269d2d50a9,fac85f3b744b1bd5213ba0cd2e796d751e5
9514763878,ownb90db224a7fb45608647b3269d2d50a9,fac863b3eef301a554f9f2c39f6462747b8
3392306269,ownb90db224a7fb45608647b3269d2d50a9,fac8a9bb72bf5824ec8a2a3bc65302c0669
5128900899,ownb90db224a7fb45608647b3269d2d50a9,fac8ce20934624a5321af604ec9955779df
9313452843,ownb90db224a7fb45608647b3269d2d50a9,fac8d2cf4786b3c589fa5feaa725b2bc9da
5204025096,ownb90db224a7fb45608647b3269d2d50a9,fac9a24eacebcf45d168c37957646727f6c
2142392699,ownb90db224a7fb45608647b3269d2d50a9,fac9c776e198eaf5d23a0d0bd3a4aa69a7b
9094425088,ownb90db224a7fb45608647b3269d2d50a9,fac9daa98ee9fde57abbfa78f7bac6828b5
7603503931,ownb90db224a7fb45608647b3269d2d50a9,facb88e1ec4ec93518e834861e20a7f6a68
5592723708,ownb90db224a7fb45608647b3269d2d50a9,facbcd28f4f9c465cd597db8b0cbdd98434
6614641427,ownb90db224a7fb45608647b3269d2d50a9,facc2352e06572e588688eead3506adf81c
9092964146,ownb90db224a7fb45608647b3269d2d50a9,facd534baabbe5751bab763bb0ee111b55b
6158134898,ownb90db224a7fb45608647b3269d2d50a9,facd77cf9e8965f5c32a612cee0b486103a
9514702319,ownb90db224a7fb45608647b3269d2d50a9,facddc538c5a28455b690bb67451a2f8206
5622684782,ownb90db224a7fb45608647b3269d2d50a9,facdea11debff325ce08697d93cac03ea30
6614665422,ownb90db224a7fb45608647b3269d2d50a9,face142d5125dcc5633b5216c2e9f711f21
9495697926,ownb90db224a7fb45608647b3269d2d50a9,facea7501cc74ba4b509534c7de3509feb0
7633734345,ownb90db224a7fb45608647b3269d2d50a9,facfbfaaa617bc35cd49d6e3f1c9e6266c4
8178597815,ownc74ce197e3e14e68a4803974ab23d748,fac09648a564b3e49898ec33ac590e9beb1
8177656713,ownc74ce197e3e14e68a4803974ab23d748,fac0c016b23157b5d69991b35763ccfac9a
9729629442,ownc74ce197e3e14e68a4803974ab23d748,fac10dc163f634f4701987b6b23b4300b24
8178597659,ownc74ce197e3e14e68a4803974ab23d748,fac1f99e4afd90051748ef603dfefd036e5
9729629345,ownc74ce197e3e14e68a4803974ab23d748,fac21b9a63d7f02518999e82adb47ed8adb
8178597745,ownc74ce197e3e14e68a4803974ab23d748,fac24fe51b4bb774d1aa95eb595133d4c89
9729629534,ownc74ce197e3e14e68a4803974ab23d748,fac26f566a28b614103ae8b1b29f09d9b38
8177656723,ownc74ce197e3e14e68a4803974ab23d748,fac274ebb7d41444152a984b9560cf3af2a
8177830425,ownc74ce197e3e14e68a4803974ab23d748,fac313ff9dde9854b5ab3bffa8c83e323ab
4052962254,ownc74ce197e3e14e68a4803974ab23d748,fac3675af003c9d45839bae5606a7cea369
4694365432,ownc74ce197e3e14e68a4803974ab23d748,fac3f3a8a523fd84db291f90cb0fa6856bc
9729246032,ownc74ce197e3e14e68a4803974ab23d748,fac43305ee410d85d5595fe3f3b0c453c52
8178597836,ownc74ce197e3e14e68a4803974ab23d748,fac4ba35b7ebd305365b0813e342c0d755a
8178597860,ownc74ce197e3e14e68a4803974ab23d748,fac4dfb3633c5f553419b1923f61fbbb242
8177656675,ownc74ce197e3e14e68a4803974ab23d748,fac55ee27ee16bc5c06ae3c49f4d50a9b04
8178597820,ownc74ce197e3e14e68a4803974ab23d748,fac613b8f51b4d7547d96bf5bc3369c9b71
9729629622,ownc74ce197e3e14e68a4803974ab23d748,fac6444d342574b5fd1a72ee7b18263305a
8177656751,ownc74ce197e3e14e68a4803974ab23d748,fac6d4252a24bce5dbf96893903e93c6017
9729629663,ownc74ce197e3e14e68a4803974ab23d748,fac7b4bcd56c6eb548e899639b569f016cd
4694365527,ownc74ce197e3e14e68a4803974ab23d748,fac7d55ad8c7aea4ee793441688aa54dcd4
9729629631,ownc74ce197e3e14e68a4803974ab23d748,fac7ebdeb33189a4363bdc9c08ef89b9fcf
4052769420,ownc74ce197e3e14e68a4803974ab23d748,fac7f26114532ec43f89e2e838aa7e7eb44
9402914795,ownc74ce197e3e14e68a4803974ab23d748,fac880d569caf644b78a10da8e51dd216bd
8178597818,ownc74ce197e3e14e68a4803974ab23d748,fac8e2294a3b7e951b39fe8213e31ad507b
9729629569,ownc74ce197e3e14e68a4803974ab23d748,fac997def1813495e598b31f726e572cc5d
8178597854,ownc74ce197e3e14e68a4803974ab23d748,fac9ab41b984b03543a84718da558fab571
8178597833,ownc74ce197e3e14e68a4803974ab23d748,faca0d796b2060d4d9b9bcfb2c6498ca883
8178597770,ownc74ce197e3e14e68a4803974ab23d748,faca3160223239c5176891c428355d48a96
9403265305,ownc74ce197e3e14e68a4803974ab23d748,faca61303a3f14750e8aaabbbfb6e843296
9727367975,ownc74ce197e3e14e68a4803974ab23d748,faca68720975cff5fa99a3a32843fec6811
8178597739,ownc74ce197e3e14e68a4803974ab23d748,faca77ceb1ccab35fdbb1f650357e45fb68
8177656764,ownc74ce197e3e14e68a4803974ab23d748,faca9313835bfd158608d7c2ac9bdc35623
9405313758,ownc74ce197e3e14e68a4803974ab23d748,facadba045df1214e469074c4afd7c9175b
9729629247,ownc74ce197e3e14e68a4803974ab23d748,facbd2ed947aa51528cb8ee84ff14a9c6c7
8177656677,ownc74ce197e3e14e68a4803974ab23d748,facbe208ded5c835d5ba6eab01f8a5d16d8
4694365499,ownc74ce197e3e14e68a4803974ab23d748,facc3db6c96084456f9b11297a520494f82
4052898881,ownc74ce197e3e14e68a4803974ab23d748,facc7382def327646e1b4e720b70c4dcba7
8178597823,ownc74ce197e3e14e68a4803974ab23d748,facc95df5e07b6f58ebb241910f822c20a0
8178597856,ownc74ce197e3e14e68a4803974ab23d748,facca558f164e355a07a91804e61431d068
8178356916,ownc74ce197e3e14e68a4803974ab23d748,facda59a3e118f1430cb0f77195abfdfb99
8177656769,ownc74ce197e3e14e68a4803974ab23d748,facdab8302f6d06595b98eb9f64081d7c30
9729629284,ownc74ce197e3e14e68a4803974ab23d748,face6db858c85425178bc6b0490b9360c9d
8178597691,ownc74ce197e3e14e68a4803974ab23d748,face87158bae03e469ba01e948cb6b886d4
9729458143,ownc74ce197e3e14e68a4803974ab23d748,facebaf5fbea0515a459c0698e74151cb72
9729458025,ownc74ce197e3e14e68a4803974ab23d748,facf785e3009b4c5cf6adb25f85f2f43035
8173457122,ownc74ce197e3e14e68a4803974ab23d748,facf7aa32ba659e4e469326d359d13605bd
8177656594,ownc74ce197e3e14e68a4803974ab23d748,facf80d281314464d8bbd8996f5855ac2cb
8178597766,ownc74ce197e3e14e68a4803974ab23d748,facff1d3335c1475401a18d5bb2e3ae0fd8
2546370489,ownc74ce197e3e14e68a4803974ab23d748,facffd62bd8c7bd599b9177563c73ee85ed
9165279773,ownc8f32cc802014301aca8e09302fa4568,fac67d0644892775a22b84a03dfacaaebd5
9495697903,ownc8f32cc802014301aca8e09302fa4568,fac99cd9500e4144bbb90579a3d151f056c
5622684955,ownc8f32cc802014301aca8e09302fa4568,fac9d5a91c01a6f580f9553ff2341088374
9163041572,ownc8f32cc802014301aca8e09302fa4568,facaa1191f8c35d44d4993b09b82a4a300e
7579828720,ownc96fb9aeffb7441d9d6db77b7f426346,fac068e72de34a446a18bafc23d48cf25d8
7579828521,ownc96fb9aeffb7441d9d6db77b7f426346,fac0691368e295b4848858f2bfc4d7c9d3d
7579828582,ownc96fb9aeffb7441d9d6db77b7f426346,fac0e99f8b966fc4016b3f2590805d849d0
7579828783,ownc96fb9aeffb7441d9d6db77b7f426346,fac35703a281b3d45e4a9159b3edfa30dbb
7579828726,ownc96fb9aeffb7441d9d6db77b7f426346,fac61386c3086b54add83ee2d421c742019
7579828771,ownc96fb9aeffb7441d9d6db77b7f426346,fac9f2db5e70bca49398558b15d577ba6de
7579828652,ownc96fb9aeffb7441d9d6db77b7f426346,faca2aaefee0f7944baa39acf29848f3928
7577992023,ownc96fb9aeffb7441d9d6db77b7f426346,facbbe366667e61413cb69f3ff2bc399d65
7579828812,ownc96fb9aeffb7441d9d6db77b7f426346,facbe6787f77f0d4fe4885feaadac6d06e1
7579828743,ownc96fb9aeffb7441d9d6db77b7f426346,face3d0a3f32d264ab993d454e5df7148bd
7579828642,ownc96fb9aeffb7441d9d6db77b7f426346,facf9b6c50e8f7546b3aed6125c85648887
9284960657,owncbc357b036b146a38dc416a2821d6788,fac15c224a0f5494903b187da098ed9cae2
5593649399,owncbc357b036b146a38dc416a2821d6788,fac2435adc595fe453fa587018ea5275ff5
6614638440,owncbc357b036b146a38dc416a2821d6788,fac2bdce7d57504406d98249b928ba01f19
5592344551,owncbc357b036b146a38dc416a2821d6788,fac5466df8771a34706aa29bd440d726fe5
9284960672,owncbc357b036b146a38dc416a2821d6788,fac619c2671125743e9925263d28b434b09
6614516647,owncbc357b036b146a38dc416a2821d6788,fac93b41877ddbd4f62ba7594c862e93e0e
5593459519,owncbc357b036b146a38dc416a2821d6788,faca8014796ed734710893dc4099856c724
5593795459,owncbc357b036b146a38dc416a2821d6788,facac9859e86cd9423384b9d8c99d16ddd2
2816261913,owncf3e46fdf1c14ca99ca611dd4b0e96ff,fac1336123a48a242e78a5a4972cb2b87e6
9362158244,owncf3e46fdf1c14ca99ca611dd4b0e96ff,fac13bab57577d24684bb0a0ab319c4db1c
2816261778,owncf3e46fdf1c14ca99ca611dd4b0e96ff,fac1641f4beb3ac41758bfb04dc1a9ce4e2
9403021020,owncf3e46fdf1c14ca99ca611dd4b0e96ff,fac1648203a1e5d40988a33b10ebcb6c185
3186186568,owncf3e46fdf1c14ca99ca611dd4b0e96ff,fac22b5e4ec68335418a32e12ab4b5146ec
8123890797,owncf3e46fdf1c14ca99ca611dd4b0e96ff,fac232889a6602e471f9ba31a9a6768e36d
9107144809,owncf3e46fdf1c14ca99ca611dd4b0e96ff,fac254d3833d0ee4942a7deddadf3ee6faf
3183863488,owncf3e46fdf1c14ca99ca611dd4b0e96ff,fac2af3eae921f0544d9de3ff82b8cae1f2
2816261567,owncf3e46fdf1c14ca99ca611dd4b0e96ff,fac3b52fbfb5d464542995118a572a5830c
3603278602,owncf3e46fdf1c14ca99ca611dd4b0e96ff,fac3bbcce2d6cfa48cd96db22cd8e938c05
7753129241,owncf3e46fdf1c14ca99ca611dd4b0e96ff,fac4993e78fbda347c999726b5cc8dc5139
8704575810,owncf3e46fdf1c14ca99ca611dd4b0e96ff,fac514af5bdb8c044f9b3c01a23e9707d12
7067058330,owncf3e46fdf1c14ca99ca611dd4b0e96ff,fac5c33b1f84c644ef48adc22a4502b1834
2546370480,owncf3e46fdf1c14ca99ca611dd4b0e96ff,fac5e1722378dc45ce0ae2577ec963998ed
4787726805,owncf3e46fdf1c14ca99ca611dd4b0e96ff,fac623854532ca040a9868445ef02738467
7067058195,owncf3e46fdf1c14ca99ca611dd4b0e96ff,fac65fe6bb3a2d147b6b9b421511b2ed587
2546370561,owncf3e46fdf1c14ca99ca611dd4b0e96ff,fac6bef402244455cadb501236efb57bb75
2058131309,owncf3e46fdf1c14ca99ca611dd4b0e96ff,fac6e0f6ef9454b46c0909b6ad52f1f1785
4783479415,owncf3e46fdf1c14ca99ca611dd4b0e96ff,fac731b9871b1fb4f8da9e70e175d138558
4092550589,owncf3e46fdf1c14ca99ca611dd4b0e96ff,fac7fe11595331c52e2b39fcec39a2e700f
9107144979,owncf3e46fdf1c14ca99ca611dd4b0e96ff,fac96d6bc933db94402b53d328f6d6a5a75
9563061319,owncf3e46fdf1c14ca99ca611dd4b0e96ff,fac9ad169c953d4481c98550d01022fde96
8302834025,owncf3e46fdf1c14ca99ca611dd4b0e96ff,faca2f1c8e4ee114ed7a11032e031a9a7ca
3344542495,owncf3e46fdf1c14ca99ca611dd4b0e96ff,faca47afcc83c2048ee833204cf155b04b2
3344542516,owncf3e46fdf1c14ca99ca611dd4b0e96ff,faca4c15b73be3d45e89f59d4dfbcd66175
3343262347,owncf3e46fdf1c14ca99ca611dd4b0e96ff,facb44a1234b1b649248dd001f2898f43fd
9107144865,owncf3e46fdf1c14ca99ca611dd4b0e96ff,facbe9f1b842d1a4fefbbb2c75dbd3701ed
3183863971,owncf3e46fdf1c14ca99ca611dd4b0e96ff,facc61133ae87f45c4096074820c0ab2c68
3184136409,owncf3e46fdf1c14ca99ca611dd4b0e96ff,facce04183c74bb503892b4e1f8f3928798
4344435233,owncf3e46fdf1c14ca99ca611dd4b0e96ff,facd3525ac13af746158be43528920416c4
2058131522,owncf3e46fdf1c14ca99ca611dd4b0e96ff,facdab768bb331c4123b92d6923ec6b7dff
8122897559,owncf3e46fdf1c14ca99ca611dd4b0e96ff,face154affc90b4444097d8e27a128ab3b5
8506798520,owncf3e46fdf1c14ca99ca611dd4b0e96ff,face9d01ef1cbef5712bbcff73afbd66c65
4092634205,owncf3e46fdf1c14ca99ca611dd4b0e96ff,facecd8caa6e9695fb2a02431a94a69c8f1
2818433244,owncf3e46fdf1c14ca99ca611dd4b0e96ff,facef5d15658ede47e4abf1f5de72a7a960
5126413673,owncf3e46fdf1c14ca99ca611dd4b0e96ff,facf6fe9baae69646e2a7761420e89bc4e7
8056083721,owncf5bf938e63c47be88c86920029c33b4,fac687264b838bd59a09eb0f05addebef09
6504144750,owncf5bf938e63c47be88c86920029c33b4,fac84acd413724e4c6cb7c9a3888c115dad
4092543275,owncf6bdd29b128422dbb19156b5e2cbcdf,facde7a361a69ff4a858fe0285f96e5aac4
4056437841,ownd2d64f3a952d4bca8e49dddf666b5c23,fac86e8e47710664cbdbfc1442b19e4690c
7633734217,ownd439e411d6f941feb60f6dbe8b8b99ee,faccf0c65a54d3a536996fa1338a1613463
2532701351,ownd566e0f280444a3e8309cf2e233eb68b,fac0ff48f4f81ab5321ab91873caccc10c8
3602529308,ownd566e0f280444a3e8309cf2e233eb68b,fac4f079cc5367c56f7a9ffee7d0716a59d
3602268806,ownd566e0f280444a3e8309cf2e233eb68b,fac68d0149ce08d5fb287c73bb60746adc7
3606417504,ownd566e0f280444a3e8309cf2e233eb68b,fac6afa89fb23fb5ebaae5778ff210604f4
3602275316,ownd566e0f280444a3e8309cf2e233eb68b,fac89405904d22c4a5ab85ae6b65ed5290d
2532701253,ownd566e0f280444a3e8309cf2e233eb68b,fac8bf3e6190a2d424aa88d81e691c34b1f
2532701267,ownd566e0f280444a3e8309cf2e233eb68b,fac95cf71491dcf4267b0dce588a23fdb52
3603187812,ownd566e0f280444a3e8309cf2e233eb68b,faca61b4f80061a59e3932c648fd8f8be8f
2068956567,ownd566e0f280444a3e8309cf2e233eb68b,facc03c14acbb90594e949faa74b5ca1c64
2533001671,ownd566e0f280444a3e8309cf2e233eb68b,faccf8e2658ff5f54d08861f9062029a101
9804415834,owndbe5bdb327b3401a96c4429a7aacc9f8,facd1454aecc821493da737f9d574abcd48
7067058216,owne757245495f9441a93b4c08b55c96d16,fac123demo
8506798157,owne757245495f9441a93b4c08b55c96d16,fac38c1011caa47515d8ce8e99dec86b47a
7067058128,owne757245495f9441a93b4c08b55c96d16,fac7e5e9a2b6b54410dab06xxyyzz
7067058154,owne757245495f9441a93b4c08b55c96d16,faccff2c58bc1bb5f7
8506798707,owne757245495f9441a93b4c08b55c96d16,faccff2c58bc1bb5f76bdabe6f0d0d5af60
7067058323,owne757245495f9441a93b4c08b55c96d16,face477a318c4c45fa7843bc63b38542282
4172724447,owne7fc33567c1141b6b38dea5064cd9db2,facb7550ac544a94fccb761380b739e79e7
2084081867,ownf260f6e17c854e3aa7083f43cd69e369,facf06efc94b39041998ad46115949d7d14
8593286743,ownf47598a066714d599449c6151a7ad355,fac78723ad709c74fb99d02b5f012792b5c
4086621116,ownf4bc819ede5a47588ec6cb0ad452ed86,fac010414fa566f46fb874cfa269a52f11a
9256903487,ownf4bc819ede5a47588ec6cb0ad452ed86,fac06849d9ac630451e8283d0731e331a3b
9362158595,ownf4bc819ede5a47588ec6cb0ad452ed86,fac15cf543385ab4dbc92b76af8134f23ee
5106302440,ownf4bc819ede5a47588ec6cb0ad452ed86,fac1dba56d029c147b3a47a5ec2c62465d6
9362963209,ownf4bc819ede5a47588ec6cb0ad452ed86,fac28bff92f7803465eb70ae9f95a200849
4086682700,ownf4bc819ede5a47588ec6cb0ad452ed86,fac2bf19354e9f34e3a8122f1b79741f69d
9363153115,ownf4bc819ede5a47588ec6cb0ad452ed86,fac2d45e5e2d0054a5f97b7eb80781818e9
7073835943,ownf4bc819ede5a47588ec6cb0ad452ed86,fac32c3a106dfdb4f98a69ec6680d8eaf04
9362156806,ownf4bc819ede5a47588ec6cb0ad452ed86,fac3481724e9ba14752ab2ba184eea5467a
7073090886,ownf4bc819ede5a47588ec6cb0ad452ed86,fac38d7d676d37345488ff00819c6f50aca
5106175790,ownf4bc819ede5a47588ec6cb0ad452ed86,fac40495b38e7b9450e90207cb63ae92546
4085473633,ownf4bc819ede5a47588ec6cb0ad452ed86,fac70b9f9c5e40a4148a4a458a506df37ed
4086929466,ownf4bc819ede5a47588ec6cb0ad452ed86,fac799902f7777e45148df35b8fcc2152b9
9362963281,ownf4bc819ede5a47588ec6cb0ad452ed86,fac8cace19c0b0746399aec40940e1d92af
7073485854,ownf4bc819ede5a47588ec6cb0ad452ed86,facb0aa1705584d482f91811133440ceab2
7073907549,ownf4bc819ede5a47588ec6cb0ad452ed86,faccc57e085b28c48ae84b10e0a01feacc0
5106302638,ownf4bc819ede5a47588ec6cb0ad452ed86,facd00fb2c6493d48ab88ca4ce03fc5f924
5106192751,ownf4bc819ede5a47588ec6cb0ad452ed86,facdaee72954ebf43198491e50a6feecf9a
5105748553,ownf4bc819ede5a47588ec6cb0ad452ed86,faceed164ca777848f0bede4a7fd312b047
9252815482,ownf4bc819ede5a47588ec6cb0ad452ed86,facffc0f2026d304bca99e4d23dd401d072
9513897702,ownf82220f2b85e48079bcf46be34a925ba,fac8732251b42064634963ccbee280e5b66
2513193954,ownf9cce332a9444192979a5718a81b1430,fac700c9fa691034d79aae9b844da9ccf45
8508087946,ownf9cce332a9444192979a5718a81b1430,facbd120d50c0094bb5b60feab2c1e1f74b
7815464602,ownfd4af779e15c4069ad3e7b8ad9f8c740,fac283fe8246c954e05a0d1a0e44f9fb19d
5617394146,ownfd4af779e15c4069ad3e7b8ad9f8c740,fac432e2b2a20914a86b0d66360a7e08394
5617394285,ownfd4af779e15c4069ad3e7b8ad9f8c740,face18745385e4f4818bf79a1d5bfe011db
9786449710,ownfd4af779e15c4069ad3e7b8ad9f8c740,facfa0b001a3a3a436caaf5ccef0106af57
4086621261,ownfda991671b1a4c92844798e622c29c4d,fac8f7f2dec725e4b4490654ec7297cfae8
6073881725,ownff9e6c3f61cf483a9d9172c09c5ace90,facfa8ac6498ef65091a4fb4832126e55d7
7022975171,362002,0
9495415674,346026,0
9498996233,348024,0
9197696734,347024,0
9497994917,348025,0
2175163888,86626,40
6362990980,109041,40
2172626501,86622,40
6362430493,107873,40
2172626863,86625,40
6362430116,108578,40
8172429121,352014,47
9727796098,345034,47
9726468482,345035,47
8066055086,119412,47
2107047945,115353,75
3612365903,119174,75
2106464955,115339,75
5123771625,115344,75
2108076242,115346,75
3612658962,115343,75
2108076219,115354,75
2623144083,102644,79
5128796346,115550,198
7708724710,119197,213
7708724706,119196,213
6788079904,85257,213
4702962476,85842,213
3053636162,84179,214
7149074332,82621,214
7607849505,81683,214
5623544419,107371,214
9152282599,117787,227
9152195492,117784,227
8016589672,101013,227
5204471501,79934,227
5755455004,92840,227
9152137014,117788,227
9152137112,117790,227
5204471388,119210,227
9167415096,82615,227
5202142788,337016,227
9152137051,117789,227
4022273894,92409,248
4024039976,119212,248
4023833180,92408,248
4027189170,141255,248
9285152034,119419,440
6233001326,79789,440
6234555491,79856,440
6234555538,119322,440
4808425411,79742,440
4808450354,79717,440
4808450723,119312,440
5203009048,79913,440
4806054525,79918,440
6233210291,79796,440
6234555576,119417,440
4808450384,119415,440
6234555694,119418,440
4808450711,79825,440
6234555731,79851,440
4805264896,111623,440
6027148541,126016,440
6233210047,79932,440
6235526024,80039,440
6234555638,79931,440
7759901418,93145,440
6232445371,80037,440
4804183832,119413,440
4808450866,79698,440
4808450783,119422,440
4808450809,119414,440
6234555512,119416,440
5204413815,119421,440
6234399866,79800,440
6234555585,119313,440
9188761560,95008,469
6264156768,81228,553
6159333799,97509,553
3109064044,104935,553
8449634046,159020,553
6234320835,119204,553
6156567375,97545,553
4247327076,109812,553
3105753074,80683,553
9496135779,81270,553
4242933954,81210,553
4106964416,113174,553
6234320646,79767,553
5623520310,81391,553
7865654831,129006,553
7867667304,84163,553
7867323963,113296,553
3236885213,82554,553
7147016491,81707,553
8058354885,82335,553
7027284334,92921,553
7142024737,82628,553
8189460741,80711,553
5623219388,113018,553
7144628660,82388,553
9728437621,115396,553
8182373210,81470,553
6264982274,302041,553
4075126086,113155,553
9519004928,80812,553
8189637921,81512,553
8187413445,112358,553
4243548456,109718,553
9548748905,84601,553
9493834555,81272,553
4242165543,81070,553
5623544261,113300,553
4072784100,83456,553
4242950951,109543,553
4242933953,129004,553
4242950658,109683,553
4242950834,81127,553
7866648906,119360,595
2393215580,119359,595
6196304987,81574,634
5616923998,84146,699
3184800948,88092,699
8019990951,100704,699
5612475964,84266,699
8014770948,110195,699
5618656986,83820,699
8015131986,100860,699
8014069902,100868,699
8012100992,113283,699
4022985251,333016,737
7027896510,119428,770
2392493838,83635,827
6144728606,93901,953
2517324905,119522,953
8505025623,128014,953
2484681619,89481,953
7402003090,128015,953
6145037917,111170,953
7403200356,302040,953
3108456996,81121,963
4106450917,119537,990
8052631526,81736,1006
7029416775,92990,1006
6612288368,81630,1006
7028421767,93089,1006
7027456761,93107,1006
7026028115,93085,1006
8056598482,81890,1006
8055494094,81737,1006
9092819748,80599,1006
8055494388,80648,1006
5623529949,82252,1006
4243907826,353016,1006
7026056034,380001,1006
6612288343,113295,1006
7472714187,113294,1006
7028256817,93004,1006
7472714629,81615,1006
7027668532,343101,1006
6616895921,82307,1006
7573508095,134039,1008
8044093833,101472,1008
5407798993,101149,1008
8044427587,101111,1008
8505648922,84101,1009
6614306191,81772,1231
5623965911,82250,1231
7752668936,106627,1231
6193467468,80894,1231
8087252426,85846,1231
7755451997,108937,1231
9519164855,81147,1231
7146768338,141246,1231
7753168927,93050,1231
8053228446,141247,1231
4245432328,80061,1231
8052931850,82215,1231
7753939980,107940,1231
6614306064,81310,1231
7602374432,81996,1231
9513980545,81146,1231
2256865473,142020,11014
2253690973,126005,11014
4079720845,83764,11134
8052533946,80549,11168
3104218993,81211,11168
6029102529,126050,11211
4808450713,126052,11211
6029102150,126051,11211
5203532497,113211,11214
5303631140,119512,12014
8056045612,81685,14049
9167415380,81086,14049
9165728950,80170,14049
3125740969,86635,14056
2173647511,87277,14056
7819952144,130001,15000
7815589076,130000,15000
6179347065,130002,15000
7814127093,301036,15000
7144777961,81044,15008
5132808857,130068,15163
9373194390,109321,15163
9374515150,94572,15163
9042099840,83386,16011
5406573319,101494,16051
7575172505,101053,16051
7579414630,101540,16051
5406573106,101154,16051
5406573179,101150,16051
7575172419,101134,16051
7047417521,340022,18004
4808185985,79781,18111
2052893137,78854,18114
8052446248,113430,19032
8053176512,82336,19032
9097136868,82088,19032
4256891780,101979,19048
4256891864,134013,19048
4803311974,134027,19130
9163185218,109128,20032
5303165246,150025,20032
9362470223,115049,20073
9367153137,115048,20073
9364171096,115047,20073
9362361967,115057,20073
9366474835,115059,20073
7196945094,82746,21013
8082011049,140017,21117
7067176330,155000,21117
7062045653,82702,21117
6614595017,81309,21117
6614034583,80867,21117
9095528393,81003,21117
8556353005,133028,22156
5034464063,106562,22156
9783156805,352006,22193
5617258629,353000,22193
7814231919,109127,22193
5615995878,84849,22193
8667328449,81323,22237
4088729593,119533,22237
7072385495,273010,22237
9254489532,273008,22237
6504828335,81963,22237
4087635997,82404,22237
8669715082,81356,22237
5108086027,81663,22237
5109747562,345037,22237
8315312702,104557,22237
7073834656,297000,22237
5103067582,314002,22237
7077660255,292001,22237
6614300545,331002,22237
9165963336,80172,22237
8054227912,340014,22237
4086178499,343005,22237
5108172527,103962,22237
2095466732,81482,22237
7074143516,346009,22237
8312756988,138340,22237
9254489011,80518,22237
7072447825,352005,22237
5303631107,346022,22237
5102983278,81135,22237
5103284452,81993,22237
8058045581,81595,22237
4155349285,106489,22237
5307725306,81095,22237
9254489623,81345,22237
5103284473,82128,22237
8312377820,82055,22237
8314530013,81427,22237
5303792148,80564,22237
5106626377,345039,22237
4243428501,350011,22237
5595884603,81329,22237
2092706599,356007,22237
5306782192,81100,22237
7072385915,82288,22237
7075043710,346008,22237
9167944281,331004,22237
4243495924,350038,22237
9254489090,273007,22237
9165710168,80990,22237
8053303730,347010,22237
5309684415,82454,22237
7076100872,345002,22237
7073834575,106337,22237
9258923552,107971,22237
7072825139,331005,22237
5102983273,81668,22237
2092294273,81422,22237
8664415577,113210,22237
4159429035,145030,22237
5108518637,103200,22237
9169150619,105219,22237
5593703047,81112,22237
9253504968,81341,22237
4159429013,82115,22237
9165710071,80165,22237
8312695049,313060,22237
4088728115,346028,22237
2512351031,79036,22290
8434613278,111351,22295
7044438918,138352,22295
8036668259,97019,22295
3363038930,91325,22295
7047650701,109269,22295
8506608967,138361,23517
3862843585,119657,24029
9282242218,140029,24187
8057255282,82257,24212
4094403813,116030,24247
3037207317,140062,24361
7605719263,82478,24588
3342460623,143050,24736
5097742605,101725,25132
5855984590,141121,25171
5855635019,108030,25171
8435475344,337004,25185
9126234192,85481,25185
9125843524,301014,25185
9123887038,85027,25185
9126234189,85475,25185
9122894101,106103,25185
9123485845,313081,25185
9122096761,85480,25185
9122447471,337003,25185
9123485088,313080,25185
8642491932,97207,25193
9163786651,240007,25237
9164720148,81609,25237
2082285271,141058,25238
2084732151,86207,25238
2088819527,107038,25238
2088744856,86314,25238
2082854515,347061,25238
2082280247,86342,25238
2084732281,86208,25238
2086470135,142097,25238
2084026527,86313,25238
8476071463,141110,25242
8016580044,100812,25314
5022760383,87878,25525
6476943314,141224,25525
5738304682,90278,25525
6476944573,141207,25525
5153466959,85863,25525
5156088832,111945,25525
8167354510,141182,25525
9138270529,141190,25525
9542288397,141174,25525
9137529276,87613,25525
9709864007,141193,25525
4046204768,85549,25525
5874104256,141239,25525
4086805864,111768,25525
5733494210,90274,25525
8162664682,90191,25525
7736722797,86515,25525
9528003725,89880,25525
2105985061,118755,25525
5156195902,112821,25525
5146130556,141226,25525
5878003407,137199,25525
8167444052,90370,25525
6476944263,141221,25525
2392080875,83632,25525
4023477064,92383,25525
5876000621,141195,25525
5636075580,85878,25525
7072719027,80980,25525
9137474208,87543,25525
8449850826,139019,25525
6476942507,141220,25525
8162054697,90205,25525
6476943729,137030,25525
5155124625,85966,25525
8166231507,119237,25525
8162664930,90206,25525
9138283272,87463,25525
7062528724,85180,25525
9546334140,109319,25525
4028824485,92397,25525
8318565132,105342,25525
2109609442,141192,25525
4788457766,141171,25525
3477651050,141169,25525
9133254357,141188,25525
4025074191,109503,25525
5735615232,90276,25525
5878003423,141240,25525
8162933078,306013,25525
5733559295,90275,25525
5105607027,81667,25525
2897993479,141216,25525
7052432196,137604,25525
8168399428,112476,25525
8556614175,137554,25525
8557126591,137543,25525
6303182041,141178,25525
5878020908,141200,25525
2264002188,141213,25525
9138719560,141187,25525
6308120049,86666,25525
3127577609,86492,25525
8163253839,90526,25525
2267980904,141223,25525
2012976926,104774,25525
5153934970,86046,25525
5156196718,85862,25525
8169344651,146028,25525
9255237602,80781,25525
2264002029,141203,25525
8162664788,90573,25525
4028095367,148024,25525
5153932949,110402,25525
6475032374,141208,25525
9543792187,141172,25525
5874105925,137201,25525
5106296981,141194,25525
7122645109,85907,25525
3658000966,141202,25525
2108809954,118753,25525
8168399271,141183,25525
3376804502,88137,25525
2892713466,141217,25525
7053023629,141206,25525
8162538995,90569,25525
5874105884,141198,25525
5147002058,141227,25525
8168399693,90483,25525
4026828905,105318,25525
8554664584,137026,25525
8446616850,311017,25525
4509141014,141231,25525
3057499938,83506,25525
4028095526,350032,25525
5156088181,85865,25525
4188007600,141229,25525
8165665063,110856,25525
9138719543,87435,25525
8165216958,146026,25525
6476943237,141209,25525
6304486658,141176,25525
2089963081,86362,25525
5874106057,137204,25525
9132257418,141191,25525
9522830695,89960,25525
3059307034,84219,25525
4109429629,141170,25525
9139378314,87611,25525
6475576337,137029,25525
4508230943,137108,25525
8557130507,137484,25525
9132257416,306015,25525
3658000817,141225,25525
2892713470,141214,25525
3475146437,93232,25525
8165654291,90699,25525
5874104773,172001,25525
5152001674,85964,25525
8472324124,141177,25525
6046707046,141201,25525
5873171904,137793,25525
4188003534,141228,25525
8167592010,107493,25525
3658000652,137423,25525
9139560321,87460,25525
8475139776,87110,25525
5155124349,86186,25525
5154978147,85870,25525
3126472261,86516,25525
5155051838,86185,25525
7033494628,101306,25525
2892720878,141215,25525
6476941283,141218,25525
7573303347,107624,25525
5739174712,141184,25525
5878011413,141196,25525
3373350393,88120,25525
5874106016,141197,25525
5153936863,113246,25525
8597564196,141175,25525
6476943946,141222,25525
6476942659,137028,25525
5873171560,141199,25525
4028095353,92366,25525
9136677564,87447,25525
8554722673,137572,25525
5153466869,85864,25525
5153495792,109523,25525
2108794069,115075,25525
3016846230,88622,25525
2262419469,137361,25525
5122702629,118799,25525
7053024213,141212,25525
2103483581,118754,25525
9135864620,87597,25525
7083152146,86925,25525
4023167657,111371,25525
3476964687,93231,25525
2269090973,137360,25525
7083846197,141179,25525
8162664708,90572,25525
4188007623,141230,25525
8164398814,90570,25525
4025182045,104805,25525
7632194515,143070,25525
8169344652,146027,25525
5153936244,113247,25525
4028756690,306014,25525
7052422935,141204,25525
8552739845,141232,25525
7069262053,85219,25525
2014251152,141168,25525
6475575989,141219,25525
3056900638,83504,25525
4508090032,137106,25525
2898061157,141211,25525
5735674694,90273,25525
6137063659,141205,25525
8162492728,141181,25525
4172834007,141186,25525
6476943712,141210,25525
3057499825,83505,25525
5878050318,137261,25525
6476944191,137027,25525
4026873084,92384,25525
3658000960,137336,25525
8553361379,137570,25525
8169877902,141180,25525
6197178942,80226,26029
6193204895,81303,26029
6197549659,80225,26029
8504241821,84015,26166
5622421808,81253,26247
5627350138,82631,26585
2103992714,251006,26656
2107022974,187003,26656
5129942718,142118,26656
2102390670,118701,26656
5129942802,118601,26656
5129942792,118702,26656
5126436358,300006,26656
9727762587,118703,26656
5129942752,142119,26656
3035299209,82796,26744
9703722391,83012,26921
9706446224,82988,26921
7324107940,142226,26945
9735878564,142224,26945
7184120519,93236,26945
9299303684,366000,26945
3476522346,93203,26945
3475149635,343095,26945
9293333635,93288,26945
7185934464,279002,26945
6468596681,343098,26945
8442062101,356003,26945
3475999153,343094,26945
7605306928,110653,27024
9138008993,143030,27154
3039639634,198006,27580
3174343369,322000,27616
3179835982,305003,27616
3175972066,305002,27616
3176536910,351001,27616
3176622773,343067,27616
3177932510,113139,27616
5407092012,101485,27617
5403853940,101484,27617
8023326191,143231,28022
8564222817,143229,28022
4094403272,143314,28274
4092045738,161032,28274
8043138856,101072,31201
7575172970,104422,31201
8043251552,101071,31201
8044465472,101080,31201
8044515088,101342,31201
8044176517,112796,31201
5403523334,101107,31201
9724350531,330040,32310
2147122257,147071,32310
8174354797,115987,32310
8173506431,115410,32310
9724719582,147072,32310
8174063833,115414,32310
8178357139,354012,32310
8178576502,115415,32310
8173823154,346052,32310
9724719571,115419,32310
9724719674,147075,32310
9728486082,346029,32310
9402822518,147070,32310
8178576519,147077,32310
8177567846,115411,32310
4058352546,147078,32310
8174096413,115417,32310
9725972477,330037,32310
9722013951,147074,32310
8175334123,316005,32310
8174382665,316004,32310
8173187174,326006,32310
9723609431,115421,32310
9728330142,333001,32310
8174022840,115409,32310
8172032539,115412,32310
4058352619,147079,32310
2545346189,147073,32310
8177278689,147076,32310
9728939673,115420,32310
9729107230,350000,32310
8174899768,115424,32310
8176186150,346051,32310
8174063941,295003,32310
8176637975,350001,32310
8177784635,316002,32310
8174947280,316003,32310
8174978830,345004,32310
9402912864,352008,32310
8172032610,115413,32310
8177171316,115416,32310
8172032743,115422,32310
4056225789,95468,32310
9723759339,115418,32310
6476940368,149042,34254
3022233228,83320,34254
8445087614,106985,34254
6072694365,93558,34254
2028001586,83280,34254
3025660278,83305,34254
3473529691,113085,34254
2897993168,137062,34254
5086037775,149040,34254
3022488486,83297,34254
9097435146,104315,35073
9093202274,110287,35073
9099426985,81947,35073
5095712775,313066,35090
2087399047,86275,35090
5096083942,141029,35090
2085918039,302015,35090
7752374148,340008,35090
5413970383,95658,35090
2087798206,86189,35090
5098226069,201003,35090
2089968902,106981,35090
5412043048,95655,35090
2087144755,86270,35090
3024164230,83284,35175
3522341032,178001,44011
8054914546,81585,45142
9793149353,118823,47120
3607460423,102148,47309
5095712329,101811,47309
3607039835,102053,47309
5095712400,102171,47309
4176220862,161074,47348
8439680362,96842,53069
9104664776,91386,53069
5205183692,109066,67005
8137012018,112926,67012
8635883570,112612,67012
7722328095,84840,67012
7722286819,84759,67012
6012927836,126002,91027
9726454038,382006,95020
8178138410,204002,95020
8559370171,117872,95020
9402510378,134006,95020
8174383591,204003,95020
8449330026,118509,95020
8559370158,117870,95020
8176637145,134009,95020
8559361768,115525,95020
8559351533,134010,95020
8558024039,208007,99015
7202634161,143126,103006
4054514194,349005,151032
3176720768,313049,151032
8454437085,106615,151032
8433804153,285002,151032
8435939689,97220,151032
2193646051,119299,151032
8602664254,141157,151032
6303184414,119291,151032
4197075762,94101,151032
5853322079,285000,151032
6108509285,285001,151032
7082942616,86815,151032
5852570531,349009,151032
5415267392,95569,157018
5415161750,95643,157019
7604175706,81676,177020
6194576166,111258,177020
6194576156,80892,177020
8184950344,81077,177020
7603034361,81677,177020
4084127818,103346,177020
6194523936,112622,177020
6262614066,272008,177020
6193574947,272011,177020
4086375228,80413,177020
6266714936,80916,177020
7149474690,82196,177020
6194576207,112472,177020
7142527908,81181,177020
8184954097,81616,177020
4084125796,80414,177020
7605920331,82580,177020
6508876229,80585,177020
6193822768,107955,177020
5109965978,81655,177020
6194576146,105079,177020
6193761317,103348,177020
8189626326,272006,177020
5626534439,103551,177020
7146602207,107899,177020
4089161338,301016,177020
4085658307,313053,177020
5626454595,80580,177020
6194576137,80182,177020
8588779735,80181,177020
6194576182,109167,177020
9492386656,81281,177020
7144595203,300000,177020
9493475158,272010,177020
3104212380,104472,177020
4084127432,103578,177020
6194576154,80180,177020
5626454654,108943,177020
9252914152,80778,177020
7147076844,81042,177020
6194576218,272009,177020
8586838899,107891,177020
7142159194,80850,177020
7604174664,103699,178011
5035494722,346043,178011
7079985540,82518,178011
9164720369,80159,178011
7144087319,81191,178011
4103948473,274003,178011
2092596457,81490,178011
5106718133,80924,178011
9164720338,82032,178011
9252302053,274002,178011
9163032734,82035,178011
6504899903,81968,178011
8312500253,82061,178011
7078627098,143004,178011
7039914249,109563,178011
6265130025,81084,178011
9164720431,80158,178011
2402057351,88593,178011
5105009587,81848,178011
5597174362,80310,178011
2099204626,81420,178011
4159692991,82109,178011
6504899951,82165,178011
7606468276,80950,178011
7753641086,93136,178011
2092674561,80702,178011
7079985840,82292,178011
9252914594,82188,178011
5102754357,81141,178011
6506660901,274000,178011
3019458115,128013,178011
5104173999,103676,178011
9252415723,81854,178011
7077854237,346044,178011
3017615851,107806,178011
7079985184,82504,178011
2097915134,81491,178011
9252302164,81436,178011
5595495109,112078,178011
9164720417,80157,178011
7072404132,274001,178011
7604174158,81760,178011
2095846005,82009,178011
9165875289,80160,178011
9516434068,81524,178011
6504222562,80855,178011
6194583156,80736,178011
7039914233,101370,178011
7142159696,80615,178011
7708096266,85633,190010
9164720698,273001,197048
9167401581,80931,197048
2134379861,113025,197048
5623928950,81305,197048
6262614106,81803,197048
9093154610,273000,197048
7027104412,93099,212014
8337250073,343076,212032
5125984938,350002,212032
5125511574,313035,212032
5129615209,116606,212032
7609786979,81914,213310
6193784613,107948,213310
9516433913,81275,213310
8643438400,300046,213346
8438897535,300045,213346
3013580205,88604,214267
3012737367,301044,214267
3013272023,88607,214267
5412294547,95529,214308
7075496484,82482,214348
3368998315,302003,215009
9102393217,92091,215009
3367506595,91308,215009
9105344672,92141,215009
9106350428,92088,215009
6105690997,109782,215068
3187371670,302014,215089
6463625539,93255,215156
6463584165,106196,215156
6466635124,302029,215156
6466634731,302028,215156
6466635787,93254,215156
6468450456,302025,215156
6465536444,107707,215156
6466814318,93256,215156
6464614671,93252,215156
6466634695,93250,215156
6463621436,302027,215156
6466817159,105951,215156
6466473430,111814,215156
6465767005,93253,215156
6466634331,104442,215156
6466811793,311007,215156
2486943046,331007,217081
3136629070,304048,217081
8102165476,89254,217081
7342452956,304051,217081
7347209266,89525,217081
2482434188,331008,217081
4156874051,82097,218003
7605121538,82701,219007
3155064051,319001,224009
3156794602,319002,224009
5104013426,81989,224024
7575418011,101124,225032
7573837160,312004,225032
7575420875,312003,225032
7573356792,103728,225032
7576109016,312002,225032
7575781194,103523,225032
7572154699,101037,225032
7575504890,101038,225032
7573478390,101140,225032
7572161597,101040,225032
7573478439,101039,225032
2059007255,113114,226116
9495654819,308007,226116
7752040064,93168,226222
7752354907,113390,226222
7754554478,313027,226222
7752043661,313028,226222
7755814021,313026,226222
6196498284,112918,226237
7602354011,80952,226237
5627310882,80583,226237
9093154313,81887,226237
3109575684,81068,226237
7144629491,81192,226237
6264145915,82360,226237
9093452691,107226,226237
7148457976,81048,226237
5622174599,82365,226237
5207294033,313059,226324
2095806951,82465,226324
7606005714,81766,226469
2096617830,313056,226559
6059377891,313093,226868
4028107598,313094,226868
4235090392,106171,239113
4234309873,97648,239113
9312983593,330034,239113
4237992028,97592,239113
4233015325,330035,239113
4238880557,97600,239113
9709991186,330032,239113
4807718304,103580,242348
4805308092,79845,242348
6232304351,144025,242348
4807718102,340006,242348
7076825192,325005,242348
8439701296,97130,243425
4064207927,330006,244221
2677991863,333011,245672
6104867212,330026,245672
6106248662,350018,245672
6104672784,330028,245672
6107561606,330027,245672
5128171581,337006,252839
5122702974,337008,252839
5122706109,118353,252839
5127101757,337007,252839
7608203288,337010,253071
7604562539,82481,253071
2673148856,346015,254189
4129234258,344004,254189
4125321163,344005,254189
9032877879,340011,254421
6199373502,80202,254453
7606217219,82591,254453
7609834268,82592,254453
8052108930,81675,254453
8052469336,81534,254453
8054192367,343014,254453
7605374500,105290,254453
7608568114,343012,254453
6194732687,81300,254453
8059185230,81537,254453
8054090848,81811,254453
9514325986,81521,254453
6614034601,343013,254453
3193166852,347060,254910
5123083279,116914,254910
9164722599,104814,254910
9099069246,106971,254910
6155608942,347031,254910
5203944966,79617,254910
7813188158,112992,254910
5084667955,136001,254910
9168317882,340017,254910
2089356082,86240,254910
5627356307,136004,254910
2085368702,346011,254910
2149720295,346023,254910
9493018685,340009,254910
5594275922,302031,254910
6124452173,350063,254910
3464449496,116818,254910
5083324876,136003,254910
5099564705,101726,254910
6613753933,81590,254910
7602354083,273004,254910
7602354074,107926,254910
9094747193,132000,254910
9516662852,80807,254910
9516662842,119266,254910
9094932074,81009,254910
7027613572,111044,254910
9513842419,107124,254910
6614344193,80401,254910
2084231246,86241,254910
6012650702,341000,255181
3603299891,343011,258953
3602059976,343015,258953
4782177834,343046,259830
8123625701,345013,259830
7068432849,343040,259830
9562420920,343037,259830
5093591231,343081,259830
9103874087,343042,259830
5094170539,348013,259830
2542710316,347057,259830
2819165593,343049,259830
4784491335,343045,259830
2548701331,346017,259830
4343216057,343053,259830
5094022916,348007,259830
5094022983,348010,259830
9103569299,343035,259830
9103569661,343047,259830
8125419622,343091,259830
7752340901,343041,259830
2817849045,343051,259830
8035004741,343036,259830
3343928760,343088,259830
5094022862,348009,259830
2816231287,343052,259830
2818438390,343050,259830
7062221659,343044,259830
5126435874,343043,259830
5094041984,348006,259830
8504276302,347067,259830
3602051903,343054,259830
3344588227,343039,259830
2055095477,343034,259830
2053869715,343033,259830
5094021143,348008,259830
9405033551,343038,259830
9104070058,343048,259830
8442411219,343056,260603
3604696276,345028,261856
3607270797,343064,261856
8056284461,343063,262617
8052504307,343062,262617
2084949773,343061,262618
8552834022,343075,264917
5129801950,343078,266443
9495372366,81062,266642
8057741537,346010,266642
7753466543,93066,267197
8053986301,343080,267990
9252084601,342023,271799
5104803717,81990,273847
8054656713,345000,274418
9402027235,346012,279013
9514761575,344003,282928
8458394020,106740,282958
7402278326,344007,283002
8082022430,313050,283014
5307716786,81713,283039
7607067173,80910,284242
7072814072,313008,284520
7075952336,80752,294909
9405388815,346004,299158
9033266955,346003,299159
7074750691,343072,300979
9706480379,346040,310166
7206192599,346041,310166
9706808149,346039,310166
7146999656,346036,310166
3102992437,346038,310166
9513842522,346037,310166
6157518893,347005,310167
9256902132,347004,311093
9254063151,80617,313665
7077866383,346050,313665
2532422321,101759,320081
2533385693,372014,320081
2532422693,362003,320081
3603469594,347012,320081
2063126997,102317,320081
3603645508,101837,320081
3604439664,357000,320081
3603461694,349006,320081
3603461675,347011,320081
7855041951,87374,321654
5202264449,79642,325049
6029037048,347021,325049
5202241351,347023,325049
4806053837,111998,325049
5202104296,79664,325049
9286123490,105358,325049
5202148743,347022,325049
5202178480,79634,325049
5202148622,106324,325049
9283230538,347020,325049
4807254811,79847,325049
7079271811,81017,331613
8315861292,82060,337734
8448441636,348021,339652
5412756715,348023,341564
9514674560,348020,342554
9514255035,81145,342554
5033005153,349000,346304
7632517845,349004,347789
4256203035,102345,351511
4252509616,101863,351511
9258544312,349007,352227
9253022627,81851,355900
6072755859,350026,359831
9252906043,350016,359832
5106626387,81040,362928
2092672951,80361,364858
7073294166,82347,364877
9169757185,80738,378739
6075650168,126015,379872
6153984586,97693,382054
6154552565,97835,382054
4014968893,354008,382475
4092316566,117817,383691
5302966748,355002,384249
8542031370,313091,385723
8437734806,358001,385723
8435940789,97187,385723
2139082115,359027,385738
2134637091,359025,385738
4172753726,382004,388673
8555010251,90818,388673
8557300504,365000,388673
7145824301,82622,391467
5128569198,115171,393605
8559101527,116918,393605
6514274447,109917,394406
8163579439,90574,395307
8163579625,384003,395307
7047349538,331006,22237
7047349538,133000,18004