7073508743,294909,fac4854ca5a26a9510e9a25c3c4c1439ef0
7604774389,226469,faca31e4f3a49094727947666447281bb88
2363620338,own02655f845c11488498a112811789837e,fac19e6b12d16a64f75addfd53d8e4bd375
4075947529,own028f0b908f0641beb5b2acc1a404a2c5,fac99e03f0f7bda4eb4bb505e6d7cb1786c
3603187224,261856,facad062f5062505377881238fcb6b30305
9252676503,355900,fac5843ea9656a757908305e209959bedb6
5126413407,212032,fac056c576434da58bfa4010cb0cdfcd8b8
5127149529,212032,fac09f3c83b5e6d538fa3b1818499b66cb6
5128669878,own09fb3b841c6848c9a2c4af6b78143ace,fac797b093fc1d85d3c90d44cac2d0f14c7
5128669275,212032,faccddb3b69860452f9aec5801d1c7649d4
8438746849,own0d78dea8220a44f2b20244591426a2f5,fac32e33b77d8434bf595e311cb4fe6aee3
8436038596,own0d78dea8220a44f2b20244591426a2f5,fac8837a839cb5a4b20bf6dca429d040fd4
7147354953,own0d990176d2dd4b43bb83179167530c29,fac7ece55012a2d5d8299337e153bf634ab
7146461793,own0d990176d2dd4b43bb83179167530c29,faccc7826533ebf5b07ba9e7105cdf48556
7146177374,own0d990176d2dd4b43bb83179167530c29,facde4c286035975df186e1deb6cf1372b5
7144921846,own0d990176d2dd4b43bb83179167530c29,facde4c286035975df186e1deb6cf1372b5
7145998962,own0d990176d2dd4b43bb83179167530c29,facde4c286035975df186e1deb6cf1372b5
9495390278,own0d990176d2dd4b43bb83179167530c29,face3d2a270a77b54efafdf670112b97cfc
7146178799,own0d990176d2dd4b43bb83179167530c29,facfe7147845c1257cc85ffa334cb5e26e4
7579828558,own1607bc05528e44ab90eb0c95dcc50422,fac2b552310d3cd4814a053ffe1cd29dcb0
7579828431,own1607bc05528e44ab90eb0c95dcc50422,fac31b6fe9637cd424887c0835aa754c7b6
7579828530,own1607bc05528e44ab90eb0c95dcc50422,fac3a2f7ede7f7b41f2a79cdcdf8a943f71
7579828619,own1607bc05528e44ab90eb0c95dcc50422,fac3b138a300d18493f8ef6e65ce935e001
5408705925,own1607bc05528e44ab90eb0c95dcc50422,fac4b3c84e03dc346cbb8ac73533d1c7e92
7579828612,own1607bc05528e44ab90eb0c95dcc50422,fac88ceb76580e9447f9f12fa4d291dbb34
7579828637,own1607bc05528e44ab90eb0c95dcc50422,fac9897144c706046adb2e21db490672fce
7579828453,own1607bc05528e44ab90eb0c95dcc50422,faca6b0618197394d5abba1956ebf049ca5
7579828485,own1607bc05528e44ab90eb0c95dcc50422,facdeb4f2209b6f471cbe3cf0d4d46a8704
7579828692,own1607bc05528e44ab90eb0c95dcc50422,face857ae5eac864466a0be08e29b894f55
7579828766,own1607bc05528e44ab90eb0c95dcc50422,facfc67924f65bc4e3082cba88caeee6c93
9496490252,own180923347ef746ffbcc6b25e9462825c,fac9d9458c7830a4b55a5e41200e2b97823
9253321408,271799,facc6df4486eeb04a6d9ba0d722e34b0f2e
9166666518,384249,facf0f1c19a331842c69fa4b183562a494e
5105883695,own19a15a1bdc8d430ca1738778bf7fa5af,faca78f323a736a456ca324ec935a0c1cb0
2082683169,254910,fac02bd9500d75c5d48a32dd645ff838b2f
9094154576,35073,fac27a2324744d648f280c691a835d35ddf
9094036394,35073,fac6d54714f9d7647a687dcc6346056e4d5
9094067019,35073,faccc9cdb1e82ba4a86a8fb93ba7fcd5f44
8438251979,385723,fac13e82028d3764cfbb9438741a42dc593
8437734107,385723,facdf0ed2419b634f8ab52d95bfb3d91b2b
8434170377,385723,facf6d239915a6d4704acad922dd0e86ca3
9729629606,266443,faca28436bbaa25464db39b199af92e969f
5596576420,own217c59f33fb6469d986624ed72272e57,fac10836a9a2de94a51bb78c89d330c6bd4
5592723670,own217c59f33fb6469d986624ed72272e57,fac13ad967a6780537b84ce10ae38ca06b5
5592723812,own217c59f33fb6469d986624ed72272e57,fac16907435e09250bf8be1201a498f8476
5592344475,own217c59f33fb6469d986624ed72272e57,fac1a01be6c0ed056f4b62fff501707d8bd
6614516227,own217c59f33fb6469d986624ed72272e57,fac1e09cd68a4565f8ba542604e7226740b
5593795328,own217c59f33fb6469d986624ed72272e57,fac25cd90dd86985c2cb1673f47b05a8a91
5593386968,own217c59f33fb6469d986624ed72272e57,fac278682eef2f151a7a2b3cbce4da4f10a
6614639220,own217c59f33fb6469d986624ed72272e57,fac2802b36ccf575f8c8a0c13f6039d0e1e
5593649311,own217c59f33fb6469d986624ed72272e57,fac2b23999cce035003ad59bd300f8bf133
6614436428,own217c59f33fb6469d986624ed72272e57,fac2c3017f5a68d5ceba63e207406daf6ed
6614647692,own217c59f33fb6469d986624ed72272e57,fac3130d1c10eda599abf7b3871c44b0e41
5593643650,own217c59f33fb6469d986624ed72272e57,fac37ebafae7f285028a42d198bd2261563
5593643957,own217c59f33fb6469d986624ed72272e57,fac3f0e7018c60e5ea092dfea84bb01fc32
6614637765,own217c59f33fb6469d986624ed72272e57,fac41ec93c61d5351178bc6dbd4cf14c99b
8058926350,own217c59f33fb6469d986624ed72272e57,fac4244f2942b5854baaa4c771f2e7a3580
5593649429,own217c59f33fb6469d986624ed72272e57,fac42c55aa9926256589f42687fc3051033
5592456478,own217c59f33fb6469d986624ed72272e57,fac4aa6ef44772b5caba07a4168a55011cd
6614436931,own217c59f33fb6469d986624ed72272e57,fac4f9904fad50c5a8ab55934f16ee54a8a
5592429489,own217c59f33fb6469d986624ed72272e57,fac52abd7a8b2535ddfa76179687fec75a0
5593459976,own217c59f33fb6469d986624ed72272e57,fac5963a17f31e6571a99eb4c928d1aeec4
5596084815,own217c59f33fb6469d986624ed72272e57,fac5f3e08a4763d555cbd14ddb5a9eea14a
6614653436,own217c59f33fb6469d986624ed72272e57,fac60e8945e3f1f5fc2acce919e7eb7b06d
2093181506,own217c59f33fb6469d986624ed72272e57,fac60ff3f94893a535faa0996ec7bccc6c0
2095638428,own217c59f33fb6469d986624ed72272e57,fac6ddbf06fa9d058bf991df31131971f58
6617625677,own217c59f33fb6469d986624ed72272e57,fac74a526d1bbc45065b7fed50ff8acf03e
2092314604,own217c59f33fb6469d986624ed72272e57,fac7672114fbcd0509e93e15fb2117686bb
5592357393,own217c59f33fb6469d986624ed72272e57,fac7cf6f0cc60b55531bf84d85f4861b3b8
6612156706,own217c59f33fb6469d986624ed72272e57,fac7fa23c9e37355f91b9bcce43fb52e6a3
5593795794,own217c59f33fb6469d986624ed72272e57,fac80bc634af1965847896f4fce60759967
5592723705,own217c59f33fb6469d986624ed72272e57,fac8270b0a2e1785c40bfcb626ef8372fc8
5592456139,own217c59f33fb6469d986624ed72272e57,fac828c4d2edbe75eebb746e67b6bb51f4e
6614641970,own217c59f33fb6469d986624ed72272e57,fac913cf52f613a58c2b029c52d9b9ad5ad
5592037717,own217c59f33fb6469d986624ed72272e57,fac918010d8e15c5eb2a0b1324f663c0ac1
9165174746,own217c59f33fb6469d986624ed72272e57,fac954aefd1ddd055dd84288c1e9404a73d
5593375518,own217c59f33fb6469d986624ed72272e57,fac95bbb351a9c65ecf82c85adb477b2aa0
2095833395,own217c59f33fb6469d986624ed72272e57,fac99dbe6ddc7985b3180f8ff7f51398393
6614639187,own217c59f33fb6469d986624ed72272e57,fac9b7171d39dea52ca9d4e871e1d23ad93
2093181544,own217c59f33fb6469d986624ed72272e57,fac9c655870ae07548d98b733f4c20fd9da
6614662521,own217c59f33fb6469d986624ed72272e57,fac9cc7761272f757938b8fa183de8fb4f4
5593795688,own217c59f33fb6469d986624ed72272e57,fac9e3d74e9e79e5b92b075a303c226a832
5593643564,own217c59f33fb6469d986624ed72272e57,faca2a29db7f95057399e571e90b9539b34
5593795476,own217c59f33fb6469d986624ed72272e57,faca4bcd8ea86cc50ab80e38a636118ff35
6614637962,own217c59f33fb6469d986624ed72272e57,faca861ec27d4075efca12a931785d7a6a7
6614639162,own217c59f33fb6469d986624ed72272e57,facad875ac36ed2526e840181ae96834dfe
5593795508,own217c59f33fb6469d986624ed72272e57,facadaee78066ef59269cf35d31143b1da6
5592366488,own217c59f33fb6469d986624ed72272e57,facb035a865cb0c538f93a5018f9f7ba353
6614637900,own217c59f33fb6469d986624ed72272e57,facb068aa005ec85ad4bf127c19c6ec8dd4
5593643302,own217c59f33fb6469d986624ed72272e57,facb06bef78313d54c5aa5a952260dc5fd6
5593795758,own217c59f33fb6469d986624ed72272e57,facb349ac6295a45e4daf62914eab4802b3
5595605123,own217c59f33fb6469d986624ed72272e57,facb63a88467ad75041b0ba236283686629
5592453644,own217c59f33fb6469d986624ed72272e57,facbf15fd24009b5e3dbc763a1cbb5298a8
6614653481,own217c59f33fb6469d986624ed72272e57,facbfba484df3e25565b8a6273ece431ac6
5593795785,own217c59f33fb6469d986624ed72272e57,facc0fc5cff7cab59738b5cf841e1c0bed9
5593649577,own217c59f33fb6469d986624ed72272e57,facdb92e9cc74ad5310be1b4acef0c88912
5593795532,own217c59f33fb6469d986624ed72272e57,facdd2de03266fd565ca22f875c190853ea
6614653099,own217c59f33fb6469d986624ed72272e57,face0803b3136aa5b45b0f62669474b9f2c
5592456415,own217c59f33fb6469d986624ed72272e57,face18842c021665a4980ad5d4b6eb9fb16
5592455636,own217c59f33fb6469d986624ed72272e57,face8a9dc476f5557b69933e0b42e90dfb4
5592723875,own217c59f33fb6469d986624ed72272e57,faceeb8812dc06c5a26b757d56fb2d3757d
6614436089,own217c59f33fb6469d986624ed72272e57,facf71de3c9593a5f0cbc58474d5303e19e
5592723727,own217c59f33fb6469d986624ed72272e57,facfa67b74939fd526dbae67990f186092d
3158963094,224009,fac43fb849d50d25925bd5199a03f1e027a
3157574769,224009,facdb92be687d2556c983d855b87d775422
4086621117,own267fe1b891bc4294acee40ca84b544b5,facad4caa37239146fd83f5c42491183658
5412307959,341564,fac2fcc6fef2bc34cec884dec61c3c84761
8055198244,own283ec0035b904fe0aa8271442d63c5f1,fac141ab0eab50943b2a75b94bdb0cad4d7
9362158739,20073,fac19149bf498a14b5b9122b2732c65f2c4
9365062749,20073,fac32b56f89e2694054b1aa20cc3b1de1e9
9362158804,20073,fac7deb6c02ed994f88a499ace70f6b1cec
9362155333,20073,facefc7da8cf7c14358b78c55ca1f449eec
9362434543,20073,facfdb71f9c23a94cb1a3a8ff5c8bdc982c
9032258395,254421,fac8e19c142a8164be395218bc613f67f2e
9094155842,226237,fac09be1a2d6b4d42e988c2e0d3bd62769f
5622684736,226237,fac17c9d7dfb0da4f03bd071c571f7fb092
7147354969,226237,fac609de94202b04aa5bdb1c07dd2a4640f
6195144916,226237,fac72a2a7846d8c47209dc1547b4c90f624
5622684664,226237,fac7a04c609c5284ab5a9e12be3f935f6e8
7147909295,226237,fac7e5e9a2b6b54410dab06c64182cac26a
9094425199,226237,fac8da4e0eb353a47bda64333362ae04725
3107421495,226237,fac9691ee473990462b86387d58f1f003fa
6266282649,226237,faccd9d7156b1d54c88ad4e673ab282456c
7602272854,226237,face6568ff2f0da4fbbb89a2be3ded71d05
2093702029,226559,fac28ee48e3ecc15c97beb5bc2e9d2b7a76
9284960501,22237,fac02007e3e67e359b3af24cd05848d58c4
5304216980,22237,fac0b13773ed8e941eda3eac30f148a193e
7073090867,22237,fac12fb80be1b0047508bbd0d167676bf6b
5304221676,22237,fac179d7c1cccc840eda78c7b91d65f0753
7073835448,22237,fac179f13467b045db5a50c7f65795b7c2b
9256903562,22237,fac17fbfa7f419146eab4531f643f1b57aa
2095638424,own3635fb2e825d49a9a7a9f8d9bcdcd304,fac190e671d301e44ca84ba00fe470fb476
2095542085,22237,fac1adcc78b57a84f4090e63293adccb334
9256903544,22237,fac1d687504b4f24ca398e87cb2eee03782
5302989855,own3635fb2e825d49a9a7a9f8d9bcdcd304,fac21e256c4df954a1999de9df7bcb07aac
2095833504,own3635fb2e825d49a9a7a9f8d9bcdcd304,fac253c3285dc9748399d121698f6f5541c
4085473655,22237,fac2b1d1067c24d4501b6263a6b80ecfe40
9165806327,22237,fac2cbb1c6db5504095ada52da1ff539f16
5302908319,own3635fb2e825d49a9a7a9f8d9bcdcd304,fac2f3abc5a89c644bea0165ba3aed4fd3c
9166209742,22237,fac2fffe33c62054b389fdf82ae12b43672
8055197910,22237,fac315085a238d75ce3a9bf76ee2c58835b
8314259664,22237,fac32fd9bf036b64629bffc81f381436420
9256903585,22237,fac3b479cf75811400e929c1b07208fddbf
4086621267,22237,fac3c0a9da69d5b468ab80d7ec24d7e4b68
9164714667,22237,fac3dca9d70975f4c988cbab6358b945a99
5593795743,22237,fac4022777bb48549619c9b7160f66228c5
6614653784,22237,fac40aaf88bd5304ca782e182af78d63ee8
4243206020,22237,fac42671cd1bd704011bb566c5a97aa8259
2095833613,22237,fac4392f0c01a3748399a0ca609753194f5
5104919926,22237,fac470fac1f25d241d4b467b1eedec3629f
2093181411,own3635fb2e825d49a9a7a9f8d9bcdcd304,fac488a27bbe9da46939ca98b17788e389e
7073090879,22237,fac48e9870377c24fc9ae38ff8878f1b087
5108801399,22237,fac49274f166987448ea60d74b769e9415d
7073090892,22237,fac4a31c42b89c043f48bc91404de44e94d
8312925024,own3635fb2e825d49a9a7a9f8d9bcdcd304,fac4da5b8936dab452cb92b1342c47fd183
8312736942,22237,fac518187b2eca944edb46be135a30926cf
6505358349,22237,fac534a64d5a33e44188e1efa7c01e3952f
5304221655,22237,fac53889435eeb95f568e3376c7b3b65f65
9254774835,22237,fac53c7fcaa3e79410ba231a779f313f410
5592340302,22237,fac5438d7731c0245ea9aa3993412bd913c
5304216942,22237,fac57170d2f9f6d43e5a37ec623b6b89ebe
7073090825,own3635fb2e825d49a9a7a9f8d9bcdcd304,fac58a85d6bebd44ece9ce0921e8f1ee619
7252138417,own3635fb2e825d49a9a7a9f8d9bcdcd304,fac5bd97271b4305224a845a61209db4903
5302968734,22237,fac5f548c89a97f46598d951b4eea9dfc25
4083516168,22237,fac6acf93b3c2b1495ca8e005f3d9331dc2
8053019708,22237,fac6cd0953841a0470ebadf1b73fb4c055a
5107819896,22237,fac70ed97fed4d64517ae01d09c36cbc839
5595504837,22237,fac764ff2ad940c4792a2a0fd72a3ba37f2
2093181540,own3635fb2e825d49a9a7a9f8d9bcdcd304,fac78f5ac743bec4cc3834c77cfac454d9f
3239732711,own3635fb2e825d49a9a7a9f8d9bcdcd304,fac7cd566b4c75d4c83a656c69e06acd89e
5624162934,own3635fb2e825d49a9a7a9f8d9bcdcd304,fac7e5f83d0af7c403b945129d713dce166
4422391703,own3635fb2e825d49a9a7a9f8d9bcdcd304,fac7f546311ae0c4ae39ef6dafe878ca5a3
8053603582,own3635fb2e825d49a9a7a9f8d9bcdcd304,fac8808ea52be2b4e8091f2b727b9df40c4
7073090558,22237,fac8b1f991a207342d6bdf326de29f7f87a
7073908402,22237,fac9473058dd6065d048f68c3e197cea763
8312686654,own3635fb2e825d49a9a7a9f8d9bcdcd304,fac992f061ab251477ab750b19468e1954b
9166654520,22237,fac999a27e473154b10b057d43d946adc9a
9167569030,22237,faca0d94ad8151e4f3684a3241ca5942b6a
5105448013,22237,faca0fcf86050534075885443c58cb74a79
5094022976,own3635fb2e825d49a9a7a9f8d9bcdcd304,faca3ce1272fff448caac2085243d846de0
7073835038,own3635fb2e825d49a9a7a9f8d9bcdcd304,faca9a10626484e4f168f55eef949c6445c
7073908601,own3635fb2e825d49a9a7a9f8d9bcdcd304,facab409f1efd25441e85c32e52e6fd1d4f
8055197978,own3635fb2e825d49a9a7a9f8d9bcdcd304,facb296a2dcfb024d6b9cf617157e8f06d9
6614638649,own3635fb2e825d49a9a7a9f8d9bcdcd304,facb52d9687862648e3b168490f242c35cb
2093181519,22237,facb60a03a45ffc45f5b12cba42c555a892
9256903541,own3635fb2e825d49a9a7a9f8d9bcdcd304,facbd31b3ca7c5647548907910f6f41cc50
4254904427,own3635fb2e825d49a9a7a9f8d9bcdcd304,facc42ed73eb834488fb874f229c8183f2a
2093094473,22237,faccd22ad06a64245b8880c561d0c3103ff
8312736607,22237,facd09319b1217d4dce8e55c892abeb2409
5103991076,22237,facd64d4246e9a945749fe7fab63a78afe5
6572984546,own3635fb2e825d49a9a7a9f8d9bcdcd304,facd765b500ce8548e8ae6b1379c3bd1430
8312924452,22237,facd7b75cfcd1cd4ad2bbba59c2fefac12e
9256903158,22237,facda27104bf85d45e3a65792453b1a18e1
6692677891,22237,facdd38cd65a658456ab9874ac95c097c4e
6619644429,own3635fb2e825d49a9a7a9f8d9bcdcd304,facdd8e54f6c19d4600a30c35795d34ed30
5106175741,22237,face24ea43138374f6eb3acafe3c013a322
9252817030,22237,face3a5b1e39f574830b8fdea5c83da4506
2093181390,22237,face4a54ca9860e4784866411711a855ded
5103192839,22237,face5035c473c7352efb03a9071bfc3b3b8
6612707794,own3635fb2e825d49a9a7a9f8d9bcdcd304,face9abae36fbe94e73ae0d569ba9d74642
5104053649,22237,face9edae2542004cd191397c2f91aefbe2
8312786722,22237,facea87f5a9eb8442368f0e3eb6983e389c
4085169147,22237,faceefb4c3ba5ea5d3b96d6b1e1c120fa58
2095638592,22237,facefedb0954a2045d3ad87bf59076b7f47
9256785914,22237,facf1584a509e6152db9a2e1c995d966b52
7073090859,22237,facf39773b8f8434abba23fa908a372e4f0
5105183249,22237,facf631268b83764b1eaf48fb51e239a89c
8058657365,22237,facf88308dd4ad946bcadc4db9c29435636
7073923854,22237,facfba823d515024c78908f353f64b1695e
2092687902,22237,facfc550f493dd34ea3ac9dbd9ce74fb42b
7073833553,22237,facfe817a9fa4264673b86ae1c35231c36e
7073908657,22237,facfeeab3d2bcef52cdb8f6d9eea61d9fb0
4127547571,254189,fac2aa78a0ce8d0585c8df80524d2e20d0b
4124727675,254189,facacfb4888052f5baa93cc01a7afbac003
4127547955,254189,facd72202700f6c590c8651f4ebabc4264e
3602307787,258953,fac54d3cd20d6b24221883c856ad7afd5f9
4085394834,311093,fac55916c65ebd459089267114393246c1b
7072896942,own47d065645aa44d2ea2121f30746fc327,fac149c9ed5a41e403a80ec4fdc8efc6cd9
8178597802,own4d98b6a8385c464d854af84391feec8c,fac0880e4ce3909405282d72f29f69c4f91
5094367968,279013,facc2532466e0485eec8a949e8179d694bf
2093181542,364858,fac3200adae73aa5cbcb391d0db173bda11
5034478040,346304,fac1b657f027f375e468322d1620f9ff9c5
2055649191,own54e7255c07404554b422279e863104cb,fac44970acb6ff048eea5661320a9442a4a
7786546319,310167,facc22a32af2282553bb91d47db1b0a2ba0
7579828739,own581728e6a28a4aeeba639f1aecfe8610,facb37c4b4f504a4f5ca11f790334a7fbb9
7072895572,284520,fac7f2e2b450d634302baf9bb0fec680362
4012354846,382475,fac3a25a15f7ce94b998807896fa06556d4
4012494059,own5ea2b384f6394a57811d2bde485f33c1,facb4a7ec8829df403aad8d5b685f8dd933
8106423456,own5ef4632f5cf64384906940917ad8087c,facb54264a0524a4028ae86b0d96408edb6
8056084472,267990,fac4a0acd87425849faab326995b9ba8408
8056084735,262617,fac0926d32f0d414f76a1e631c247ecd373
8053348578,262617,fac6bb7040ffc31405db0971ca7a5843a98
8053348731,274418,fac10bf03ec9af85377ac9e8c4a6f49d9c3
6156496734,326197,fac0d4984943b485d19a3ca868da0ad243d
6156175456,326197,fac198d41f73aaa5420ba4751443bc5fc1a
6156564313,326197,fac35b6e66f6865593489c7f216989c07e5
6158234918,326197,fac3604e845495e5ae9887666bbd00e0933
6159885045,326197,fac4f1869ab2c5057a8a6a9c32a1c297236
6153488691,326197,fac5c8ab00ff9a0590c845ce34e4dffcd8b
6159539922,326197,fac5f7bd8daa8e65562a8b7a2e04799bcf4
6152837248,326197,fac5fff41e78890550487517164cff29d9c
2709368506,326197,fac70bd917d13af5025b932cfeb2caf9dd6
6156063205,326197,fac77b29d8a80cb50979fb0266d49a691b4
6159004818,326197,fac8daf1ba124255467b81b44ded44d2a58
6153691984,326197,facc076c9607de454598095af45b6da4baf
6156496125,326197,facc0a2630324a65c5fb15c5f24d1998d65
6159884811,326197,facc90db4301f89527d8797971ad265b3c0
6156244761,326197,facd0895eec42af5a0ebb7cc39a49daebae
6156249635,326197,face618075c343b5c0ea1a94cfb86e5ec1c
6156175943,326197,face83f91ca56835457b69896f3f597a4fa
6159884001,326197,facfe3b2ffdeec35842aabdf5a802c141c8
5108263603,362928,face7a482e669415ce8846799a2337dde8d
7179372246,own74627bd0efbe41a19c356fe50af92c49,fac2cd3ae0d06b34d88b61696ccb0b692c3
9256903532,359832,fac8e18013b9ffe5bb8b8716a6597696b34
6182683262,own7bd95d7014224b4aa24db47fbfdc088f,fac1c8b68177fc5419eb59eddf4d67fd2f4
6182695106,own7bd95d7014224b4aa24db47fbfdc088f,fac566b905cf4d149dbb4676e8832c84ad5
6182695125,own7bd95d7014224b4aa24db47fbfdc088f,fac61b5dc7c9db64620b4f82aebf9ff8b47
6182430997,own7bd95d7014224b4aa24db47fbfdc088f,fac8e9877db9e81401a914643f76085d154
6182279276,own7bd95d7014224b4aa24db47fbfdc088f,facc2a4b43aa4cd497ba80d7c44e1157a0c
8082154203,own7f078249881b4e4f9d66f6958679504f,fac089829d59349437390bb7bc6657a139f
8082155115,283014,facea3038bc58344c839e1b3b49e245f13e
8583584336,177020,fac03eeb200d8a04e349e7dc8e6a27bfd16
5622684792,177020,fac14b9aca402cc41e78ce8fc0253c71ba7
6266282825,177020,fac1bdeb219a7db4e88b17c4be921acef1b
8582990908,own800e528d304d469180ff5089ca0f4cc1,fac1ce7aad9794049c38f371756db4b363d
4086760965,177020,fac236baaf894e2415d8b92d026d60eb421
7602806048,177020,fac259a70e7bc8d4c5ebff020eb1faa0460
8188394950,177020,fac2a2081dfa8ff4431b9d0bb8aa0cfba17
7146461258,177020,fac2aeed0ff30014954b23ec22be7554e3b
7146461728,177020,fac2afd81f2c3fb4e60906c0eeaced17e3c
8185729873,177020,fac2d95f625a8c34e0b93f05878ab752448
6194574451,own800e528d304d469180ff5089ca0f4cc1,fac32f010c009554d4bae83852d76453845
6196030257,177020,fac349438b343d44db394e0d3a628c201db
4244031878,177020,fac36ad1e663ee4478d9025aeaf1374c22b
8583584396,177020,fac3e9935131b5044ee975a06ca331b5977
9496490523,177020,fac4020405403ed4c859150a71a747e3753
6192730326,177020,fac491388dfa3e046e28a9286a09de54383
6193779993,177020,fac51ae33a87ee84fd1b06e29e8c48c23c1
6197895726,177020,fac582c84f9e93a47f28081b722c91ff686
6197681478,177020,fac58e60d525b2a483389fda33fc727150b
7602592134,177020,fac5959b74ac8ed41c9b37fc1965324dc00
7145157088,177020,fac673bad8dd3b44c608064ed4539c07b69
4085473676,177020,fac6df30c0456d6430bb2e2eb1399419431
4084045766,177020,fac70ed1adb94de449ba69d1747b8204e5c
6195540332,177020,fac7e0b11ea5bee40509edf040f79edbf57
8188555384,177020,fac8606f2ca14b74457b26c0ad2b8a1ef2a
4086760875,177020,fac868fca55ba424be78e3eab5aff1e5f65
4243988016,177020,fac88ca0d66e5054c6bb5106755989bb589
6505358295,177020,fac9a633a629cde4fd9a790df30ae4361a7
7603503909,177020,fac9e5c1bc1de344c2ca6b3ab84f21dbc09
6194925646,177020,faca499db72391b4e17aa5340372451a318
6195144544,177020,faca6e8d12ac31b4c62ab50a0b8593bf105
4086621232,177020,faca77e9ae46d834e6e9e131dd4884fff0c
9256903493,177020,facaa31429014114a2e94a2bd5fdd99bb53
6266282410,177020,facac9c887b92e34a85adf3b34981e30d38
5104054982,177020,facace8392034c34b57abe3e564e08924fc
6193913752,177020,facc5540417bc96457aa0d8f126a41af90d
6195540887,177020,faccf5a188d88834a8da45469a83369dc9c
7144870298,177020,facd102cbeae5f8479ab45631bd20fbd420
5622684956,177020,facd1ab4bc730bc4969aae49953be75e4ed
6196125447,177020,facd8cac81e0c4140cbbe8ae0c7c079313a
4086621180,177020,facdee7a69278a04335a2c4db6d94de956d
7146406681,177020,face06c99e8ce7445679fd11c97ecd4ebf7
6197896739,177020,face9c59bac79bc432ab9bf81da63a225b1
9496494484,177020,facee7759cfa3ec4dfbb85949dcd9b44007
7144921054,177020,facfa83c89510664baab01f7d2ecaeb53de
4069094353,244221,fac67c0fcb64f755b91b42065b4aa143707
7067058224,21117,fac1366d53082e95c4cb7066521286ac6d2
8082154172,21117,fac1a823ec923855b9baa1b62de0ac76141
6614638812,21117,fac53e595eaa9c153aea0b938c1bb9f2a69
6614665775,21117,fac71fa926370b350ecae1db920083aa655
9094425761,21117,fac96049c539cd6520aac8c6e7e4102359a
6612288730,own82e6a0b57eff4981b28851ebd21be8cf,facb9372df85309470c8ebcb58dd04f7fe4
7067058127,21117,face2e0769b16ba5e7d8cf1f49cb1cfb4ad
5103183714,own89b30b3d0c3c496e9e526a1cd53111d7,fac1d20682957ba4939b2177e91e6abed8f
5104051070,own89b30b3d0c3c496e9e526a1cd53111d7,fac3c7290b829614f51ba13c897237fee66
5105883383,own89b30b3d0c3c496e9e526a1cd53111d7,facd22caba4118544d285cd1e12fd4b4605
4084098655,264917,facd71825eb6caf53088ecd6ea71d320b1a
7073090562,364877,faca61e4cda986259b696c7df38b7c0cdb7
8163578761,own8f01a247de0b44f688421391faac1524,fac0a15a656d99a49689eb09cb41e641811
5094781959,35090,fac162451fd9eb6527aa9df2f5637dd09fa
2084278706,35090,fac31c931c1fe274f9b845429090af79082
5095871742,35090,fac3e7565600d494a2fab6cfd40b973ffa4
7752523805,own8f01a247de0b44f688421391faac1524,fac5d81a46ba40945ab81caca09fa869760
2084005910,35090,fac61f0f724c83240319e4a14e121d69743
4052516335,own8f01a247de0b44f688421391faac1524,fac6aa569b394044c2088caaa8a89c5eb52
2082258974,35090,fac7376a02556f94160ad4779118cc0e8bd
5095605659,35090,fac871535bb287b4d839443493abbed708b
2084278561,35090,fac9024a2bbba1f46199aeb39120314a0e1
2084278734,35090,fac9375f0202c7143b1a162af752545c2b1
2088442619,254910,facb98bbcf5ab2c4f0eb26d7daab0622dba
5412563310,35090,facd44f7ee1283c473ebfef7da4509f2d07
4056438958,own8f01a247de0b44f688421391faac1524,face3afd16fd12f4f84ab58433a2fd03222
2084278588,254910,facf5131b21d1644925818c63de9cb6041d
2076402785,339652,fac925d207f001259bcbec687315105cc5c
9156153074,227,fac0856b660ab844f95b99e254167c60238
4352445433,227,fac3c7e958420c84f2cb2ebb961fcda3a69
5203768332,227,fac43820acbb1f141a4aa5942f057dfe9c3
9156153267,227,fac46b14b3190814c2fb681c6fadd7c0034
5755004620,227,fac707fd65822704934bf10158d3a534ef9
9152212381,own912376a0c75e46649021a283a3f69a41,fac8782c412e8a15f3e947e75ad6d00a0b3
9156153251,227,fac98b3b2cd177041f1a60868c64f95eee5
5202631198,227,facb141ee03a594452ab3b52b30cdb5b994
9167964879,227,facb32d9bede0724dd8bd4a96588669f550
5204706025,227,facb3ff5f49296c4e4aa401745c46b2c129
9156153268,227,face296683729664678a15b8bbb577dd4e2
9155294870,227,facee0c3beb82df4100939ece58eb33d817
9033547981,own91d2d6ef1b2843748189c1a677289801,fac3e3bbb4deec84389a4f850373241a50e
9032257995,299159,fac4539322b69475c2d8d7597de0fc2f9dd
5128900208,252839,fac03f5f0b2c4f84371a03aa8c563c1b232
5125591608,252839,fac1b900f8d47144b5a8abe7129e191a6f5
5128661365,252839,fac4634dfb694344ec392977e4f59fa9522
5129678425,252839,facb7c091394ff54e19a2465cc3c1a716ef
7043974155,18004,fac4d8da598442f417b8b1dcd6efdee24c7
7043973120,18004,fac5eba7c8cad3545d5a7c3b1617cec4f58
2084278532,260603,faccb2ac90ad1f1418b92f226edf8917f47
7073907624,352227,facfd605b96f4e553a7ab027c56513b98b7
4172753573,own9e4e59327e324196bb4c0eb5109a644d,facd65decc3a26a48b3bf1305cfa8c8cb81
6182695138,own9e4e59327e324196bb4c0eb5109a644d,facf2531006aad448acb8b886564d06ac86
7144091189,owna4d7ca9b85d74cc982089bbfa9f4ebd7,fac2f1f301a2f4251199c1b50c0277636ac
7146461827,owna4d7ca9b85d74cc982089bbfa9f4ebd7,fac5becb7ca2b9452809067e8423fc496f4
6197890760,owna4d7ca9b85d74cc982089bbfa9f4ebd7,fac833ca0b691845a339c52688e7826e721
7146406709,owna4d7ca9b85d74cc982089bbfa9f4ebd7,fac8d08ada1df04500482de70351116e70a
8312925127,337734,fac4ad1b93e35ae5b0abe6be62977e324ca
8452951539,282958,fac40b6e1b7a8814a03aeaa6d2ed53947ff
7073833556,300979,facae2614bf729456e9b215d38405a1c71a
9496490719,ownace02f8b8c67414e8419e2e0ecdcfedb,fac7deb8e6625145e0fa6051838e6162437
6106653351,245672,fac1adc949c68145a9da72883c8bbaaea0a
4842468601,245672,fac40efd59073a34ecc9f526649578193e8
6105955723,245672,fac4751082f786057e4899ae649e6d13329
2674594310,245672,facb58cf95319785d89a84b69224037966c
6105104701,245672,facb8e7c95c96f251ad83b08dd16ef2486b
9402912825,299158,facb28b6809cc0d59c9989d8b2a0de3c338
2138553695,385738,fac052395827a5e51b8b3f0dc62ef0bf989
2132952056,ownb3519bd0d8c24c39b36ab1f01e29335e,fac062e528e110e541a800b9e7586c900f0
2137704169,ownb3519bd0d8c24c39b36ab1f01e29335e,fac07f576ddbf535218a326d217f98c3c0c
2134933594,385738,fac802c6f82f82c426b8b4503563ca808c8
5106192532,273847,fac4cc777b69faa4c0c8a9ef18e5c5527c9
3606376163,81,fac0c8f9778a54f4e939b97fd1efd0e1978
5095900373,81,fac2837722064d1408fb9d0ea0a1e254a3a
5094166200,81,fac61dfcb1c846845689ca4ae1a1e4df525
2535011703,81,fac8feae3a911c945a6aed5b1d337e625e3
5095900327,81,fac9503d625a6be436291ad3d0a46517607
5092287598,81,facc1f11111c7584215a4d24626cc6e9091
5094245347,81,facdfc6d9bd39d745cc973fb0e906c808f4
2542763668,ownb886360c97794fd8aa8b769e3a184338,fac47dfc71461b94bfe91e76478a3d33a97
2542763988,ownb886360c97794fd8aa8b769e3a184338,facc1d456c2469a40a88b3b76767421f2ba
4234012768,239113,fac0a2dc244a71147cca5e802f1ca0b3391
4234552847,239113,fac0ca4909b8c7043818e64596f18c061f8
9312832290,239113,facaa42d5dbc94652ff977c75cf35363353
4233761190,239113,facd249bbe669cb48e4918c3620b5d96cf6
4233972779,239113,facea9314258d374b4fb53d9e57e05735e7
9705488944,239113,facfe4b32ea1da541e9955b1693056833e3
9162378437,254910,fac0aeb24509dff50bb929c34b6e629a564
9094795305,254910,fac192fb3f5961e5846820ff91da6a51258
9312836125,ownb90db224a7fb45608647b3269d2d50a9,fac26549af27b985c74bff73bc11d8754d9
6152355596,ownb90db224a7fb45608647b3269d2d50a9,fac36528c8abacf44e6af1f597ec22f196d
6158134944,ownb90db224a7fb45608647b3269d2d50a9,fac41a44a6a72df50138012cd2616b6875f
5095605692,254910,fac4dcf8e23cf495a4f87ee1361d4e64d0c
7752434028,ownb90db224a7fb45608647b3269d2d50a9,fac50cd628843d8476888c40f5b5365d118
7252175589,254910,fac55de5de23cc05d0eb361033f59afffa9
5084666343,254910,fac5a324cc78b7850bb96ae2e74515cc03b
9514702803,254910,fac5b03c948d8da5b548165a0eca7460a56
7742338610,254910,fac635820cc867a58c5bc1d9dd72d885331
2818433493,254910,fac6a67e1cb20725beea1c95d12e20a6083
7603503815,254910,fac85f3b744b1bd5213ba0cd2e796d751e5
9514763878,254910,fac863b3eef301a554f9f2c39f6462747b8
3392306269,254910,fac8a9bb72bf5824ec8a2a3bc65302c0669
5128900899,254910,fac8ce20934624a5321af604ec9955779df
9313452843,ownb90db224a7fb45608647b3269d2d50a9,fac8d2cf4786b3c589fa5feaa725b2bc9da
5204025096,254910,fac9a24eacebcf45d168c37957646727f6c
2142392699,254910,fac9c776e198eaf5d23a0d0bd3a4aa69a7b
9094425088,254910,fac9daa98ee9fde57abbfa78f7bac6828b5
7603503931,254910,facb88e1ec4ec93518e834861e20a7f6a68
5592723708,254910,facbcd28f4f9c465cd597db8b0cbdd98434
6614641427,254910,facc2352e06572e588688eead3506adf81c
9092964146,254910,facd534baabbe5751bab763bb0ee111b55b
6158134898,254910,facd77cf9e8965f5c32a612cee0b486103a
9514702319,254910,facddc538c5a28455b690bb67451a2f8206
5622684782,254910,facdea11debff325ce08697d93cac03ea30
6614665422,254910,face142d5125dcc5633b5216c2e9f711f21
9495697926,254910,facea7501cc74ba4b509534c7de3509feb0
7633734345,254910,facfbfaaa617bc35cd49d6e3f1c9e6266c4
8178597815,32310,fac09648a564b3e49898ec33ac590e9beb1
8177656713,32310,fac0c016b23157b5d69991b35763ccfac9a
9729629442,32310,fac10dc163f634f4701987b6b23b4300b24
8178597659,32310,fac1f99e4afd90051748ef603dfefd036e5
9729629345,32310,fac21b9a63d7f02518999e82adb47ed8adb
8178597745,ownc74ce197e3e14e68a4803974ab23d748,fac24fe51b4bb774d1aa95eb595133d4c89
9729629534,32310,fac26f566a28b614103ae8b1b29f09d9b38
8177656723,ownc74ce197e3e14e68a4803974ab23d748,fac274ebb7d41444152a984b9560cf3af2a
8177830425,32310,fac313ff9dde9854b5ab3bffa8c83e323ab
4052962254,32310,fac3675af003c9d45839bae5606a7cea369
4694365432,ownc74ce197e3e14e68a4803974ab23d748,fac3f3a8a523fd84db291f90cb0fa6856bc
9729246032,32310,fac43305ee410d85d5595fe3f3b0c453c52
8178597836,32310,fac4ba35b7ebd305365b0813e342c0d755a
8178597860,32310,fac4dfb3633c5f553419b1923f61fbbb242
8177656675,32310,fac55ee27ee16bc5c06ae3c49f4d50a9b04
8178597820,ownc74ce197e3e14e68a4803974ab23d748,fac613b8f51b4d7547d96bf5bc3369c9b71
9729629622,32310,fac6444d342574b5fd1a72ee7b18263305a
8177656751,32310,fac6d4252a24bce5dbf96893903e93c6017
9729629663,32310,fac7b4bcd56c6eb548e899639b569f016cd
4694365527,ownc74ce197e3e14e68a4803974ab23d748,fac7d55ad8c7aea4ee793441688aa54dcd4
9729629631,32310,fac7ebdeb33189a4363bdc9c08ef89b9fcf
4052769420,32310,fac7f26114532ec43f89e2e838aa7e7eb44
9402914795,32310,fac880d569caf644b78a10da8e51dd216bd
8178597818,32310,fac8e2294a3b7e951b39fe8213e31ad507b
9729629569,32310,fac997def1813495e598b31f726e572cc5d
8178597854,32310,fac9ab41b984b03543a84718da558fab571
8178597833,32310,faca0d796b2060d4d9b9bcfb2c6498ca883
8178597770,32310,faca3160223239c5176891c428355d48a96
9403265305,32310,faca61303a3f14750e8aaabbbfb6e843296
9727367975,32310,faca68720975cff5fa99a3a32843fec6811
8178597739,32310,faca77ceb1ccab35fdbb1f650357e45fb68
8177656764,32310,faca9313835bfd158608d7c2ac9bdc35623
9405313758,ownc74ce197e3e14e68a4803974ab23d748,facadba045df1214e469074c4afd7c9175b
9729629247,32310,facbd2ed947aa51528cb8ee84ff14a9c6c7
8177656677,32310,facbe208ded5c835d5ba6eab01f8a5d16d8
4694365499,32310,facc3db6c96084456f9b11297a520494f82
4052898881,32310,facc7382def327646e1b4e720b70c4dcba7
8178597823,32310,facc95df5e07b6f58ebb241910f822c20a0
8178597856,32310,facca558f164e355a07a91804e61431d068
8178356916,32310,facda59a3e118f1430cb0f77195abfdfb99
8177656769,32310,facdab8302f6d06595b98eb9f64081d7c30
9729629284,32310,face6db858c85425178bc6b0490b9360c9d
8178597691,ownc74ce197e3e14e68a4803974ab23d748,face87158bae03e469ba01e948cb6b886d4
9729458143,32310,facebaf5fbea0515a459c0698e74151cb72
9729458025,32310,facf785e3009b4c5cf6adb25f85f2f43035
8173457122,32310,facf7aa32ba659e4e469326d359d13605bd
8177656594,32310,facf80d281314464d8bbd8996f5855ac2cb
8178597766,32310,facff1d3335c1475401a18d5bb2e3ae0fd8
2546370489,32310,facffd62bd8c7bd599b9177563c73ee85ed
9165279773,254910,fac67d0644892775a22b84a03dfacaaebd5
9495697903,ownc8f32cc802014301aca8e09302fa4568,fac99cd9500e4144bbb90579a3d151f056c
5622684955,ownc8f32cc802014301aca8e09302fa4568,fac9d5a91c01a6f580f9553ff2341088374
9163041572,25237,facaa1191f8c35d44d4993b09b82a4a300e
7579828720,225032,fac068e72de34a446a18bafc23d48cf25d8
7579828521,225032,fac0691368e295b4848858f2bfc4d7c9d3d
7579828582,225032,fac0e99f8b966fc4016b3f2590805d849d0
7579828783,225032,fac35703a281b3d45e4a9159b3edfa30dbb
7579828726,225032,fac61386c3086b54add83ee2d421c742019
7579828771,225032,fac9f2db5e70bca49398558b15d577ba6de
7579828652,225032,faca2aaefee0f7944baa39acf29848f3928
7577992023,225032,facbbe366667e61413cb69f3ff2bc399d65
7579828812,225032,facbe6787f77f0d4fe4885feaadac6d06e1
7579828743,225032,face3d0a3f32d264ab993d454e5df7148bd
7579828642,225032,facf9b6c50e8f7546b3aed6125c85648887
9284960657,owncbc357b036b146a38dc416a2821d6788,fac15c224a0f5494903b187da098ed9cae2
5593649399,owncbc357b036b146a38dc416a2821d6788,fac2435adc595fe453fa587018ea5275ff5
6614638440,owncbc357b036b146a38dc416a2821d6788,fac2bdce7d57504406d98249b928ba01f19
5592344551,owncbc357b036b146a38dc416a2821d6788,fac5466df8771a34706aa29bd440d726fe5
9284960672,owncbc357b036b146a38dc416a2821d6788,fac619c2671125743e9925263d28b434b09
6614516647,owncbc357b036b146a38dc416a2821d6788,fac93b41877ddbd4f62ba7594c862e93e0e
5593459519,owncbc357b036b146a38dc416a2821d6788,faca8014796ed734710893dc4099856c724
5593795459,owncbc357b036b146a38dc416a2821d6788,facac9859e86cd9423384b9d8c99d16ddd2
2816261913,259830,fac1336123a48a242e78a5a4972cb2b87e6
9362158244,259830,fac13bab57577d24684bb0a0ab319c4db1c
2816261778,259830,fac1641f4beb3ac41758bfb04dc1a9ce4e2
9403021020,259830,fac1648203a1e5d40988a33b10ebcb6c185
3186186568,259830,fac22b5e4ec68335418a32e12ab4b5146ec
8123890797,259830,fac232889a6602e471f9ba31a9a6768e36d
9107144809,259830,fac254d3833d0ee4942a7deddadf3ee6faf
3183863488,259830,fac2af3eae921f0544d9de3ff82b8cae1f2
2816261567,259830,fac3b52fbfb5d464542995118a572a5830c
3603278602,259830,fac3bbcce2d6cfa48cd96db22cd8e938c05
7753129241,259830,fac4993e78fbda347c999726b5cc8dc5139
8704575810,259830,fac514af5bdb8c044f9b3c01a23e9707d12
7067058330,259830,fac5c33b1f84c644ef48adc22a4502b1834
2546370480,259830,fac5e1722378dc45ce0ae2577ec963998ed
4787726805,259830,fac623854532ca040a9868445ef02738467
7067058195,259830,fac65fe6bb3a2d147b6b9b421511b2ed587
2546370561,259830,fac6bef402244455cadb501236efb57bb75
2058131309,259830,fac6e0f6ef9454b46c0909b6ad52f1f1785
4783479415,259830,fac731b9871b1fb4f8da9e70e175d138558
4092550589,259830,fac7fe11595331c52e2b39fcec39a2e700f
9107144979,259830,fac96d6bc933db94402b53d328f6d6a5a75
9563061319,259830,fac9ad169c953d4481c98550d01022fde96
8302834025,259830,faca2f1c8e4ee114ed7a11032e031a9a7ca
3344542495,259830,faca47afcc83c2048ee833204cf155b04b2
3344542516,owncf3e46fdf1c14ca99ca611dd4b0e96ff,faca4c15b73be3d45e89f59d4dfbcd66175
3343262347,259830,facb44a1234b1b649248dd001f2898f43fd
9107144865,259830,facbe9f1b842d1a4fefbbb2c75dbd3701ed
3183863971,259830,facc61133ae87f45c4096074820c0ab2c68
3184136409,259830,facce04183c74bb503892b4e1f8f3928798
4344435233,259830,facd3525ac13af746158be43528920416c4
2058131522,259830,facdab768bb331c4123b92d6923ec6b7dff
8122897559,259830,face154affc90b4444097d8e27a128ab3b5
8506798520,259830,face9d01ef1cbef5712bbcff73afbd66c65
4092634205,259830,facecd8caa6e9695fb2a02431a94a69c8f1
2818433244,259830,facef5d15658ede47e4abf1f5de72a7a960
5126413673,259830,facf6fe9baae69646e2a7761420e89bc4e7
8056083721,owncf5bf938e63c47be88c86920029c33b4,fac687264b838bd59a09eb0f05addebef09
6504144750,266642,fac84acd413724e4c6cb7c9a3888c115dad
4092543275,owncf6bdd29b128422dbb19156b5e2cbcdf,facde7a361a69ff4a858fe0285f96e5aac4
4056437841,ownd2d64f3a952d4bca8e49dddf666b5c23,fac86e8e47710664cbdbfc1442b19e4690c
7633734217,347789,faccf0c65a54d3a536996fa1338a1613463
2532701351,320081,fac0ff48f4f81ab5321ab91873caccc10c8
3602529308,320081,fac4f079cc5367c56f7a9ffee7d0716a59d
3602268806,320081,fac68d0149ce08d5fb287c73bb60746adc7
3606417504,320081,fac6afa89fb23fb5ebaae5778ff210604f4
3602275316,320081,fac89405904d22c4a5ab85ae6b65ed5290d
2532701253,ownd566e0f280444a3e8309cf2e233eb68b,fac8bf3e6190a2d424aa88d81e691c34b1f
2532701267,320081,fac95cf71491dcf4267b0dce588a23fdb52
3603187812,320081,faca61b4f80061a59e3932c648fd8f8be8f
2068956567,320081,facc03c14acbb90594e949faa74b5ca1c64
2533001671,320081,faccf8e2658ff5f54d08861f9062029a101
9804415834,owndbe5bdb327b3401a96c4429a7aacc9f8,facd1454aecc821493da737f9d574abcd48
7067058216,owne757245495f9441a93b4c08b55c96d16,fac123demo
8506798157,owne757245495f9441a93b4c08b55c96d16,fac38c1011caa47515d8ce8e99dec86b47a
7067058128,owne757245495f9441a93b4c08b55c96d16,fac7e5e9a2b6b54410dab06xxyyzz
7067058154,owne757245495f9441a93b4c08b55c96d16,faccff2c58bc1bb5f7
8506798707,owne757245495f9441a93b4c08b55c96d16,faccff2c58bc1bb5f76bdabe6f0d0d5af60
7067058323,owne757245495f9441a93b4c08b55c96d16,face477a318c4c45fa7843bc63b38542282
4172724447,388673,facb7550ac544a94fccb761380b739e79e7
2084081867,262618,facf06efc94b39041998ad46115949d7d14
8593286743,ownf47598a066714d599449c6151a7ad355,fac78723ad709c74fb99d02b5f012792b5c
4086621116,ownf4bc819ede5a47588ec6cb0ad452ed86,fac010414fa566f46fb874cfa269a52f11a
9256903487,ownf4bc819ede5a47588ec6cb0ad452ed86,fac06849d9ac630451e8283d0731e331a3b
9362158595,ownf4bc819ede5a47588ec6cb0ad452ed86,fac15cf543385ab4dbc92b76af8134f23ee
5106302440,ownf4bc819ede5a47588ec6cb0ad452ed86,fac1dba56d029c147b3a47a5ec2c62465d6
9362963209,ownf4bc819ede5a47588ec6cb0ad452ed86,fac28bff92f7803465eb70ae9f95a200849
4086682700,ownf4bc819ede5a47588ec6cb0ad452ed86,fac2bf19354e9f34e3a8122f1b79741f69d
9363153115,ownf4bc819ede5a47588ec6cb0ad452ed86,fac2d45e5e2d0054a5f97b7eb80781818e9
7073835943,ownf4bc819ede5a47588ec6cb0ad452ed86,fac32c3a106dfdb4f98a69ec6680d8eaf04
9362156806,ownf4bc819ede5a47588ec6cb0ad452ed86,fac3481724e9ba14752ab2ba184eea5467a
7073090886,ownf4bc819ede5a47588ec6cb0ad452ed86,fac38d7d676d37345488ff00819c6f50aca
5106175790,ownf4bc819ede5a47588ec6cb0ad452ed86,fac40495b38e7b9450e90207cb63ae92546
4085473633,ownf4bc819ede5a47588ec6cb0ad452ed86,fac70b9f9c5e40a4148a4a458a506df37ed
4086929466,ownf4bc819ede5a47588ec6cb0ad452ed86,fac799902f7777e45148df35b8fcc2152b9
9362963281,ownf4bc819ede5a47588ec6cb0ad452ed86,fac8cace19c0b0746399aec40940e1d92af
7073485854,ownf4bc819ede5a47588ec6cb0ad452ed86,facb0aa1705584d482f91811133440ceab2
7073907549,ownf4bc819ede5a47588ec6cb0ad452ed86,faccc57e085b28c48ae84b10e0a01feacc0
5106302638,ownf4bc819ede5a47588ec6cb0ad452ed86,facd00fb2c6493d48ab88ca4ce03fc5f924
5106192751,ownf4bc819ede5a47588ec6cb0ad452ed86,facdaee72954ebf43198491e50a6feecf9a
5105748553,ownf4bc819ede5a47588ec6cb0ad452ed86,faceed164ca777848f0bede4a7fd312b047
9252815482,ownf4bc819ede5a47588ec6cb0ad452ed86,facffc0f2026d304bca99e4d23dd401d072
9513897702,ownf82220f2b85e48079bcf46be34a925ba,fac8732251b42064634963ccbee280e5b66
2513193954,ownf9cce332a9444192979a5718a81b1430,fac700c9fa691034d79aae9b844da9ccf45
8508087946,ownf9cce332a9444192979a5718a81b1430,facbd120d50c0094bb5b60feab2c1e1f74b
7815464602,22193,fac283fe8246c954e05a0d1a0e44f9fb19d
5617394146,22193,fac432e2b2a20914a86b0d66360a7e08394
5617394285,22193,face18745385e4f4818bf79a1d5bfe011db
9786449710,22193,facfa0b001a3a3a436caaf5ccef0106af57
4086621261,ownfda991671b1a4c92844798e622c29c4d,fac8f7f2dec725e4b4490654ec7297cfae8
6073881725,359831,facfa8ac6498ef65091a4fb4832126e55d7
7022975171,Kabera Global,362002
9495415674,Kabera Global,346026
9498996233,Kabera Global,348024
9197696734,Kabera Global,347024
9497994917,Kabera Global,348025
2175163888,Storage Masters,86626
6362990980,Storage Masters,109041
2172626501,Storage Masters,86622
6362430493,Storage Masters,107873
2172626863,Storage Masters,86625
6362430116,Storage Masters,108578
8172429121,Advantage Self Storage,352014
9727796098,Advantage Self Storage,345034
9726468482,Advantage Self Storage,345035
8066055086,Advantage Self Storage,119412
2107047945,Alamo Mini Storage,115353
3612365903,Alamo Mini Storage,119174
2106464955,Alamo Mini Storage,115339
5123771625,Alamo Mini Storage,115344
2108076242,Alamo Mini Storage,115346
3612658962,Alamo Mini Storage,115343
2108076219,Alamo Mini Storage,115354
2623144083,Barth Storage,102644
5128796346,Anderson Mill Self Storage,115550
7708724710,Storage Consulting & Marketing,119197
7708724706,Storage Consulting & Marketing,119196
6788079904,Storage Consulting & Marketing,85257
4702962476,Storage Consulting & Marketing,85842
3053636162,Progressive Realty Partners,84179
7149074332,Progressive Realty Partners,82621
7607849505,Progressive Realty Partners,81683
5623544419,Progressive Realty Partners,107371
9152282599,National Self Storage,117787
9152195492,National Self Storage,117784
8016589672,National Self Storage,101013
5204471501,National Self Storage,79934
5755455004,National Self Storage,92840
9152137014,National Self Storage,117788
9152137112,National Self Storage,117790
5204471388,National Self Storage,119210
9167415096,National Self Storage,82615
5202142788,National Self Storage,337016
9152137051,National Self Storage,117789
4022273894,West Pacific Budget Storage,92409
4024039976,West Pacific Budget Storage,119212
4023833180,West Pacific Budget Storage,92408
4027189170,West Pacific Budget Storage,141255
9285152034,Storage Solutions,119419
6233001326,Storage Solutions,79789
6234555491,Storage Solutions,79856
6234555538,Storage Solutions,119322
4808425411,Storage Solutions,79742
4808450354,Storage Solutions,79717
4808450723,Storage Solutions,119312
5203009048,Storage Solutions,79913
4806054525,Storage Solutions,79918
6233210291,Storage Solutions,79796
6234555576,Storage Solutions,119417
4808450384,Storage Solutions,119415
6234555694,Storage Solutions,119418
4808450711,Storage Solutions,79825
6234555731,Storage Solutions,79851
4805264896,Storage Solutions,111623
6027148541,Storage Solutions,126016
6233210047,Storage Solutions,79932
6235526024,Storage Solutions,80039
6234555638,Storage Solutions,79931
7759901418,Storage Solutions,93145
6232445371,Storage Solutions,80037
4804183832,Storage Solutions,119413
4808450866,Storage Solutions,79698
4808450783,Storage Solutions,119422
4808450809,Storage Solutions,119414
6234555512,Storage Solutions,119416
5204413815,Storage Solutions,119421
6234399866,Storage Solutions,79800
6234555585,Storage Solutions,119313
9188761560,Briarglen Mini Storage,95008
6264156768,Westport Properties/US Storage Center,81228
6159333799,Westport Properties/US Storage Center,97509
3109064044,Westport Properties/US Storage Center,104935
8449634046,Westport Properties/US Storage Center,159020
6234320835,Westport Properties/US Storage Center,119204
6156567375,Westport Properties/US Storage Center,97545
4247327076,Westport Properties/US Storage Center,109812
3105753074,Westport Properties/US Storage Center,80683
9496135779,Westport Properties/US Storage Center,81270
4242933954,Westport Properties/US Storage Center,81210
4106964416,Westport Properties/US Storage Center,113174
6234320646,Westport Properties/US Storage Center,79767
5623520310,Westport Properties/US Storage Center,81391
7865654831,Westport Properties/US Storage Center,129006
7867667304,Westport Properties/US Storage Center,84163
7867323963,Westport Properties/US Storage Center,113296
3236885213,Westport Properties/US Storage Center,82554
7147016491,Westport Properties/US Storage Center,81707
8058354885,Westport Properties/US Storage Center,82335
7027284334,Westport Properties/US Storage Center,92921
7142024737,Westport Properties/US Storage Center,82628
8189460741,Westport Properties/US Storage Center,80711
5623219388,Westport Properties/US Storage Center,113018
7144628660,Westport Properties/US Storage Center,82388
9728437621,Westport Properties/US Storage Center,115396
8182373210,Westport Properties/US Storage Center,81470
6264982274,Westport Properties/US Storage Center,302041
4075126086,Westport Properties/US Storage Center,113155
9519004928,Westport Properties/US Storage Center,80812
8189637921,Westport Properties/US Storage Center,81512
8187413445,Westport Properties/US Storage Center,112358
4243548456,Westport Properties/US Storage Center,109718
9548748905,Westport Properties/US Storage Center,84601
9493834555,Westport Properties/US Storage Center,81272
4242165543,Westport Properties/US Storage Center,81070
5623544261,Westport Properties/US Storage Center,113300
4072784100,Westport Properties/US Storage Center,83456
4242950951,Westport Properties/US Storage Center,109543
4242933953,Westport Properties/US Storage Center,129004
4242950658,Westport Properties/US Storage Center,109683
4242950834,Westport Properties/US Storage Center,81127
7866648906,Key West Mini Storage,119360
2393215580,Key West Mini Storage,119359
6196304987,Acropolis Space Center,81574
5616923998,AA Alpine Storage,84146
3184800948,AA Alpine Storage,88092
8019990951,AA Alpine Storage,100704
5612475964,AA Alpine Storage,84266
8014770948,AA Alpine Storage,110195
5618656986,AA Alpine Storage,83820
8015131986,AA Alpine Storage,100860
8014069902,AA Alpine Storage,100868
8012100992,AA Alpine Storage,113283
4022985251,StorageOne,333016
7027896510,Stor-More Self Storage,119428
2392493838,Storage Quarters,83635
6144728606,StorageOH,93901
2517324905,StorageOH,119522
8505025623,StorageOH,128014
2484681619,StorageOH,89481
7402003090,StorageOH,128015
6145037917,StorageOH,111170
7403200356,StorageOH,302040
3108456996,South Bay Storage Center,81121
4106450917,Lansdowne Station Self Storage LLC,119537
8052631526,Golden State Storage,81736
7029416775,Golden State Storage,92990
6612288368,Golden State Storage,81630
7028421767,Golden State Storage,93089
7027456761,Golden State Storage,93107
7026028115,Golden State Storage,93085
8056598482,Golden State Storage,81890
8055494094,Golden State Storage,81737
9092819748,Golden State Storage,80599
8055494388,Golden State Storage,80648
5623529949,Golden State Storage,82252
4243907826,Golden State Storage,353016
7026056034,Golden State Storage,380001
6612288343,Golden State Storage,113295
7472714187,Golden State Storage,113294
7028256817,Golden State Storage,93004
7472714629,Golden State Storage,81615
7027668532,Golden State Storage,343101
6616895921,Golden State Storage,82307
7573508095,The Nicholson Companies,134039
8044093833,The Nicholson Companies,101472
5407798993,The Nicholson Companies,101149
8044427587,The Nicholson Companies,101111
8505648922,Freedom Self Storage,84101
6614306191,A-American Storage Management,81772
5623965911,A-American Storage Management,82250
7752668936,A-American Storage Management,106627
6193467468,A-American Storage Management,80894
8087252426,A-American Storage Management,85846
7755451997,A-American Storage Management,108937
9519164855,A-American Storage Management,81147
7146768338,A-American Storage Management,141246
7753168927,A-American Storage Management,93050
8053228446,A-American Storage Management,141247
4245432328,A-American Storage Management,80061
8052931850,A-American Storage Management,82215
7753939980,A-American Storage Management,107940
6614306064,A-American Storage Management,81310
7602374432,A-American Storage Management,81996
9513980545,A-American Storage Management,81146
2256865473,Bakers Ship-N-Store,142020
2253690973,Bakers Ship-N-Store,126005
4079720845,South Seminole Business & Storage,83764
8052533946,EJL Construction,80549
3104218993,EJL Construction,81211
6029102529,Rudel Company,126050
4808450713,Rudel Company,126052
6029102150,Rudel Company,126051
5203532497,Continental Self Storage,113211
5303631140,Plumas Lake Self Storage,119512
8056045612,Global Mini Storage,81685
9167415380,Global Mini Storage,81086
9165728950,Global Mini Storage,80170
3125740969,Mini-Max Storage,86635
2173647511,Mini-Max Storage,87277
7819952144,Castle Self-Storage,130001
7815589076,Castle Self-Storage,130000
6179347065,Castle Self-Storage,130002
7814127093,Castle Self-Storage,301036
7144777961,Fullerton Self Storage,81044
5132808857,Superior Storage Solutions,130068
9373194390,Superior Storage Solutions,109321
9374515150,Superior Storage Solutions,94572
9042099840,Monument Mini Storage,83386
5406573319,Pinnacle Realty & Development,101494
7575172505,Pinnacle Realty & Development,101053
7579414630,Pinnacle Realty & Development,101540
5406573106,Pinnacle Realty & Development,101154
5406573179,Pinnacle Realty & Development,101150
7575172419,Pinnacle Realty & Development,101134
7047417521,Mint Hill Self Storage,340022
4808185985,StorageMax,79781
2052893137,Gardendale Self Storage,78854
8052446248,The Ezralow Company,113430
8053176512,The Ezralow Company,82336
9097136868,The Ezralow Company,82088
4256891780,Everett Downtown Storage,101979
4256891864,Everett Downtown Storage,134013
4803311974,Palm Gate RV & Self Storage,134027
9163185218,Self Storage Management Service Inc,109128
5303165246,Self Storage Management Service Inc,150025
9362470223,Veneto West Properties,115049
9367153137,Veneto West Properties,115048
9364171096,Veneto West Properties,115047
9362361967,Veneto West Properties,115057
9366474835,Veneto West Properties,115059
7196945094,Rockrimmon Self Storage,82746
8082011049,HB Storage Investments/Storage Solution,140017
7067176330,HB Storage Investments/Storage Solution,155000
7062045653,HB Storage Investments/Storage Solution,82702
6614595017,HB Storage Investments/Storage Solution,81309
6614034583,HB Storage Investments/Storage Solution,80867
9095528393,HB Storage Investments/Storage Solution,81003
8556353005,"Jay Management, Inc",133028
5034464063,"Jay Management, Inc",106562
9783156805,Burlington Self Storage,352006
5617258629,Burlington Self Storage,353000
7814231919,Burlington Self Storage,109127
5615995878,Burlington Self Storage,84849
8667328449,Storage Pro Inc,81323
4088729593,Storage Pro Inc,119533
7072385495,Storage Pro Inc,273010
9254489532,Storage Pro Inc,273008
6504828335,Storage Pro Inc,81963
4087635997,Storage Pro Inc,82404
8669715082,Storage Pro Inc,81356
5108086027,Storage Pro Inc,81663
5109747562,Storage Pro Inc,345037
8315312702,Storage Pro Inc,104557
7073834656,Storage Pro Inc,297000
5103067582,Storage Pro Inc,314002
7077660255,Storage Pro Inc,292001
6614300545,Storage Pro Inc,331002
9165963336,Storage Pro Inc,80172
8054227912,Storage Pro Inc,340014
4086178499,Storage Pro Inc,343005
5108172527,Storage Pro Inc,103962
2095466732,Storage Pro Inc,81482
7074143516,Storage Pro Inc,346009
8312756988,Storage Pro Inc,138340
9254489011,Storage Pro Inc,80518
7072447825,Storage Pro Inc,352005
5303631107,Storage Pro Inc,346022
5102983278,Storage Pro Inc,81135
5103284452,Storage Pro Inc,81993
8058045581,Storage Pro Inc,81595
4155349285,Storage Pro Inc,106489
5307725306,Storage Pro Inc,81095
9254489623,Storage Pro Inc,81345
5103284473,Storage Pro Inc,82128
8312377820,Storage Pro Inc,82055
8314530013,Storage Pro Inc,81427
5303792148,Storage Pro Inc,80564
5106626377,Storage Pro Inc,345039
4243428501,Storage Pro Inc,350011
5595884603,Storage Pro Inc,81329
2092706599,Storage Pro Inc,356007
5306782192,Storage Pro Inc,81100
7072385915,Storage Pro Inc,82288
7075043710,Storage Pro Inc,346008
9167944281,Storage Pro Inc,331004
4243495924,Storage Pro Inc,350038
9254489090,Storage Pro Inc,273007
9165710168,Storage Pro Inc,80990
8053303730,Storage Pro Inc,347010
5309684415,Storage Pro Inc,82454
7076100872,Storage Pro Inc,345002
7073834575,Storage Pro Inc,106337
9258923552,Storage Pro Inc,107971
7072825139,Storage Pro Inc,331005
5102983273,Storage Pro Inc,81668
2092294273,Storage Pro Inc,81422
8664415577,Storage Pro Inc,113210
4159429035,Storage Pro Inc,145030
5108518637,Storage Pro Inc,103200
9169150619,Storage Pro Inc,105219
5593703047,Storage Pro Inc,81112
9253504968,Storage Pro Inc,81341
4159429013,Storage Pro Inc,82115
9165710071,Storage Pro Inc,80165
8312695049,Storage Pro Inc,313060
4088728115,Storage Pro Inc,346028
2512351031,A & B Mini Storage,79036
8434613278,DMI Storage,111351
7044438918,DMI Storage,138352
8036668259,DMI Storage,97019
3363038930,DMI Storage,91325
7047650701,DMI Storage,109269
8506608967,A-1 Crestview Mini Storage,138361
3862843585,Storage Management Associates,119657
9282242218,1st Show Low Storage,140029
8057255282,American Self Storage,82257
4094403813,Central Maxi Storage,116030
3037207317,Petie's RV Storage,140062
7605719263,Adobe Self Storage,82478
3342460623,Bass Agency Real Estate,143050
5097742605,Pine River Management,101725
5855984590,Gary P. Wall Real Estate,141121
5855635019,Gary P. Wall Real Estate,108030
8435475344,Stop N Stor Self Storage,337004
9126234192,Stop N Stor Self Storage,85481
9125843524,Stop N Stor Self Storage,301014
9123887038,Stop N Stor Self Storage,85027
9126234189,Stop N Stor Self Storage,85475
9122894101,Stop N Stor Self Storage,106103
9123485845,Stop N Stor Self Storage,313081
9122096761,Stop N Stor Self Storage,85480
9122447471,Stop N Stor Self Storage,337003
9123485088,Stop N Stor Self Storage,313080
8642491932,RMR Development LLC,97207
9163786651,RV Storage Depot,240007
9164720148,RV Storage Depot,81609
2082285271,Stor-It Self Storage,141058
2084732151,Stor-It Self Storage,86207
2088819527,Stor-It Self Storage,107038
2088744856,Stor-It Self Storage,86314
2082854515,Stor-It Self Storage,347061
2082280247,Stor-It Self Storage,86342
2084732281,Stor-It Self Storage,86208
2086470135,Stor-It Self Storage,142097
2084026527,Stor-It Self Storage,86313
8476071463,Itasca Mini-Storage,141110
8016580044,Mountain View Storage,100812
5022760383,TKG StorageMart Partners LP,87878
6476943314,TKG StorageMart Partners LP,141224
5738304682,TKG StorageMart Partners LP,90278
6476944573,TKG StorageMart Partners LP,141207
5153466959,TKG StorageMart Partners LP,85863
5156088832,TKG StorageMart Partners LP,111945
8167354510,TKG StorageMart Partners LP,141182
9138270529,TKG StorageMart Partners LP,141190
9542288397,TKG StorageMart Partners LP,141174
9137529276,TKG StorageMart Partners LP,87613
9709864007,TKG StorageMart Partners LP,141193
4046204768,TKG StorageMart Partners LP,85549
5874104256,TKG StorageMart Partners LP,141239
4086805864,TKG StorageMart Partners LP,111768
5733494210,TKG StorageMart Partners LP,90274
8162664682,TKG StorageMart Partners LP,90191
7736722797,TKG StorageMart Partners LP,86515
9528003725,TKG StorageMart Partners LP,89880
2105985061,TKG StorageMart Partners LP,118755
5156195902,TKG StorageMart Partners LP,112821
5146130556,TKG StorageMart Partners LP,141226
5878003407,TKG StorageMart Partners LP,137199
8167444052,TKG StorageMart Partners LP,90370
6476944263,TKG StorageMart Partners LP,141221
2392080875,TKG StorageMart Partners LP,83632
4023477064,TKG StorageMart Partners LP,92383
5876000621,TKG StorageMart Partners LP,141195
5636075580,TKG StorageMart Partners LP,85878
7072719027,TKG StorageMart Partners LP,80980
9137474208,TKG StorageMart Partners LP,87543
8449850826,TKG StorageMart Partners LP,139019
6476942507,TKG StorageMart Partners LP,141220
8162054697,TKG StorageMart Partners LP,90205
6476943729,TKG StorageMart Partners LP,137030
5155124625,TKG StorageMart Partners LP,85966
8166231507,TKG StorageMart Partners LP,119237
8162664930,TKG StorageMart Partners LP,90206
9138283272,TKG StorageMart Partners LP,87463
7062528724,TKG StorageMart Partners LP,85180
9546334140,TKG StorageMart Partners LP,109319
4028824485,TKG StorageMart Partners LP,92397
8318565132,TKG StorageMart Partners LP,105342
2109609442,TKG StorageMart Partners LP,141192
4788457766,TKG StorageMart Partners LP,141171
3477651050,TKG StorageMart Partners LP,141169
9133254357,TKG StorageMart Partners LP,141188
4025074191,TKG StorageMart Partners LP,109503
5735615232,TKG StorageMart Partners LP,90276
5878003423,TKG StorageMart Partners LP,141240
8162933078,TKG StorageMart Partners LP,306013
5733559295,TKG StorageMart Partners LP,90275
5105607027,TKG StorageMart Partners LP,81667
2897993479,TKG StorageMart Partners LP,141216
7052432196,TKG StorageMart Partners LP,137604
8168399428,TKG StorageMart Partners LP,112476
8556614175,TKG StorageMart Partners LP,137554
8557126591,TKG StorageMart Partners LP,137543
6303182041,TKG StorageMart Partners LP,141178
5878020908,TKG StorageMart Partners LP,141200
2264002188,TKG StorageMart Partners LP,141213
9138719560,TKG StorageMart Partners LP,141187
6308120049,TKG StorageMart Partners LP,86666
3127577609,TKG StorageMart Partners LP,86492
8163253839,TKG StorageMart Partners LP,90526
2267980904,TKG StorageMart Partners LP,141223
2012976926,TKG StorageMart Partners LP,104774
5153934970,TKG StorageMart Partners LP,86046
5156196718,TKG StorageMart Partners LP,85862
8169344651,TKG StorageMart Partners LP,146028
9255237602,TKG StorageMart Partners LP,80781
2264002029,TKG StorageMart Partners LP,141203
8162664788,TKG StorageMart Partners LP,90573
4028095367,TKG StorageMart Partners LP,148024
5153932949,TKG StorageMart Partners LP,110402
6475032374,TKG StorageMart Partners LP,141208
9543792187,TKG StorageMart Partners LP,141172
5874105925,TKG StorageMart Partners LP,137201
5106296981,TKG StorageMart Partners LP,141194
7122645109,TKG StorageMart Partners LP,85907
3658000966,TKG StorageMart Partners LP,141202
2108809954,TKG StorageMart Partners LP,118753
8168399271,TKG StorageMart Partners LP,141183
3376804502,TKG StorageMart Partners LP,88137
2892713466,TKG StorageMart Partners LP,141217
7053023629,TKG StorageMart Partners LP,141206
8162538995,TKG StorageMart Partners LP,90569
5874105884,TKG StorageMart Partners LP,141198
5147002058,TKG StorageMart Partners LP,141227
8168399693,TKG StorageMart Partners LP,90483
4026828905,TKG StorageMart Partners LP,105318
8554664584,TKG StorageMart Partners LP,137026
8446616850,TKG StorageMart Partners LP,311017
4509141014,TKG StorageMart Partners LP,141231
3057499938,TKG StorageMart Partners LP,83506
4028095526,TKG StorageMart Partners LP,350032
5156088181,TKG StorageMart Partners LP,85865
4188007600,TKG StorageMart Partners LP,141229
8165665063,TKG StorageMart Partners LP,110856
9138719543,TKG StorageMart Partners LP,87435
8165216958,TKG StorageMart Partners LP,146026
6476943237,TKG StorageMart Partners LP,141209
6304486658,TKG StorageMart Partners LP,141176
2089963081,TKG StorageMart Partners LP,86362
5874106057,TKG StorageMart Partners LP,137204
9132257418,TKG StorageMart Partners LP,141191
9522830695,TKG StorageMart Partners LP,89960
3059307034,TKG StorageMart Partners LP,84219
4109429629,TKG StorageMart Partners LP,141170
9139378314,TKG StorageMart Partners LP,87611
6475576337,TKG StorageMart Partners LP,137029
4508230943,TKG StorageMart Partners LP,137108
8557130507,TKG StorageMart Partners LP,137484
9132257416,TKG StorageMart Partners LP,306015
3658000817,TKG StorageMart Partners LP,141225
2892713470,TKG StorageMart Partners LP,141214
3475146437,TKG StorageMart Partners LP,93232
8165654291,TKG StorageMart Partners LP,90699
5874104773,TKG StorageMart Partners LP,172001
5152001674,TKG StorageMart Partners LP,85964
8472324124,TKG StorageMart Partners LP,141177
6046707046,TKG StorageMart Partners LP,141201
5873171904,TKG StorageMart Partners LP,137793
4188003534,TKG StorageMart Partners LP,141228
8167592010,TKG StorageMart Partners LP,107493
3658000652,TKG StorageMart Partners LP,137423
9139560321,TKG StorageMart Partners LP,87460
8475139776,TKG StorageMart Partners LP,87110
5155124349,TKG StorageMart Partners LP,86186
5154978147,TKG StorageMart Partners LP,85870
3126472261,TKG StorageMart Partners LP,86516
5155051838,TKG StorageMart Partners LP,86185
7033494628,TKG StorageMart Partners LP,101306
2892720878,TKG StorageMart Partners LP,141215
6476941283,TKG StorageMart Partners LP,141218
7573303347,TKG StorageMart Partners LP,107624
5739174712,TKG StorageMart Partners LP,141184
5878011413,TKG StorageMart Partners LP,141196
3373350393,TKG StorageMart Partners LP,88120
5874106016,TKG StorageMart Partners LP,141197
5153936863,TKG StorageMart Partners LP,113246
8597564196,TKG StorageMart Partners LP,141175
6476943946,TKG StorageMart Partners LP,141222
6476942659,TKG StorageMart Partners LP,137028
5873171560,TKG StorageMart Partners LP,141199
4028095353,TKG StorageMart Partners LP,92366
9136677564,TKG StorageMart Partners LP,87447
8554722673,TKG StorageMart Partners LP,137572
5153466869,TKG StorageMart Partners LP,85864
5153495792,TKG StorageMart Partners LP,109523
2108794069,TKG StorageMart Partners LP,115075
3016846230,TKG StorageMart Partners LP,88622
2262419469,TKG StorageMart Partners LP,137361
5122702629,TKG StorageMart Partners LP,118799
7053024213,TKG StorageMart Partners LP,141212
2103483581,TKG StorageMart Partners LP,118754
9135864620,TKG StorageMart Partners LP,87597
7083152146,TKG StorageMart Partners LP,86925
4023167657,TKG StorageMart Partners LP,111371
3476964687,TKG StorageMart Partners LP,93231
2269090973,TKG StorageMart Partners LP,137360
7083846197,TKG StorageMart Partners LP,141179
8162664708,TKG StorageMart Partners LP,90572
4188007623,TKG StorageMart Partners LP,141230
8164398814,TKG StorageMart Partners LP,90570
4025182045,TKG StorageMart Partners LP,104805
7632194515,TKG StorageMart Partners LP,143070
8169344652,TKG StorageMart Partners LP,146027
5153936244,TKG StorageMart Partners LP,113247
4028756690,TKG StorageMart Partners LP,306014
7052422935,TKG StorageMart Partners LP,141204
8552739845,TKG StorageMart Partners LP,141232
7069262053,TKG StorageMart Partners LP,85219
2014251152,TKG StorageMart Partners LP,141168
6475575989,TKG StorageMart Partners LP,141219
3056900638,TKG StorageMart Partners LP,83504
4508090032,TKG StorageMart Partners LP,137106
2898061157,TKG StorageMart Partners LP,141211
5735674694,TKG StorageMart Partners LP,90273
6137063659,TKG StorageMart Partners LP,141205
8162492728,TKG StorageMart Partners LP,141181
4172834007,TKG StorageMart Partners LP,141186
6476943712,TKG StorageMart Partners LP,141210
3057499825,TKG StorageMart Partners LP,83505
5878050318,TKG StorageMart Partners LP,137261
6476944191,TKG StorageMart Partners LP,137027
4026873084,TKG StorageMart Partners LP,92384
3658000960,TKG StorageMart Partners LP,137336
8553361379,TKG StorageMart Partners LP,137570
8169877902,TKG StorageMart Partners LP,141180
6197178942,Progress Management,80226
6193204895,Progress Management,81303
6197549659,Progress Management,80225
8504241821,Regional Self Storage,84015
5622421808,Imperial Beach Self Storage,81253
5627350138,Best RV & Self Storage,82631
2103992714,Stor Self Storage,251006
2107022974,Stor Self Storage,187003
5129942718,Stor Self Storage,142118
2102390670,Stor Self Storage,118701
5129942802,Stor Self Storage,118601
5129942792,Stor Self Storage,118702
5126436358,Stor Self Storage,300006
9727762587,Stor Self Storage,118703
5129942752,Stor Self Storage,142119
3035299209,Mini Storage Companies,82796
9703722391,Sunrise Mini Storage LLC,83012
9706446224,Sunrise Mini Storage LLC,82988
7324107940,Treasure Island Storage,142226
9735878564,Treasure Island Storage,142224
7184120519,Treasure Island Storage,93236
9299303684,Treasure Island Storage,366000
3476522346,Treasure Island Storage,93203
3475149635,Treasure Island Storage,343095
9293333635,Treasure Island Storage,93288
7185934464,Treasure Island Storage,279002
6468596681,Treasure Island Storage,343098
8442062101,Treasure Island Storage,356003
3475999153,Treasure Island Storage,343094
7605306928,Reliable Self Storage,110653
9138008993,I-35/I-435 Self Storage,143030
3039639634,Storage One,198006
3174343369,StoreNow,322000
3179835982,StoreNow,305003
3175972066,StoreNow,305002
3176536910,StoreNow,351001
3176622773,StoreNow,343067
3177932510,StoreNow,113139
5407092012,Harris Rentals LLC,101485
5403853940,Harris Rentals LLC,101484
8023326191,Carney's Point Self Storage,143231
8564222817,Carney's Point Self Storage,143229
4094403272,Charlie's Mid-County Storage,143314
4092045738,Charlie's Mid-County Storage,161032
8043138856,Staples Mill Mini Storage,101072
7575172970,Staples Mill Mini Storage,104422
8043251552,Staples Mill Mini Storage,101071
8044465472,Staples Mill Mini Storage,101080
8044515088,Staples Mill Mini Storage,101342
8044176517,Staples Mill Mini Storage,112796
5403523334,Staples Mill Mini Storage,101107
9724350531,All Storage Online,330040
2147122257,All Storage Online,147071
8174354797,All Storage Online,115987
8173506431,All Storage Online,115410
9724719582,All Storage Online,147072
8174063833,All Storage Online,115414
8178357139,All Storage Online,354012
8178576502,All Storage Online,115415
8173823154,All Storage Online,346052
9724719571,All Storage Online,115419
9724719674,All Storage Online,147075
9728486082,All Storage Online,346029
9402822518,All Storage Online,147070
8178576519,All Storage Online,147077
8177567846,All Storage Online,115411
4058352546,All Storage Online,147078
8174096413,All Storage Online,115417
9725972477,All Storage Online,330037
9722013951,All Storage Online,147074
8175334123,All Storage Online,316005
8174382665,All Storage Online,316004
8173187174,All Storage Online,326006
9723609431,All Storage Online,115421
9728330142,All Storage Online,333001
8174022840,All Storage Online,115409
8172032539,All Storage Online,115412
4058352619,All Storage Online,147079
2545346189,All Storage Online,147073
8177278689,All Storage Online,147076
9728939673,All Storage Online,115420
9729107230,All Storage Online,350000
8174899768,All Storage Online,115424
8176186150,All Storage Online,346051
8174063941,All Storage Online,295003
8176637975,All Storage Online,350001
8177784635,All Storage Online,316002
8174947280,All Storage Online,316003
8174978830,All Storage Online,345004
9402912864,All Storage Online,352008
8172032610,All Storage Online,115413
8177171316,All Storage Online,115416
8172032743,All Storage Online,115422
4056225789,All Storage Online,95468
9723759339,All Storage Online,115418
6476940368,Secure Self Storage,149042
3022233228,Secure Self Storage,83320
8445087614,Secure Self Storage,106985
6072694365,Secure Self Storage,93558
2028001586,Secure Self Storage,83280
3025660278,Secure Self Storage,83305
3473529691,Secure Self Storage,113085
2897993168,Secure Self Storage,137062
5086037775,Secure Self Storage,149040
3022488486,Secure Self Storage,83297
9097435146,Secure Storage,104315
9093202274,Secure Storage,110287
9099426985,Secure Storage,81947
5095712775,Bitterroot Holdings / Keylock Storage,313066
2087399047,Bitterroot Holdings / Keylock Storage,86275
5096083942,Bitterroot Holdings / Keylock Storage,141029
2085918039,Bitterroot Holdings / Keylock Storage,302015
7752374148,Bitterroot Holdings / Keylock Storage,340008
5413970383,Bitterroot Holdings / Keylock Storage,95658
2087798206,Bitterroot Holdings / Keylock Storage,86189
5098226069,Bitterroot Holdings / Keylock Storage,201003
2089968902,Bitterroot Holdings / Keylock Storage,106981
5412043048,Bitterroot Holdings / Keylock Storage,95655
2087144755,Bitterroot Holdings / Keylock Storage,86270
3024164230,Central Storage of Dover,83284
3522341032,Finch's U Stor It,178001
8054914546,Hollywood Storage Center,81585
9793149353,Stop-N-Lock Storage,118823
3607460423,Storageland,102148
5095712329,Storageland,101811
3607039835,Storageland,102053
5095712400,Storageland,102171
4176220862,A & J Mini Storage,161074
8439680362,Rice Construction Company,96842
9104664776,Rice Construction Company,91386
5205183692,Rawson Incorporated,109066
8137012018,Professional Realty Management,112926
8635883570,Professional Realty Management,112612
7722328095,Professional Realty Management,84840
7722286819,Professional Realty Management,84759
6012927836,Magnolia Mini Storage,126002
9726454038,Macho Self Storage,382006
8178138410,Macho Self Storage,204002
8559370171,Macho Self Storage,117872
9402510378,Macho Self Storage,134006
8174383591,Macho Self Storage,204003
8449330026,Macho Self Storage,118509
8559370158,Macho Self Storage,117870
8176637145,Macho Self Storage,134009
8559361768,Macho Self Storage,115525
8559351533,Macho Self Storage,134010
8558024039,Gibraltar Storage,208007
7202634161,Elizabeth Storage LLC,143126
4054514194,Global Self Storage,349005
3176720768,Global Self Storage,313049
8454437085,Global Self Storage,106615
8433804153,Global Self Storage,285002
8435939689,Global Self Storage,97220
2193646051,Global Self Storage,119299
8602664254,Global Self Storage,141157
6303184414,Global Self Storage,119291
4197075762,Global Self Storage,94101
5853322079,Global Self Storage,285000
6108509285,Global Self Storage,285001
7082942616,Global Self Storage,86815
5852570531,Global Self Storage,349009
5415267392,Bertelsen Self Storage,95569
5415161750,Centennial Self Storage,95643
7604175706,"Caster Properties, Inc.",81676
6194576166,"Caster Properties, Inc.",111258
6194576156,"Caster Properties, Inc.",80892
8184950344,"Caster Properties, Inc.",81077
7603034361,"Caster Properties, Inc.",81677
4084127818,"Caster Properties, Inc.",103346
6194523936,"Caster Properties, Inc.",112622
6262614066,"Caster Properties, Inc.",272008
6193574947,"Caster Properties, Inc.",272011
4086375228,"Caster Properties, Inc.",80413
6266714936,"Caster Properties, Inc.",80916
7149474690,"Caster Properties, Inc.",82196
6194576207,"Caster Properties, Inc.",112472
7142527908,"Caster Properties, Inc.",81181
8184954097,"Caster Properties, Inc.",81616
4084125796,"Caster Properties, Inc.",80414
7605920331,"Caster Properties, Inc.",82580
6508876229,"Caster Properties, Inc.",80585
6193822768,"Caster Properties, Inc.",107955
5109965978,"Caster Properties, Inc.",81655
6194576146,"Caster Properties, Inc.",105079
6193761317,"Caster Properties, Inc.",103348
8189626326,"Caster Properties, Inc.",272006
5626534439,"Caster Properties, Inc.",103551
7146602207,"Caster Properties, Inc.",107899
4089161338,"Caster Properties, Inc.",301016
4085658307,"Caster Properties, Inc.",313053
5626454595,"Caster Properties, Inc.",80580
6194576137,"Caster Properties, Inc.",80182
8588779735,"Caster Properties, Inc.",80181
6194576182,"Caster Properties, Inc.",109167
9492386656,"Caster Properties, Inc.",81281
7144595203,"Caster Properties, Inc.",300000
9493475158,"Caster Properties, Inc.",272010
3104212380,"Caster Properties, Inc.",104472
4084127432,"Caster Properties, Inc.",103578
6194576154,"Caster Properties, Inc.",80180
5626454654,"Caster Properties, Inc.",108943
9252914152,"Caster Properties, Inc.",80778
7147076844,"Caster Properties, Inc.",81042
6194576218,"Caster Properties, Inc.",272009
8586838899,"Caster Properties, Inc.",107891
7142159194,"Caster Properties, Inc.",80850
7604174664,Baco Realty Corporation/Security Public Storage,103699
5035494722,Baco Realty Corporation/Security Public Storage,346043
7079985540,Baco Realty Corporation/Security Public Storage,82518
9164720369,Baco Realty Corporation/Security Public Storage,80159
7144087319,Baco Realty Corporation/Security Public Storage,81191
4103948473,Baco Realty Corporation/Security Public Storage,274003
2092596457,Baco Realty Corporation/Security Public Storage,81490
5106718133,Baco Realty Corporation/Security Public Storage,80924
9164720338,Baco Realty Corporation/Security Public Storage,82032
9252302053,Baco Realty Corporation/Security Public Storage,274002
9163032734,Baco Realty Corporation/Security Public Storage,82035
6504899903,Baco Realty Corporation/Security Public Storage,81968
8312500253,Baco Realty Corporation/Security Public Storage,82061
7078627098,Baco Realty Corporation/Security Public Storage,143004
7039914249,Baco Realty Corporation/Security Public Storage,109563
6265130025,Baco Realty Corporation/Security Public Storage,81084
9164720431,Baco Realty Corporation/Security Public Storage,80158
2402057351,Baco Realty Corporation/Security Public Storage,88593
5105009587,Baco Realty Corporation/Security Public Storage,81848
5597174362,Baco Realty Corporation/Security Public Storage,80310
2099204626,Baco Realty Corporation/Security Public Storage,81420
4159692991,Baco Realty Corporation/Security Public Storage,82109
6504899951,Baco Realty Corporation/Security Public Storage,82165
7606468276,Baco Realty Corporation/Security Public Storage,80950
7753641086,Baco Realty Corporation/Security Public Storage,93136
2092674561,Baco Realty Corporation/Security Public Storage,80702
7079985840,Baco Realty Corporation/Security Public Storage,82292
9252914594,Baco Realty Corporation/Security Public Storage,82188
5102754357,Baco Realty Corporation/Security Public Storage,81141
6506660901,Baco Realty Corporation/Security Public Storage,274000
3019458115,Baco Realty Corporation/Security Public Storage,128013
5104173999,Baco Realty Corporation/Security Public Storage,103676
9252415723,Baco Realty Corporation/Security Public Storage,81854
7077854237,Baco Realty Corporation/Security Public Storage,346044
3017615851,Baco Realty Corporation/Security Public Storage,107806
7079985184,Baco Realty Corporation/Security Public Storage,82504
2097915134,Baco Realty Corporation/Security Public Storage,81491
9252302164,Baco Realty Corporation/Security Public Storage,81436
5595495109,Baco Realty Corporation/Security Public Storage,112078
9164720417,Baco Realty Corporation/Security Public Storage,80157
7072404132,Baco Realty Corporation/Security Public Storage,274001
7604174158,Baco Realty Corporation/Security Public Storage,81760
2095846005,Baco Realty Corporation/Security Public Storage,82009
9165875289,Baco Realty Corporation/Security Public Storage,80160
9516434068,Baco Realty Corporation/Security Public Storage,81524
6504222562,Baco Realty Corporation/Security Public Storage,80855
6194583156,Baco Realty Corporation/Security Public Storage,80736
7039914233,Baco Realty Corporation/Security Public Storage,101370
7142159696,Baco Realty Corporation/Security Public Storage,80615
7708096266,McEver Road Storage,85633
9164720698,Carlo Inc./Got Stuff SS,273001
9167401581,Carlo Inc./Got Stuff SS,80931
2134379861,Carlo Inc./Got Stuff SS,113025
5623928950,Carlo Inc./Got Stuff SS,81305
6262614106,Carlo Inc./Got Stuff SS,81803
9093154610,Carlo Inc./Got Stuff SS,273000
7027104412,Dejager Family Trust,93099
8337250073,Taylor Storage and Parking llc,343076
5125984938,Taylor Storage and Parking llc,350002
5125511574,Taylor Storage and Parking llc,313035
5129615209,Taylor Storage and Parking llc,116606
7609786979,Ramona Self Storage,81914
6193784613,Ramona Self Storage,107948
9516433913,Ramona Self Storage,81275
8643438400,Units Moving and Portable Storage,300046
8438897535,Units Moving and Portable Storage,300045
3013580205,The Storage Bin,88604
3012737367,The Storage Bin,301044
3013272023,The Storage Bin,88607
5412294547,HP Self Storage Management,95529
7075496484,C and M Self Storage,82482
3368998315,Lindsey Self Storage Group,302003
9102393217,Lindsey Self Storage Group,92091
3367506595,Lindsey Self Storage Group,91308
9105344672,Lindsey Self Storage Group,92141
9106350428,Lindsey Self Storage Group,92088
6105690997,Berks Storage,109782
3187371670,Best Yet Storage,302014
6463625539,Manhattan Mini Storage,93255
6463584165,Manhattan Mini Storage,106196
6466635124,Manhattan Mini Storage,302029
6466634731,Manhattan Mini Storage,302028
6466635787,Manhattan Mini Storage,93254
6468450456,Manhattan Mini Storage,302025
6465536444,Manhattan Mini Storage,107707
6466814318,Manhattan Mini Storage,93256
6464614671,Manhattan Mini Storage,93252
6466634695,Manhattan Mini Storage,93250
6463621436,Manhattan Mini Storage,302027
6466817159,Manhattan Mini Storage,105951
6466473430,Manhattan Mini Storage,111814
6465767005,Manhattan Mini Storage,93253
6466634331,Manhattan Mini Storage,104442
6466811793,Manhattan Mini Storage,311007
2486943046,1800SelfStorage.com,331007
3136629070,1800SelfStorage.com,304048
8102165476,1800SelfStorage.com,89254
7342452956,1800SelfStorage.com,304051
7347209266,1800SelfStorage.com,89525
2482434188,1800SelfStorage.com,331008
4156874051,AAA Attic Self Storage Company,82097
7605121538,Grand Central Storage,82701
3155064051,Store America,319001
3156794602,Store America,319002
5104013426,Richmond Associates Ltd.,81989
7575418011,"Jack Rabbit , Inc",101124
7573837160,"Jack Rabbit , Inc",312004
7575420875,"Jack Rabbit , Inc",312003
7573356792,"Jack Rabbit , Inc",103728
7576109016,"Jack Rabbit , Inc",312002
7575781194,"Jack Rabbit , Inc",103523
7572154699,"Jack Rabbit , Inc",101037
7575504890,"Jack Rabbit , Inc",101038
7573478390,"Jack Rabbit , Inc",101140
7572161597,"Jack Rabbit , Inc",101040
7573478439,"Jack Rabbit , Inc",101039
2059007255,Alokin Test Company,113114
9495654819,Alokin Test Company,308007
7752040064,Stor-All,93168
7752354907,Stor-All,113390
7754554478,Stor-All,313027
7752043661,Stor-All,313028
7755814021,Stor-All,313026
6196498284,Storage Outlet,112918
7602354011,Storage Outlet,80952
5627310882,Storage Outlet,80583
9093154313,Storage Outlet,81887
3109575684,Storage Outlet,81068
7144629491,Storage Outlet,81192
6264145915,Storage Outlet,82360
9093452691,Storage Outlet,107226
7148457976,Storage Outlet,81048
5622174599,Storage Outlet,82365
5207294033,Parkwest Management Group LLC,313059
2095806951,Parkwest Management Group LLC,82465
7606005714,Gando Properties L.L.C.,81766
2096617830,camanche lake storage,313056
6059377891,HCI Real Estate,313093
4028107598,HCI Real Estate,313094
4235090392,Just Store It,106171
4234309873,Just Store It,97648
9312983593,Just Store It,330034
4237992028,Just Store It,97592
4233015325,Just Store It,330035
4238880557,Just Store It,97600
9709991186,Just Store It,330032
4807718304,"Taylor Building Managers, LLC",103580
4805308092,"Taylor Building Managers, LLC",79845
6232304351,"Taylor Building Managers, LLC",144025
4807718102,"Taylor Building Managers, LLC",340006
7076825192,"Taylor Building Managers, LLC",325005
8439701296,"LockTite, LLC",97130
4064207927,Columbia Custer,330006
2677991863,StoreHouse Self Storage,333011
6104867212,StoreHouse Self Storage,330026
6106248662,StoreHouse Self Storage,350018
6104672784,StoreHouse Self Storage,330028
6107561606,StoreHouse Self Storage,330027
5128171581,Stash N Go,337006
5122702974,Stash N Go,337008
5122706109,Stash N Go,118353
5127101757,Stash N Go,337007
7608203288,IB New Ventures,337010
7604562539,IB New Ventures,82481
2673148856,Keep Self Storage,346015
4129234258,Keep Self Storage,344004
4125321163,Keep Self Storage,344005
9032877879,J&T Storage,340011
6199373502,"Network Storage Capitol, Inc.",80202
7606217219,"Network Storage Capitol, Inc.",82591
7609834268,"Network Storage Capitol, Inc.",82592
8052108930,"Network Storage Capitol, Inc.",81675
8052469336,"Network Storage Capitol, Inc.",81534
8054192367,"Network Storage Capitol, Inc.",343014
7605374500,"Network Storage Capitol, Inc.",105290
7608568114,"Network Storage Capitol, Inc.",343012
6194732687,"Network Storage Capitol, Inc.",81300
8059185230,"Network Storage Capitol, Inc.",81537
8054090848,"Network Storage Capitol, Inc.",81811
9514325986,"Network Storage Capitol, Inc.",81521
6614034601,"Network Storage Capitol, Inc.",343013
3193166852,Storelocal® Co-op,347060
5123083279,Storelocal® Co-op,116914
9164722599,Storelocal® Co-op,104814
9099069246,Storelocal® Co-op,106971
6155608942,Storelocal® Co-op,347031
5203944966,Storelocal® Co-op,79617
7813188158,Storelocal® Co-op,112992
5084667955,Storelocal® Co-op,136001
9168317882,Storelocal® Co-op,340017
2089356082,Storelocal® Co-op,86240
5627356307,Storelocal® Co-op,136004
2085368702,Storelocal® Co-op,346011
2149720295,Storelocal® Co-op,346023
9493018685,Storelocal® Co-op,340009
5594275922,Storelocal® Co-op,302031
6124452173,Storelocal® Co-op,350063
3464449496,Storelocal® Co-op,116818
5083324876,Storelocal® Co-op,136003
5099564705,Storelocal® Co-op,101726
6613753933,Storelocal® Co-op,81590
7602354083,Storelocal® Co-op,273004
7602354074,Storelocal® Co-op,107926
9094747193,Storelocal® Co-op,132000
9516662852,Storelocal® Co-op,80807
9516662842,Storelocal® Co-op,119266
9094932074,Storelocal® Co-op,81009
7027613572,Storelocal® Co-op,111044
9513842419,Storelocal® Co-op,107124
6614344193,Storelocal® Co-op,80401
2084231246,Storelocal® Co-op,86241
6012650702,River Town Investment Group LLC,341000
3603299891,Extra Storage,343011
3602059976,Extra Storage,343015
4782177834,"Iron Guard Storage, LLC",343046
8123625701,"Iron Guard Storage, LLC",345013
7068432849,"Iron Guard Storage, LLC",343040
9562420920,"Iron Guard Storage, LLC",343037
5093591231,"Iron Guard Storage, LLC",343081
9103874087,"Iron Guard Storage, LLC",343042
5094170539,"Iron Guard Storage, LLC",348013
2542710316,"Iron Guard Storage, LLC",347057
2819165593,"Iron Guard Storage, LLC",343049
4784491335,"Iron Guard Storage, LLC",343045
2548701331,"Iron Guard Storage, LLC",346017
4343216057,"Iron Guard Storage, LLC",343053
5094022916,"Iron Guard Storage, LLC",348007
5094022983,"Iron Guard Storage, LLC",348010
9103569299,"Iron Guard Storage, LLC",343035
9103569661,"Iron Guard Storage, LLC",343047
8125419622,"Iron Guard Storage, LLC",343091
7752340901,"Iron Guard Storage, LLC",343041
2817849045,"Iron Guard Storage, LLC",343051
8035004741,"Iron Guard Storage, LLC",343036
3343928760,"Iron Guard Storage, LLC",343088
5094022862,"Iron Guard Storage, LLC",348009
2816231287,"Iron Guard Storage, LLC",343052
2818438390,"Iron Guard Storage, LLC",343050
7062221659,"Iron Guard Storage, LLC",343044
5126435874,"Iron Guard Storage, LLC",343043
5094041984,"Iron Guard Storage, LLC",348006
8504276302,"Iron Guard Storage, LLC",347067
3602051903,"Iron Guard Storage, LLC",343054
3344588227,"Iron Guard Storage, LLC",343039
2055095477,"Iron Guard Storage, LLC",343034
2053869715,"Iron Guard Storage, LLC",343033
5094021143,"Iron Guard Storage, LLC",348008
9405033551,"Iron Guard Storage, LLC",343038
9104070058,"Iron Guard Storage, LLC",343048
8442411219,Wise Space Storage dba Cole SS,343056
3604696276,Uncle John's RV Storage,345028
3607270797,Uncle John's RV Storage,343064
8056284461,Fortress Secure Mini Storage,343063
8052504307,Fortress Secure Mini Storage,343062
2084949773,208 Storage,343061
8552834022,North Milpitas Self Storage,343075
5129801950,SCA Forney,343078
9495372366,Golden State Storage,81062
8057741537,Golden State Storage,346010
7753466543,Northwest Self Storage,93066
8053986301,Central Coast Self Storage,343080
9252084601,Oakley Gateway Self Storage,342023
5104803717,Point Richmond Self Storage,81990
8054656713,Rock Safe Self Storage,345000
9402027235,Storio Storage,346012
9514761575,Inland Empire Storage Solutions,344003
8458394020,Neighborhood Self-Storage,106740
7402278326,Supply Side USA,344007
8082022430,Gando Properties L.L.C.,313050
5307716786,Wolff Realty Investments,81713
7607067173,"Network Storage Capitol, Inc.",80910
7072814072,Anchor Self Storage,313008
7075952336,Empire Mini Storage - Cloverdale,80752
9405388815,Teasley Lane Self Storage,346004
9033266955,Superior Storage,346003
7074750691,Empire Mini Storage - Middleton,343072
9706480379,Stor-Mor Self Storage,346040
7206192599,Stor-Mor Self Storage,346041
9706808149,Stor-Mor Self Storage,346039
7146999656,Stor-Mor Self Storage,346036
3102992437,Stor-Mor Self Storage,346038
9513842522,Stor-Mor Self Storage,346037
6157518893,Airport Village Self Storage,347005
9256902132,Gilroy Self Storage Depot,347004
9254063151,"Claremont Homes, Inc.",80617
7077866383,"Claremont Homes, Inc.",346050
7855041951,Plaza Storage Of Lawrence,87374
5202264449,Anytime Storage,79642
6029037048,Anytime Storage,347021
5202241351,Anytime Storage,347023
4806053837,Anytime Storage,111998
5202104296,Anytime Storage,79664
9286123490,Anytime Storage,105358
5202148743,Anytime Storage,347022
5202178480,Anytime Storage,79634
5202148622,Anytime Storage,106324
9283230538,Anytime Storage,347020
4807254811,Anytime Storage,79847
7079271811,Cubix Asset Mngmnt -  Forestville LLC,81017
8315861292,Salinas Self Storage,82060
8448441636,SpaceMan Self Storage,348021
5412756715,Acorn Self Storage,348023
9514674560,ALL STAR SUPER STORAGE,348020
9514255035,ALL STAR SUPER STORAGE,81145
5033005153,Cornelius Self Storage,349000
7632517845,Sota Storage,349004
4256203035,Sherlock Investments,102345
4252509616,Sherlock Investments,101863
9258544312,Mini-Stor,349007
9253022627,Pittsburg Mini Storage,81851
6072755859,Vestal Storage,350026
9252906043,Brentwood Storage,350016
5106626387,Warm Springs Self Storage,81040
2092672951,House Properties,80361
7073294166,House Properties,82347
9169757185,Auburn Storage LLC,80738
6075650168,X-tra Storage,126015
6153984586,Mallory Station Storage,97693
6154552565,Mallory Station Storage,97835
4014968893,401 Storage,354008
4092316566,"NOMS Managers, Inc.",117817
5302966748,Auburn Blvd. Mini Stor,355002
8542031370,"Extra Room Self Storage, LLC",313091
8437734806,"Extra Room Self Storage, LLC",358001
8435940789,"Extra Room Self Storage, LLC",97187
2139082115,Tenant V2 Test2,359027
2134637091,Tenant V2 Test2,359025
4172753726,QStorageM LLC,382004
8555010251,QStorageM LLC,90818
8557300504,QStorageM LLC,365000
7145824301,Bolsa Ave Mini Storage,82622
5128569198,Texoma Self Storage Management Services,115171
8559101527,Texoma Self Storage Management Services,116918
6514274447,United / Star Mini Storage,109917
8163579439,Summit Self Storage,90574
8163579625,Summit Self Storage,384003
7047349538,Storage Pro Inc,331006
7047349538,Mint Hill Self Storage,133000
