7073508743,Empire Mini Storage - Cloverdale,Empire Mini Storage Cloverdale
7604774389,Gando Properties L.L.C.,Palm Springs Airport Self Storage
2363620338,Vancouver Island Self Storage,Vancouver Island Self Storage Ltd
4075947529,"MNM Clark, LLC",Storelocal Rogers Park
3603187224,Uncle John's RV Storage,RV Resident Living
9252676503,Pittsburg Mini Storage,Pittsburg Mini Storage
5126413407,Taylor Storage and Parking llc,Dripping Springs Storage And Parking
5127149529,Taylor Storage and Parking llc,Georgetown Mini Storage
5128669878,Secure  Safe Stored (Crestway Storage),Waters Park Self Storage
5128669275,Taylor Storage and Parking llc,Panther Storage and Parking
8438746849,SPR storage,Forward Storage - Shell Point
8436038596,SPR storage,Forward Storage - Port Royal
7147354953,StoreEDGE Test,Mary Street Storage
7146461793,StoreEDGE Test,Demo Facility 1
7146177374,StoreEDGE Test,StoreAll Self Storage - Test
7144921846,StoreEDGE Test,StoreAll Self Storage - Test
7145998962,StoreEDGE Test,StoreAll Self Storage - Test
9495390278,StoreEDGE Test,Campus Storage Center
7146178799,StoreEDGE Test,Hollywood Storage
7579828558,American Classic Storage,American Classic Storage - Lightfoot
7579828431,American Classic Storage,American Classic Storage - Portsmouth
7579828530,American Classic Storage,American Classic Storage - Virginia Beach
7579828619,American Classic Storage,American Classic Storage - General Booth
5408705925,American Classic Storage,2&17 Storage - Fredericksburg
7579828612,American Classic Storage,American Classic Storage - Williamsburg
7579828637,American Classic Storage,American Classic Storage - Newport News
7579828453,American Classic Storage,American Classic Storage - Chesapeake
7579828485,American Classic Storage,American Classic Storage - Hampton
7579828692,American Classic Storage,American Classic Storage - London Bridge
7579828766,American Classic Storage,American Classic Storage - Newtown
9496490252,Dana Point RV & Boat Storage,Dana Point RV & Boat Outdoor Storage
9253321408,Oakley Gateway Self Storage,Oakley Gateway Self Storage
9166666518,Auburn Blvd. Mini Stor,Auburn Blvd. Mini Stor
5105883695,All Safe Storage East Bay,Cubix San Leandro
2082683169,Storelocal® Co-op,Storelocal® At Coeur d'Alene
9094154576,Secure Storage,Secure RV Storage - Highland
9094036394,Secure Storage,Secure Storage - Redlands
9094067019,Secure Storage,Secure RV & Self Storage - Bloomington
8438251979,"Extra Room Self Storage, LLC",Extra Room Self Storage - Myrtle Beach
8437734107,"Extra Room Self Storage, LLC",Extra Room Self Storage - Pawleys Island
8434170377,"Extra Room Self Storage, LLC",Extra Room Self Storage - North Charleston
9729629606,SCA Forney,Forney Storage
5596576420,Derrel's Mini Storage,Derrels Mini Storage
5592723670,Derrel's Mini Storage,Derrel's Mini Storage Inc
5592723812,Derrel's Mini Storage,Derrel's Mini Storage Inc
5592344475,Derrel's Mini Storage,Derrel's Mini Storage Inc
6614516227,Derrel's Mini Storage,Derrel's Mini Storage Inc
5593795328,Derrel's Mini Storage,Derrel's Mini Storage Inc
5593386968,Derrel's Mini Storage,Derrel's Mini Storage Inc
6614639220,Derrel's Mini Storage,Derrel's Mini Storage Inc
5593649311,Derrel's Mini Storage,Derrel's Mini Storage Inc
6614436428,Derrel's Mini Storage,Derrel's Mini Storage Inc
6614647692,Derrel's Mini Storage,Derrel's Mini Storage Inc
5593643650,Derrel's Mini Storage,Derrel's Mini Storage Inc
5593643957,Derrel's Mini Storage,Derrel's Mini Storage Inc
6614637765,Derrel's Mini Storage,Derrel's Mini Storage Inc
8058926350,Derrel's Mini Storage,Derrel's Mini Storage Inc
5593649429,Derrel's Mini Storage,Derrel's Mini Storage Inc
5592456478,Derrel's Mini Storage,Derrel's Mini Storage Inc
6614436931,Derrel's Mini Storage,Derrel's Mini Storage Inc
5592429489,Derrel's Mini Storage,Derrel's Mini Storage Inc
5593459976,Derrel's Mini Storage,Derrel's Mini Storage Inc
5596084815,Derrel's Mini Storage,Derrel's Mini Storage Inc
6614653436,Derrel's Mini Storage,Derrel's Mini Storage Inc
2093181506,Derrel's Mini Storage,Derrel's Mini Storage Inc
2095638428,Derrel's Mini Storage,Derrel's Mini Storage Inc
6617625677,Derrel's Mini Storage,Derrel's Mini Storage Inc
2092314604,Derrel's Mini Storage,Derrel's Mini Storage Inc
5592357393,Derrel's Mini Storage,Derrel's Mini Storage Inc
6612156706,Derrel's Mini Storage,Derrel's Mini Storage Inc
5593795794,Derrel's Mini Storage,Derrel's Mini Storage Inc
5592723705,Derrel's Mini Storage,Derrel's Mini Storage Inc
5592456139,Derrel's Mini Storage,Derrel's Mini Storage Inc
6614641970,Derrel's Mini Storage,Derrel's Mini Storage Inc
5592037717,Derrel's Mini Storage,Derrel's Mini Storage Inc
9165174746,Derrel's Mini Storage,Derrel's Mini Storage Inc
5593375518,Derrel's Mini Storage,Derrel's Mini Storage Inc
2095833395,Derrel's Mini Storage,Derrel's Mini Storage Inc
6614639187,Derrel's Mini Storage,Derrel's Mini Storage Inc
2093181544,Derrel's Mini Storage,Derrel's Mini Storage Inc
6614662521,Derrel's Mini Storage,Derrel's Mini Storage Inc
5593795688,Derrel's Mini Storage,Derrel's Mini Storage Inc
5593643564,Derrel's Mini Storage,Derrel's Mini Storage Inc
5593795476,Derrel's Mini Storage,Derrel's Mini Storage Inc
6614637962,Derrel's Mini Storage,Derrel's Mini Storage Inc
6614639162,Derrel's Mini Storage,Derrel's Mini Storage Inc
5593795508,Derrel's Mini Storage,Derrel's Mini Storage Inc
5592366488,Derrel's Mini Storage,Derrel's Mini Storage Inc
6614637900,Derrel's Mini Storage,Derrel's Mini Storage Inc
5593643302,Derrel's Mini Storage,Derrel's Mini Storage Inc
5593795758,Derrel's Mini Storage,Derrel's Mini Storage Inc
5595605123,Derrel's Mini Storage,Derrel's Mini Storage Inc
5592453644,Derrel's Mini Storage,Derrel's Mini Storage Inc
6614653481,Derrel's Mini Storage,Derrel's Mini Storage Inc
5593795785,Derrel's Mini Storage,Derrel's Mini Storage Inc
5593649577,Derrel's Mini Storage,Derrel's Mini Storage Inc
5593795532,Derrel's Mini Storage,Derrel's Mini Storage Inc
6614653099,Derrel's Mini Storage,Derrel's Mini Storage Inc
5592456415,Derrel's Mini Storage,Derrel's Mini Storage Inc
5592455636,Derrel's Mini Storage,Derrel's Mini Storage Inc
5592723875,Derrel's Mini Storage,Derrel's Mini Storage Inc
6614436089,Derrel's Mini Storage,Derrel's Mini Storage Inc
5592723727,Derrel's Mini Storage,Derrel's Mini Storage Inc
3158963094,Store America,Store America - Liverpool
3157574769,Store America,Store America - North Syracuse
4086621117,Morgan Hill All Safe Storage,All Safe Mini Storage - Morgan Hill
5412307959,Acorn Self Storage,Acorn Self Storage
8055198244,Crocker's Lockers,Crocker's Lockers
9362158739,Veneto West Properties,AAA Self Storage - Highway 94
9365062749,Veneto West Properties,AAA Self Storage - South Colony
9362158804,Veneto West Properties,AAA Self Storage - Highway 69 N
9362155333,Veneto West Properties,AAA Self Storage
9362434543,Veneto West Properties,AAA Self Storage - Southwood
9032258395,J&T Storage,Baywood Self Storage
9094155842,Storage Outlet,Storage Outlet - Chino
5622684736,Storage Outlet,Storage Outlet - South Gate
7147354969,Storage Outlet,Storage Outlet - Fullerton
6195144916,Storage Outlet,Storage Outlet - Chula Vista
5622684664,Storage Outlet,Storage Outlet - Bellflower
7147909295,Storage Outlet,Storage Outlet - Huntington Beach
9094425199,Storage Outlet,Storage Outlet - Pomona
3107421495,Storage Outlet,Storage Outlet - Gardena
6266282649,Storage Outlet,Storage Outlet - El Monte
7602272854,Storage Outlet,Storage Outlet - Escondido
2093702029,camanche lake storage,Camanche Lake Storage
9284960501,Storage Pro Inc,Rim Country Self Storage
5304216980,Storage Pro Inc,Springhill Self Storage
7073090867,Storage Pro Inc,Lock-It-Up Self Storage
5304221676,Storage Pro Inc,Airport Self Storage
7073835448,Storage Pro Inc,The Storage Guy's
9256903562,Storage Pro Inc,Econo Storage
2095638424,Storage Pro,Mariners Drive Self Storage
2095542085,Storage Pro Inc,Lodi Stor-All
9256903544,Storage Pro Inc,Stormaster Self Storage
5302989855,Storage Pro,South Lake Tahoe Mini Storage at Meyers
2095833504,Storage Pro,StoragePRO of Stockton
4085473655,Storage Pro Inc,Grape Avenue Self Storage
9165806327,Storage Pro Inc,Joiner Parkway Self Storage
5302908319,Storage Pro,Longfellow Self Storage
9166209742,Storage Pro Inc,Clock Tower Self Storage
8055197910,Storage Pro Inc,A to Z Self Storage
8314259664,Storage Pro Inc,Leonard's Lockers Self Storage
9256903585,Storage Pro Inc,Statewide Self Storage
4086621267,Storage Pro Inc,StoragePRO Self Storage of San Jose
9164714667,Storage Pro Inc,Taylor Street Self Storage
5593795743,Storage Pro Inc,Lemoore Mini Storage
6614653784,Storage Pro Inc,All American Self Storage
4243206020,Storage Pro Inc,City Storage & City Cellars
2095833613,Storage Pro Inc,Park West Self Storage
5104919926,Storage Pro Inc,City Storage & City Cellars
2093181411,Storage Pro,Tracy Self Storage
7073090879,Storage Pro Inc,StoragePRO Self Storage of Santa Rosa
5108801399,Storage Pro Inc,My Storage
7073090892,Storage Pro Inc,Solano Storage Center
8312925024,Storage Pro,Rossi Self Storage
8312736942,Storage Pro Inc,Hannigan's Mini Storage
6505358349,Storage Pro Inc,SecurePro Storage of Redwood City
5304221655,Storage Pro Inc,StoragePRO Self Storage of Woodland
9254774835,Storage Pro Inc,Valley Self - Storage
5592340302,Storage Pro Inc,Budget Mini Storage - Hanford
5304216942,Storage Pro Inc,Grass Valley Self Storage
7073090825,Storage Pro,Penngrove Station Mini Storage
7252138417,Storage Pro,Stuff Ur Storage
5302968734,Storage Pro Inc,Locksley Mini-Storage LLC
4083516168,Storage Pro Inc,Willow Glen Storage
8053019708,Storage Pro Inc,Fort Locks Self Storage
5107819896,Storage Pro Inc,StoragePRO Self Storage of Richmond
5595504837,Storage Pro Inc,Fort Knox Self Storage
2093181540,Storage Pro,Yosemite Self Storage
3239732711,Storage Pro,Hollywood Bowl Self Storage
5624162934,Storage Pro,Corte Madera Mini Storage
4422391703,Storage Pro,Mini Storage of San Anselmo
8053603582,Storage Pro,El Paso Self Storage
7073090558,Storage Pro Inc,Loc-n-Stor
7073908402,Storage Pro Inc,StoragePRO Self Storage of Windsor
8312686654,Storage Pro,Mini Max Self Storage
9166654520,Storage Pro Inc,21st and R Self Storage
9167569030,Storage Pro Inc,StoragePRO North Highlands
5105448013,Storage Pro Inc,StoragePRO Self Storage of Hayward
5094022976,Storage Pro,Barker Storage
7073835038,Storage Pro,StoragePRO Self Storage of Vacaville
7073908601,Storage Pro,StoragePRO of Fairfield
8055197978,Storage Pro,Betteravia Self Storage
6614638649,Storage Pro,Olive Drive Self Storage
2093181519,Storage Pro Inc,StoragePRO Self Storage of Lathrop
9256903541,Storage Pro,Dublin Security Storage
4254904427,Storage Pro,StoragePRO of Spokane Valley
2093094473,Storage Pro Inc,StoragePRO Self Storage of Beale
8312736607,Storage Pro Inc,Coastal Storage
5103991076,Storage Pro Inc,StoragePRO Self Storage of Oakland
6572984546,Storage Pro,Nave Self Storage
8312924452,Storage Pro Inc,Marina U-Store Self Storage
9256903158,Storage Pro Inc,First Street Mini Storage
6692677891,Storage Pro Inc,Butterfield Self Storage
6619644429,Storage Pro,Ignacio Mini Storage - All Over Marin Mini Storage
5106175741,Storage Pro Inc,Self Storage at Telegraph
9252817030,Storage Pro Inc,Livermore Self Storage
2093181390,Storage Pro Inc,Stuff N Storage
5103192839,Storage Pro Inc,Lockaway Storage Castro Valley
6612707794,Storage Pro,Stow-A-Way Mini Storage
5104053649,Storage Pro Inc,StoragePRO Self Storage of Oakland
8312786722,Storage Pro Inc,StoragePRO Self Storage of Carmel
4085169147,Storage Pro Inc,Brokaw Self Storage
2095638592,Storage Pro Inc,StoragePRO Self Storage of Stockton
9256785914,Storage Pro Inc,Sherpa Storage Mines Road
7073090859,Storage Pro Inc,Napa Storage and RV
5105183249,Storage Pro Inc,Peralta Self Storage
8058657365,Storage Pro Inc,Fort Locks Self Storage
7073923854,Storage Pro Inc,StoragePRO Self Storage of Napa
2092687902,Storage Pro Inc,McHenry Self Storage
7073833553,Storage Pro Inc,Redwood Self Storage
7073908657,Storage Pro Inc,Guy's Storage
4127547571,Keep Self Storage,Keep Self Storage - South Side Works
4124727675,Keep Self Storage,Keep Self Storage - Spring Garden
4127547955,Keep Self Storage,Keep Self Storage - South Side
3602307787,Extra Storage,Olympia Extra-Storage
4085394834,Gilroy Self Storage Depot,Gilroy Self Storage Depot
7072896942,Expressway Self Storage,Expressway Self Storage
8178597802,South Collins Self Storage,South Collins Self Storage
5094367968,Storio Storage,Storio Self Storage
2093181542,House Properties,Hammer Lane Self Storage
5034478040,Cornelius Self Storage,Cornelius Self Storage
2055649191,Patriot Storage,Storelocal Homewood
7786546319,Airport Village Self Storage,Airport Village Self Storage
7579828739,24 Seven Storage,24 Seven Storage - Jensen Drive
7072895572,Anchor Self Storage,Anchor Self Storage
4012354846,401 Storage,401 Storage - West Warwick
4012494059,401 Storage,401 Storage - Warwick
8106423456,Green Trees Mini Storage,Green Trees Mini-Storage
8056084472,Central Coast Self Storage,Central Coast Self Storage
8056084735,Fortress Secure Mini Storage,Fortress-Secure Mini-Storage
8053348578,Fortress Secure Mini Storage,Fortress-Secure Mini-Storage
8053348731,Rock Safe Self Storage,Rock Safe Self Storage
6156496734,StorPlace Self Storage,StorPlace of Bellevue
6156175456,StorPlace Self Storage,StorPlace of Rutherford Blvd
6156564313,StorPlace Self Storage,StorPlace of Nolensville
6158234918,StorPlace Self Storage,StorPlace of Medical Center
6159885045,StorPlace Self Storage,StorPlace of Hermitage
6153488691,StorPlace Self Storage,StorPlace of Hendersonville
6159539922,StorPlace Self Storage,StorPlace of Mt Juliet
6152837248,StorPlace Self Storage,StorPlace of Franklin
2709368506,StorPlace Self Storage,StorPlace of Greenwood
6156063205,StorPlace Self Storage,StorPlace of Rivergate
6159004818,StorPlace Self Storage,StorPlace of Barfield
6153691984,StorPlace Self Storage,StorPlace of Cool Springs
6156496125,StorPlace Self Storage,StorPlace of Lebanon Pike
6159884811,StorPlace Self Storage,StorPlace of Murfreesboro Road
6156244761,StorPlace Self Storage,StorPlace of Stones River
6156249635,StorPlace Self Storage,StorPlace of Veterans Parkway
6156175943,StorPlace Self Storage,StorPlace of Lascassas Pike
6159884001,StorPlace Self Storage,StorPlace of Old Hickory Blvd at Nolensville Road
5108263603,Warm Springs Self Storage,Warm Springs Self Storage
7179372246,Bird-in-Hand Self Storage,Bird in the Hand Self Storage
9256903532,Brentwood Storage,Brentwood Storage
6182683262,Marion Self Storage,Marion Self Storage
6182695106,Marion Self Storage,Marion Self Storage
6182695125,Marion Self Storage,Marion Self Storage
6182430997,Marion Self Storage,Marion Self Storage
6182279276,Marion Self Storage,Marion Self Storage
8082154203,Great American,Great American Self Storage of Kaloko (near Home Depot)
8082155115,Gando Properties L.L.C.,Great American Self Storage of Kailua-Kona (behind Target)
8583584336,"Caster Properties, Inc.",A-1 Self Storage
5622684792,"Caster Properties, Inc.",A-1 Self Storage
6266282825,"Caster Properties, Inc.",A-1 Self Storage
8582990908,A-1 Storage,A-1 Self Storage
4086760965,"Caster Properties, Inc.",A-1 Self Storage
7602806048,"Caster Properties, Inc.",A-1 Self Storage
8188394950,"Caster Properties, Inc.",A-1 Self Storage
7146461258,"Caster Properties, Inc.",A-1 Self Storage
7146461728,"Caster Properties, Inc.",A-1 Self Storage
8185729873,"Caster Properties, Inc.",A-1 Self Storage
6194574451,A-1 Storage,A-1 Self Storage
6196030257,"Caster Properties, Inc.",A-1 Self Storage
4244031878,"Caster Properties, Inc.",A-1 Self Storage
8583584396,"Caster Properties, Inc.",A-1 Self Storage
9496490523,"Caster Properties, Inc.",A-1 Self Storage
6192730326,"Caster Properties, Inc.",A-1 Self Storage
6193779993,"Caster Properties, Inc.",A-1 Self Storage
6197895726,"Caster Properties, Inc.",A-1 Self Storage
6197681478,"Caster Properties, Inc.",A-1 Self Storage
7602592134,"Caster Properties, Inc.",A-1 Self Storage
7145157088,"Caster Properties, Inc.",A-1 Self Storage
4085473676,"Caster Properties, Inc.",A-1 Self Storage
4084045766,"Caster Properties, Inc.",A-1 Self Storage
6195540332,"Caster Properties, Inc.",A-1 Self Storage
8188555384,"Caster Properties, Inc.",A-1 Self Storage
4086760875,"Caster Properties, Inc.",A-1 Self Storage
4243988016,"Caster Properties, Inc.",A-1 Self Storage
6505358295,"Caster Properties, Inc.",A-1 Self Storage
7603503909,"Caster Properties, Inc.",A-1 Self Storage
6194925646,"Caster Properties, Inc.",A-1 Self Storage
6195144544,"Caster Properties, Inc.",A-1 Self Storage
4086621232,"Caster Properties, Inc.",A-1 Self Storage
9256903493,"Caster Properties, Inc.",A-1 Self Storage
6266282410,"Caster Properties, Inc.",A-1 Self Storage
5104054982,"Caster Properties, Inc.",A-1 Self Storage
6193913752,"Caster Properties, Inc.",A-1 Self Storage
6195540887,"Caster Properties, Inc.",A-1 Self Storage
7144870298,"Caster Properties, Inc.",A-1 Self Storage
5622684956,"Caster Properties, Inc.",A-1 Self Storage
6196125447,"Caster Properties, Inc.",A-1 Self Storage
4086621180,"Caster Properties, Inc.",A-1 Self Storage
7146406681,"Caster Properties, Inc.",A-1 Self Storage
6197896739,"Caster Properties, Inc.",A-1 Self Storage
9496494484,"Caster Properties, Inc.",A-1 Self Storage
7144921054,"Caster Properties, Inc.",A-1 Self Storage
4069094353,Columbia Custer,AAA Storage
7067058224,HB Storage Investments/Storage Solution,Storage Solution Yucca Valley West
8082154172,HB Storage Investments/Storage Solution,Storage Solution's Waikele Self Storage
6614638812,HB Storage Investments/Storage Solution,Storage Solution Lancaster
6614665775,HB Storage Investments/Storage Solution,Storage Solution 1st Avenue
9094425761,HB Storage Investments/Storage Solution,Storage Solution Fontana
6612288730,Stoarge Solution,Storage Solution Lancaster Hummingbird
7067058127,HB Storage Investments/Storage Solution,Storage Solution Yucca Valley
5103183714,Castro Valley Hayward Storage,Hayward Storage LLC
5104051070,Castro Valley Hayward Storage,Castro Valley Storage
5105883383,Castro Valley Hayward Storage,Castro Valley Hayward Storage
4084098655,North Milpitas Self Storage,North Milpitas Self Storage
7073090562,House Properties,Sonoma Moll Self Storage
8163578761,Keylock Storage,Storelocal Storage Co-op
5094781959,Bitterroot Holdings / Keylock Storage,Keylock Storage
2084278706,Bitterroot Holdings / Keylock Storage,Keylock Storage
5095871742,Bitterroot Holdings / Keylock Storage,Keylock Storage
7752523805,Keylock Storage,Storelocal Sky Mountain
2084005910,Bitterroot Holdings / Keylock Storage,Keylock Storage
4052516335,Keylock Storage,Storelocal Storage Co-op
2082258974,Bitterroot Holdings / Keylock Storage,Keylock Storage
5095605659,Bitterroot Holdings / Keylock Storage,Keylock Storage
2084278561,Bitterroot Holdings / Keylock Storage,Keylock Storage
2084278734,Bitterroot Holdings / Keylock Storage,Keylock Storage
2088442619,Storelocal® Co-op,Storelocal Storage Co-op
5412563310,Bitterroot Holdings / Keylock Storage,Keylock Storage
4056438958,Keylock Storage,Storelocal Storage Co-op
2084278588,Storelocal® Co-op,Storelocal Storage Co-op
2076402785,SpaceMan Self Storage,Spaceman Self Storage
9156153074,National Self Storage,National Self Storage
4352445433,National Self Storage,National Self Storage
5203768332,National Self Storage,National Self Storage - Dove Mountain
9156153267,National Self Storage,National Self Storage
5755004620,National Self Storage,National Self Storage
9152212381,National Self Storage,National Self Storage - ELP5
9156153251,National Self Storage,National Self Storage
5202631198,National Self Storage,National RV Central
9167964879,National Self Storage,National Self Storage
5204706025,National Self Storage,Titan Self Storage Center
9156153268,National Self Storage,National Self Storage - Horizon City
9155294870,National Self Storage,National Self Storage
9033547981,Superior Storage,Superior Storage - Lindale
9032257995,Superior Storage,Superior Storage
5128900208,Stash N Go,Stash N Go Storage
5125591608,Stash N Go,Stash N Go Storage
5128661365,Stash N Go,Round Rock Mini Storage
5129678425,Stash N Go,Round Rock Mini Storage
7043974155,Mint Hill Self Storage,Mint Hill Self Storage (Blair Rd)
7043973120,Mint Hill Self Storage,Mint Hill Self Storage (Arlington Church Rd)
2084278532,Wise Space Storage dba Cole SS,Wise Space™ Storage
7073907624,Mini-Stor,Mini Stor
4172753573,StorCo Self Storage,StorCo Self Storage O'Fallon
6182695138,StorCo Self Storage,StorCo Self Storage Wood River
7144091189,Storage Outlet Tenant V2,Hummingbird Self Storage-Huntington Beach
7146461827,Storage Outlet Tenant V2,Hummingbird Self Storage-Irvine
6197890760,Storage Outlet Tenant V2,Hummingbird Self Storage - Newport Beach
7146406709,Storage Outlet Tenant V2,Hummingbird Self Storage-Escondido
8312925127,Salinas Self Storage,Salinas Self Storage
8452951539,Neighborhood Self-Storage,Neighborhood Self-Storage
7073833556,Empire Mini Storage - Middleton,Empire Mini Storage - Middletown
9496490719,Performance Test Owner Alokin,storEDGE - Pomona
6106653351,StoreHouse Self Storage,Trexlertown Self-Storage
4842468601,StoreHouse Self Storage,StorHouse Self Storage - Lehigh Street
6105955723,StoreHouse Self Storage,Route 33 Self Storage
2674594310,StoreHouse Self Storage,Storhouse of Quakertown
6105104701,StoreHouse Self Storage,Keystone Self-Storage
9402912825,Teasley Lane Self Storage,Teasley Lane Self Storage Denton
2138553695,Tenant V2 Test2,Self Storage Irvine
2132952056,Tenant V2 Test2,Self Storage Poway
2137704169,Tenant V2 Test2,Self Storage NB
2134933594,Tenant V2 Test2,Self Storage HB
5106192532,Point Richmond Self Storage,Point Richmond Self Storage
3606376163,ABC Mini Storage,ABC Mini Storage - Aberdeen
5095900373,ABC Mini Storage,ABC Mini-Storage - North Spokane
5094166200,ABC Mini Storage,ABC Mini Storage - Richland
2535011703,ABC Mini Storage,ABC Mini Storage - Pacific/Auburn
5095900327,ABC Mini Storage,ABC Mini Storage -West Spokane
5092287598,ABC Mini Storage,ABC Mini Storage - Spokane Valley
5094245347,ABC Mini Storage,ABC Mini Storage - Airway Heights
2542763668,Smartlock Self Storage,Smartlock Self Storage® - Temple
2542763988,Smartlock Self Storage,Smartlock Self Storage® - Hillsboro
4234012768,Just Store It,Just Store It! - West Market St
4234552847,Just Store It,Just Store It! - Johnson City
9312832290,Just Store It,Just Store It! - Clarksville
4233761190,Just Store It,Just Store It! - Kingsport
4233972779,Just Store It,Just Store It! - Elizabethton
9705488944,Just Store It,Just Store It! - Fort Collins
9162378437,Storelocal® Co-op,Storage Direct Roseville
9094795305,Storelocal® Co-op,Storage Direct Fontana
9312836125,Storage Direct (Platinum Storage),Storelocal® Port Royal
6152355596,Storage Direct (Platinum Storage),Storelocal Gallatin
6158134944,Storage Direct (Platinum Storage),Storelocal® Franklin
5095605692,Storelocal® Co-op,Storage Direct Francis
7752434028,Storage Direct (Platinum Storage),Canyon Road Self Storage
7252175589,Storelocal® Co-op,Red Mountain Storage
5084666343,Storelocal® Co-op,Storage Direct Middleboro
9514702803,Storelocal® Co-op,Daytona RV & Boat Storage
7742338610,Storelocal® Co-op,Dennis Mini Storage
2818433493,Storelocal® Co-op,Storage Direct Willowbrook
7603503815,Storelocal® Co-op,Storage Direct Amargosa
9514763878,Storelocal® Co-op,Storage Direct Corona
3392306269,Storelocal® Co-op,Storage Unlimited
5128900899,Storelocal® Co-op,Storage Direct Cedar Park
9313452843,Storage Direct (Platinum Storage),Storelocal® Spring Hill
5204025096,Storelocal® Co-op,Storage Direct Marana
2142392699,Storelocal® Co-op,McKinney Self Storage
9094425088,Storelocal® Co-op,Security Storage
7603503931,Storelocal® Co-op,Absolute Self Storage
5592723708,Storelocal® Co-op,Storage Direct Kingsburg
6614641427,Storelocal® Co-op,Newhall-Valencia Mini-Storage
9092964146,Storelocal® Co-op,LK Mini Storage
6158134898,Storelocal® Co-op,Storelocal® Brentwood
9514702319,Storelocal® Co-op,Yankee Mini Storage Corp
5622684782,Storelocal® Co-op,U-Store Bell
6614665422,Storelocal® Co-op,North Chester Mini Storage
9495697926,Storelocal® Co-op,Laguna Self Storage
7633734345,Storelocal® Co-op,Ramsey Storage Center
8178597815,All Storage Online,All Storage - Marine Creek @ Longhorn
8177656713,All Storage Online,All Storage - White Settlement @820
9729629442,All Storage Online,All Storage - Eldorado
8178597659,All Storage Online,All Storage - Bedford @ Harwood
9729629345,All Storage Online,All Storage - Garland (Lavon Dr @ Bunker Hill)
8178597745,All Storage,All Storage - Business 287 @Avondale Haslet
9729629534,All Storage Online,All Storage - Plano (190 @ Mapleshade)
8177656723,All Storage,All Storage Presidio (@Presidio Towne Crossing & I35)
8177830425,All Storage Online,All Storage - Arlington South
4052962254,All Storage Online,All Storage - Sara Rd
4694365432,All Storage,All Storage - Prosper South (Prosper Trail @ Cook)
9729246032,All Storage Online,All Storage - Carrollton @Belt Line
8178597836,All Storage Online,All Storage - Fort Worth McCart (TCU)
8178597860,All Storage Online,All Storage - Camp Bowie @I30
8177656675,All Storage Online,All Storage - I-35 Fort Worth (@Basswood East & Sandshell)
8178597820,All Storage,All Storage - Mansfield (287 South @Heritage Pkwy)
9729629622,All Storage Online,All Storage - Spur 303 @Kroger Center
8177656751,All Storage Online,All Storage - Mira Vista
9729629663,All Storage Online,All Storage - Mesquite 635
4694365527,All Storage,All Storage Prosper North (Preston @Frontier)
9729629631,All Storage Online,All Storage - McKinney (@Walmart Shopping Center)
4052769420,All Storage Online,All Storage - Yukon I-40
9402914795,All Storage Online,All Storage - Denton (@I35 North)
8178597818,All Storage Online,All Storage - Crowley @ Sycamore
9729629569,All Storage Online,All Storage - Lake Ridge @Camp Wisdom
8178597854,All Storage Online,All Storage - Arlington Sublett @ 287
8178597833,All Storage Online,All Storage - Aledo @Walsh Ranch
8178597770,All Storage Online,All Storage - Arlington I20 @ New York
9403265305,All Storage Online,All Storage - Aubrey @Paloma Creek
9727367975,All Storage Online,All Storage - Carrollton West (190 @ Old Denton Rd)
8178597739,All Storage Online,All Storage - Watauga @377
8177656764,All Storage Online,All Storage - Beach/Tarrant Parkway
9405313758,All Storage,All Storage W University Dr
9729629247,All Storage Online,All Storage - Frisco (Frisco St @All Stars Ave)
8177656677,All Storage Online,All Storage - Wall Price Keller @377
4694365499,All Storage Online,All Storage - Kelly @ Hwy 161
4052898881,All Storage Online,All Storage - Mustang
8178597823,All Storage Online,All Storage - Basswood @377
8178597856,All Storage Online,All Storage - Arlington East @ 360
8178356916,All Storage Online,All Storage - Hurst (Trinity and Precinct Line)
8177656769,All Storage Online,All Storage - Boat Club
9729629284,All Storage Online,All Storage - Mesquite Hwy 80
8178597691,All Storage,All Storage - Revelstoke (287 @ Blue Mound Rd)
9729458143,All Storage Online,All Storage - Rowlett (Firewheel Pkwy @ Castle Dr)
9729458025,All Storage Online,All Storage - Pioneer @161
8173457122,All Storage Online,All Storage - Granbury/GB @Alta Mesa
8177656594,All Storage Online,All Storage - Golden Triangle @ Riverside Dr
8178597766,All Storage Online,All Storage - Keller Haslet @ 377
2546370489,All Storage Online,All Storage - Copperas Cove (@Cove Terrace Center)
9165279773,Storelocal® Co-op,Storelocal® Self Storage
9495697903,RV Storage Depot,RV Storage Depot
5622684955,RV Storage Depot,RV Storage Depot
9163041572,RV Storage Depot,RV Storage Depot
7579828720,"Jack Rabbit , Inc",Jack Rabbit Storage - Military Hwy
7579828521,"Jack Rabbit , Inc",Jack Rabbit Storage - Shore Drive
7579828582,"Jack Rabbit , Inc",Jack Rabbit Storage - Holland Rd
7579828783,"Jack Rabbit , Inc",Jack Rabbit Storage - Williamsburg
7579828726,"Jack Rabbit , Inc",Jack Rabbit Storage - Birdneck Rd
7579828771,"Jack Rabbit , Inc",Jack Rabbit Storage - Hampton Blvd
7579828652,"Jack Rabbit , Inc",Jack Rabbit Storage - Providence Rd
7577992023,"Jack Rabbit , Inc",Jack Rabbit Storage - Hilltop
7579828812,"Jack Rabbit , Inc",Jack Rabbit Storage - Witchduck Rd
7579828743,"Jack Rabbit , Inc",Jack Rabbit Storage - Rosemont Rd
7579828642,"Jack Rabbit , Inc",Jack Rabbit Storage - Lynnhaven Pkwy
9284960657,Stor It Self Storage,Stor It Self Storage
5593649399,Stor It Self Storage,Stor It Self Storage
6614638440,Stor It Self Storage,Stor It Self Storage
5592344551,Stor It Self Storage,Stor It Self Storage & Business Center
9284960672,Stor It Self Storage,Stor It Self Storage
6614516647,Stor It Self Storage,Stor It Self Storage
5593459519,Stor It Self Storage,Stor It Self Storage
5593795459,Stor It Self Storage,Stor It Self Storage
2816261913,"Iron Guard Storage, LLC",Iron Guard Storage - Webster
9362158244,"Iron Guard Storage, LLC",Iron Guard Storage - Conroe
2816261778,"Iron Guard Storage, LLC",Iron Guard Storage - Tomball
9403021020,"Iron Guard Storage, LLC",Iron Guard Storage - Denton
3186186568,"Iron Guard Storage, LLC",Iron Guard Storage - Benton
8123890797,"Iron Guard Storage, LLC",Iron Guard Storage - Evansville
9107144809,"Iron Guard Storage, LLC",Iron Guard Storage - Jacksonville - Center
3183863488,"Iron Guard Storage, LLC",Iron Guard Storage - Pineville
2816261567,"Iron Guard Storage, LLC",Iron Guard Storage - Katy
3603278602,"Iron Guard Storage, LLC",Iron Guard Storage - Camas
7753129241,"Iron Guard Storage, LLC",Iron Guard Storage - Sparks
8704575810,"Iron Guard Storage, LLC",Iron Guard Storage - Pine Bluff
7067058330,"Iron Guard Storage, LLC",Iron Guard Storage - Augusta - Wylds
2546370480,"Iron Guard Storage, LLC",Iron Guard Storage - Belton
4787726805,"Iron Guard Storage, LLC",Iron Guard Storage - Macon - Key
7067058195,"Iron Guard Storage, LLC",Iron Guard Storage - Augusta - Bertram
2546370561,"Iron Guard Storage, LLC",Iron Guard Storage - Killeen
2058131309,"Iron Guard Storage, LLC",Iron Guard Storage - Birmingham - Foust
4783479415,"Iron Guard Storage, LLC",Iron Guard Storage - Macon - Shurling
4092550589,"Iron Guard Storage, LLC",Iron Guard Storage - Arthur
9107144979,"Iron Guard Storage, LLC",Iron Guard Storage - Jacksonville  - Marine
9563061319,"Iron Guard Storage, LLC",Iron Guard Storage - Donna
8302834025,"Iron Guard Storage, LLC",Iron Guard Storage - Canyon Lake
3344542495,"Iron Guard Storage, LLC",Iron Guard Storage - Montgomery
3344542516,Iron Guard,Iron Guard Storage – Pepperell
3343262347,"Iron Guard Storage, LLC",Iron Guard Storage - Opelika
9107144865,"Iron Guard Storage, LLC",Iron Guard Storage - Jacksonville  - Gum
3183863971,"Iron Guard Storage, LLC",Iron Guard Storage - Kingston
3184136409,"Iron Guard Storage, LLC",Iron Guard Storage - Greenwood
4344435233,"Iron Guard Storage, LLC",Iron Guard Storage - Danville
2058131522,"Iron Guard Storage, LLC",Iron Guard Storage - Birmingham - 6th
8122897559,"Iron Guard Storage, LLC",Iron Guard Storage - Newburgh
8506798520,"Iron Guard Storage, LLC",Iron Guard Storage - Pensacola
4092634205,"Iron Guard Storage, LLC",Iron Guard Storage - Lancelot
2818433244,"Iron Guard Storage, LLC",Iron Guard Storage - La Porte
5126413673,"Iron Guard Storage, LLC",Iron Guard Storage - Del Valle
8056083721,Golden State Storage,Golden State Storage Camarillo
6504144750,Golden State Storage,Golden State Storage Gardena
4092543275,Home Team Storage,Home Team Storage
4056437841,Self Storij,Storij
7633734217,Sota Storage,Sota Storage
2532701351,Glacier West Self Storage LLC,Cobalt Storage - Milton/Tacoma
3602529308,Glacier West Self Storage LLC,Glacier West Self Storage - Monroe
3602268806,Glacier West Self Storage LLC,Glacier West Self Storage - Silverdale
3606417504,Glacier West Self Storage LLC,Glacier West Self Storage - Belfair
3602275316,Glacier West Self Storage LLC,Glacier West Self Storage - Port Orchard
2532701253,Glacier West,Glacier West Garage Plus
2532701267,Glacier West Self Storage LLC,Cobalt Storage - Edgewood
3603187812,Glacier West Self Storage LLC,Glacier West Self Storage - Smokey Point
2068956567,Glacier West Self Storage LLC,Island Security Self Storage
2533001671,Glacier West Self Storage LLC,Cobalt Storage - Puyallup
9804415834,Fort Knox Rv,Fort Knox Indoor RV Storage
7067058216,USA Storage Centers,USA Storage Centers Statham
8506798157,USA Storage Centers,USA Storage Centers
7067058128,USA Storage Centers,Statham Oaks Storage
7067058154,USA Storage Centers,USA Storage Centers Statham
8506798707,USA Storage Centers,USA Storage Centers
7067058323,USA Storage Centers,USA Storage Centers
4172724447,QStorageM LLC,Cardinal Storage
2084081867,208 Storage,208 Storage
8593286743,Citation Storage LLC,Storelocal Lexington
4086621116,Cubix Asset Management,Gilroy Self Storage Depot
9256903487,Cubix Asset Management,Oakley Gateway Self Storage
9362158595,Cubix Asset Management,AAA SELF STORAGE - SOUTHWOOD
5106302440,Cubix Asset Management,Hayward Storage
9362963209,Cubix Asset Management,AAA SELF STORAGE - DIBOLL
4086682700,Cubix Asset Management,North Milpitas Self Storage
9363153115,Cubix Asset Management,AAA SELF STORAGE - HWY 94
7073835943,Cubix Asset Management,Empire Mini Storage - Middletown
9362156806,Cubix Asset Management,AAA SELF STORAGE - SOUTH COLONY
7073090886,Cubix Asset Management,Mini Stor
5106175790,Cubix Asset Management,Castro Valley Storage
4085473633,Cubix Asset Management,All Safe Self Storage - Morgan Hill
4086929466,Cubix Asset Management,Leavesley Mini Storage
9362963281,Cubix Asset Management,AAA SELF STORAGE - HWY 69
7073485854,Cubix Asset Management,Anchor Self Storage
7073907549,Cubix Asset Management,Empire Mini Storage Cloverdale
5106302638,Cubix Asset Management,Castro Valley Hayward Storage
5106192751,Cubix Asset Management,Warm Springs Self Storage
5105748553,Cubix Asset Management,Point Richmond Self Storage
9252815482,Cubix Asset Management,Danville Self Storage
9513897702,Packing house Self Storage,Packing House Self Storage
2513193954,Anytime Storage,Anytime Storage - S Broad St
8508087946,Anytime Storage,Anytime Storage 9 Mile Rd
7815464602,Burlington Self Storage,Burlington Self Storage of Burlington
5617394146,Burlington Self Storage,Burlington Self Storage of Wellington
5617394285,Burlington Self Storage,Burlington Self Storage of Lake Worth
9786449710,Burlington Self Storage,Burlington Self Storage of Wilmington
4086621261,Leavesley Mini Storage,Leavesley Mini Storage
6073881725,Vestal Storage,Vestal Storage
7022975171,Kabera Global,Canyon Road Self Storage
9495415674,Kabera Global,StoreLocal Brentwood
9498996233,Kabera Global,Storelocal Spring Hill
9197696734,Kabera Global,Ample Storage - Durham
9497994917,Kabera Global,Storelocal Port Royal
2175163888,Storage Masters,Storage Masters - Woodford
6362990980,Storage Masters,Storage Masters - Saint Charles
2172626501,Storage Masters,Storage Masters - South Shore
6362430493,Storage Masters,Storage Masters - O'Fallon
2172626863,Storage Masters,Storage Masters - West Main
6362430116,Storage Masters,Storage Masters - Chesterfield
8172429121,Advantage Self Storage,Alpha Storage Centers
9727796098,Advantage Self Storage,Advantage Storage -  McDermott Square
9726468482,Advantage Self Storage,Advantage Storage - Panther Creek
8066055086,Advantage Self Storage,Another Attic Self-Storage - Soncy
2107047945,Alamo Mini Storage,Alamo Mini Storage - Wurzbach
3612365903,Alamo Mini Storage,Alamo Mini Storage - N. Sam Houston
2106464955,Alamo Mini Storage,Alamo Mini Storage - Broadway
5123771625,Alamo Mini Storage,Alamo Mini Storage - Hutto
2108076242,Alamo Mini Storage,Alamo Mini Storage - Bandera
3612658962,Alamo Mini Storage,Alamo Mini-Storage - S. Sam Houston
2108076219,Alamo Mini Storage,Alamo Mini Storage - Eisenhauer
2623144083,Barth Storage,Barth Storage
5128796346,Anderson Mill Self Storage,Anderson Mill Self Storage
7708724710,Storage Consulting & Marketing,American Mini Storage
7708724706,Storage Consulting & Marketing,Stuff'N Storage
6788079904,Storage Consulting & Marketing,Hickory Road Self Storage
4702962476,Storage Consulting & Marketing,Mini Max Storage
3053636162,Progressive Realty Partners,Lighthouse SelfStorage Homestead
7149074332,Progressive Realty Partners,Beach Blvd Storage
7607849505,Progressive Realty Partners,Oceanside Self Storage
5623544419,Progressive Realty Partners,Whittier Self Storage
9152282599,National Self Storage,National Self Storage
9152195492,National Self Storage,National Self Storage
8016589672,National Self Storage,National Self Storage
5204471501,National Self Storage,Titan Self Storage Center
5755455004,National Self Storage,National Self Storage
9152137014,National Self Storage,National Self Storage
9152137112,National Self Storage,National Self Storage
5204471388,National Self Storage,National RV Central
9167415096,National Self Storage,National Self Storage
5202142788,National Self Storage,National Self Storage - Dove Mountain
9152137051,National Self Storage,National Self Storage - Horizon City
4022273894,West Pacific Budget Storage,Budget Storage Cornhusker
4024039976,West Pacific Budget Storage,Budget Storage
4023833180,West Pacific Budget Storage,Budget Storage Pioneer
4027189170,West Pacific Budget Storage,Budget Storage
9285152034,Storage Solutions,M&M Storage Solutions
6233001326,Storage Solutions,75th Avenue Storage Solutions
6234555491,Storage Solutions,Litchfield Park Storage Solutions
6234555538,Storage Solutions,Fletcher Heights Storage Solutions
4808425411,Storage Solutions,A & S Storage Solutions
4808450354,Storage Solutions,North Country Club Storage Solutions
4808450723,Storage Solutions,Executive Square Storage Solutions
5203009048,Storage Solutions,Absolute Low Cost Storage
4806054525,Storage Solutions,Bar 4 Storage Solutions
6233210291,Storage Solutions,91st Ave. Storage Solutions
6234555576,Storage Solutions,Storage Depot Storage Solutions
4808450384,Storage Solutions,Scottsdale Storage Solutions
6234555694,Storage Solutions,Peoria Grand Storage Solutions
4808450711,Storage Solutions,Germann Storage Solutions
6234555731,Storage Solutions,AGUA FRIA Storage Solutions
4805264896,Storage Solutions,A Cost Less Self Storage
6027148541,Storage Solutions,East McDowell Storage Solutions
6233210047,Storage Solutions,Westview Self Storage
6235526024,Storage Solutions,Surprise Storage Solutions
6234555638,Storage Solutions,Palm Valley Storage Solutions
7759901418,Storage Solutions,Fifth Street Storage Solutions
6232445371,Storage Solutions,Sun City Storage Solutions
4804183832,Storage Solutions,Tatum Ranch Storage Solutions
4808450866,Storage Solutions,Broadway Storage Solutions
4808450783,Storage Solutions,Tri City Storage Solutions
4808450809,Storage Solutions,Mesa East Storage Solutions
6234555512,Storage Solutions,Rio Estrella Storage Solutions
5204413815,Storage Solutions,Maricopa Self Storage
6234399866,Storage Solutions,Bell Road Storage Solutions
6234555585,Storage Solutions,Adobe Storage Solutions
9188761560,Briarglen Mini Storage,Briarglen Mini Storage
6264156768,Westport Properties/US Storage Center,US Storage Centers
6159333799,Westport Properties/US Storage Center,US Storage Centers
3109064044,Westport Properties/US Storage Center,US Storage Centers
8449634046,Westport Properties/US Storage Center,US Storage Centers
6234320835,Westport Properties/US Storage Center,US Storage Centers
6156567375,Westport Properties/US Storage Center,US Storage Centers
4247327076,Westport Properties/US Storage Center,US Storage Centers
3105753074,Westport Properties/US Storage Center,The Storage Company
9496135779,Westport Properties/US Storage Center,US Storage Centers -Laguna Hills
4242933954,Westport Properties/US Storage Center,US Storage Centers
4106964416,Westport Properties/US Storage Center,US Storage Centers
6234320646,Westport Properties/US Storage Center,US Storage Centers
5623520310,Westport Properties/US Storage Center,US Storage Centers
7865654831,Westport Properties/US Storage Center,US Storage Centers
7867667304,Westport Properties/US Storage Center,US Storage Centers
7867323963,Westport Properties/US Storage Center,US Storage Centers
3236885213,Westport Properties/US Storage Center,US Storage Centers
7147016491,Westport Properties/US Storage Center,US Storage Centers
8058354885,Westport Properties/US Storage Center,US Storage Centers
7027284334,Westport Properties/US Storage Center,US Storage Centers
7142024737,Westport Properties/US Storage Center,US Storage Centers
8189460741,Westport Properties/US Storage Center,US Storage Centers
5623219388,Westport Properties/US Storage Center,US Storage Centers
7144628660,Westport Properties/US Storage Center,US Storage Centers
9728437621,Westport Properties/US Storage Center,US Storage Centers
8182373210,Westport Properties/US Storage Center,US Storage Centers
6264982274,Westport Properties/US Storage Center,US Storage Centers
4075126086,Westport Properties/US Storage Center,US Storage Centers
9519004928,Westport Properties/US Storage Center,US Storage Centers
8189637921,Westport Properties/US Storage Center,US Storage Centers
8187413445,Westport Properties/US Storage Center,US Storage Centers
4243548456,Westport Properties/US Storage Center,US Storage Centers
9548748905,Westport Properties/US Storage Center,US Storage Centers
9493834555,Westport Properties/US Storage Center,US Storage Centers
4242165543,Westport Properties/US Storage Center,US Storage Centers
5623544261,Westport Properties/US Storage Center,US Storage Centers
4072784100,Westport Properties/US Storage Center,US Storage Centers
4242950951,Westport Properties/US Storage Center,US Storage Centers
4242933953,Westport Properties/US Storage Center,US Storage Centers
4242950658,Westport Properties/US Storage Center,US Storage Centers
4242950834,Westport Properties/US Storage Center,US Storage Centers
7866648906,Key West Mini Storage,Key West Mini Storage
2393215580,Key West Mini Storage,Old Town Self Storage
6196304987,Acropolis Space Center,Acropolis Space Center
5616923998,AA Alpine Storage,AA Alpine Storage - Haverhill
3184800948,AA Alpine Storage,Amazing Space Storage - Shreveport
8019990951,AA Alpine Storage,AA Alpine Self Storage S.L.C. UT
5612475964,AA Alpine Storage,AA Alpine Storage - Lake Worth
8014770948,AA Alpine Storage,AA Alpine Storage Roy
5618656986,AA Alpine Storage,AA Alpine Storage - Boynton
8015131986,AA Alpine Storage,AA Alpine Superior Storage Orem
8014069902,AA Alpine Storage,AA Alpine Storage  American Fork
8012100992,AA Alpine Storage,AA Alpine Storage American Fork
4022985251,StorageOne,Storage One - Maryland Pkwy South of Tropicana
7027896510,Stor-More Self Storage,Stor-More Self Storage
2392493838,Storage Quarters,Storage Quarters
6144728606,StorageOH,Wilson Road Mini Storage
2517324905,StorageOH,A Storage of Daphne
8505025623,StorageOH,A Storage Solution of Destin
2484681619,StorageOH,Michigan Storage Centers
7402003090,StorageOH,Broad & York Storage
6145037917,StorageOH,Westerville Mini Storage
7403200356,StorageOH,Stop-N-Go Storage Of Delaware
3108456996,South Bay Storage Center,South Bay Storage Center
4106450917,Lansdowne Station Self Storage LLC,Store It
8052631526,Golden State Storage,Golden State Storage Oxnard
7029416775,Golden State Storage,Golden State Storage Rainbow
6612288368,Golden State Storage,Golden State Storage Northridge
7028421767,Golden State Storage,Golden State Storage - Horizon Ridge
7027456761,Golden State Storage,Crown Self Storage
7026028115,Golden State Storage,Best Storage
8056598482,Golden State Storage,Channel Islands Self Storage
8055494094,Golden State Storage,Golden State Storage Gonzales Rd
9092819748,Golden State Storage,Golden State Storage - Big Bear
8055494388,Golden State Storage,Golden State Storage Camarillo
5623529949,Golden State Storage,Golden State Storage SFS
4243907826,Golden State Storage,Golden State Storage - Gardena
7026056034,Golden State Storage,Golden State Storage Blue Diamond
6612288343,Golden State Storage,Golden State Storage Oak Avenue
7472714187,Golden State Storage,Golden State Storage Roscoe
7028256817,Golden State Storage,Golden State Storage Tropicana
7472714629,Golden State Storage,Golden State Storage Sepulveda
7027668532,Golden State Storage,Golden State Storage Cadence
6616895921,Golden State Storage,Golden State Storage SCSS
7573508095,The Nicholson Companies,AAAA Self Storage - Lowery Road
8044093833,The Nicholson Companies,AAAA Self Storage - Portsmouth
5407798993,The Nicholson Companies,AAAA Self Storage - Barrens Road
8044427587,The Nicholson Companies,AAAA Self Storage - 22nd Street
8505648922,Freedom Self Storage,Freedom Self Storage Inc
6614306191,A-American Storage Management,A-American Self Storage - 10th St West
5623965911,A-American Storage Management,A-American Self Storage - Rosecrans Ave
7752668936,A-American Storage Management,A-American Self Storage - Sutro
6193467468,A-American Storage Management,A-American Self Storage - El Cajon
8087252426,A-American Storage Management,A-American Self Storage - South St
7755451997,A-American Storage Management,A-American Self Storage - Green Acres
9519164855,A-American Storage Management,A-American Self Storage - State St
7146768338,A-American Storage Management,A-American Self Storage - Buena Park
7753168927,A-American Storage Management,A-American Self Storage - Peckham
8053228446,A-American Storage Management,A-American Self Storage - Santa Barbara Annex
4245432328,A-American Storage Management,A-American Self Storage - West LA
8052931850,A-American Storage Management,A-American Self Storage - Santa Barbara
7753939980,A-American Storage Management,A-American Self Storage - Valley Rd
6614306064,A-American Storage Management,A-American Self Storage - Avenue L
7602374432,A-American Storage Management,A-American Self Storage - Ridgecrest
9513980545,A-American Storage Management,A-American Self Storage - Florida Ave
2256865473,Bakers Ship-N-Store,Premier Storage
2253690973,Bakers Ship-N-Store,Baker Ship-N-Store
4079720845,South Seminole Business & Storage,South Seminole Business & Storage
8052533946,EJL Construction,El Camino Self Storage
3104218993,EJL Construction,Westchester Self Storage
6029102529,Rudel Company,I-17 Thunderbird Self Storage
4808450713,Rudel Company,Elliot Kyrene Self Storage
6029102150,Rudel Company,North Phoenix Self Storage
5203532497,Continental Self Storage,Continental Self Storage
5303631140,Plumas Lake Self Storage,Plumas Lake Self Storage
8056045612,Global Mini Storage,Bryant Circle Mini Storage
9167415380,Global Mini Storage,Superior Self Storage
9165728950,Global Mini Storage,Superior Self Storage
3125740969,Mini-Max Storage,Mini-Max Storage - Peoria
2173647511,Mini-Max Storage,Mini-Max Storage
7819952144,Castle Self-Storage,Castle Self-Storage
7815589076,Castle Self-Storage,Castle Self-Storage
6179347065,Castle Self-Storage,Castle Self-Storage
7814127093,Castle Self-Storage,Castle Self Storage
7144777961,Fullerton Self Storage,Fullerton Self Storage
5132808857,Superior Storage Solutions,Advantage Self Storage
9373194390,Superior Storage Solutions,Complete Mini Storage
9374515150,Superior Storage Solutions,Miamisburg Stor-All
9042099840,Monument Mini Storage,Monument Mini Storage
5406573319,Pinnacle Realty & Development,Apperson Self Storage
7575172505,Pinnacle Realty & Development,SecurityPlus Self Storage
7579414630,Pinnacle Realty & Development,Victory Personal Storage
5406573106,Pinnacle Realty & Development,Botetourt Self Storage
5406573179,Pinnacle Realty & Development,Apperson Self Storage 2
7575172419,Pinnacle Realty & Development,Dominion Self Storage
7047417521,Mint Hill Self Storage,Mint Hill Self Storage (Arlington Church Rd)
4808185985,StorageMax,Storage Max
2052893137,Gardendale Self Storage,Gardendale Self Storage
8052446248,The Ezralow Company,North Ranch Self Storage
8053176512,The Ezralow Company,West Simi Lock-Up Self Storage
9097136868,The Ezralow Company,San Dimas Lock-Up Self Storage
4256891780,Everett Downtown Storage,Everett Downtown Storage
4256891864,Everett Downtown Storage,Everett Downtown Storage
4803311974,Palm Gate RV & Self Storage,Palm Gate RV & Self Storage
9163185218,Self Storage Management Service Inc,Rocklin Springview Mini Storage
5303165246,Self Storage Management Service Inc,Sierra Self Storage
9362470223,Veneto West Properties,AAA Self Storage
9367153137,Veneto West Properties,AAA Self Storage - Highway 94
9364171096,Veneto West Properties,AAA Self Storage - Southwood
9362361967,Veneto West Properties,AAA Self Storage - Highway 69 N
9366474835,Veneto West Properties,AAA Self Storage - South Colony
7196945094,Rockrimmon Self Storage,Rockrimmon Self Storage
8082011049,HB Storage Investments/Storage Solution,Storage Solution's Waikele Self Storage
7067176330,HB Storage Investments/Storage Solution,Storage Solution Yucca Valley West
7062045653,HB Storage Investments/Storage Solution,Storage Solution Yucca Valley
6614595017,HB Storage Investments/Storage Solution,Storage Solution Lancaster
6614034583,HB Storage Investments/Storage Solution,Storage Solution 1st Avenue
9095528393,HB Storage Investments/Storage Solution,Storage Solution Fontana
8556353005,"Jay Management, Inc",Yeon Mini Storage
5034464063,"Jay Management, Inc",Tanasbourne RV & Mini Storage
9783156805,Burlington Self Storage,Burlington Self Storage of Wilmington
5617258629,Burlington Self Storage,Burlington Self Storage of Lake Worth
7814231919,Burlington Self Storage,Burlington Self Storage of Burlington
5615995878,Burlington Self Storage,Burlington Self Storage of Wellington
8667328449,Storage Pro Inc,StoragePRO Self Storage of Lathrop
4088729593,Storage Pro Inc,Willow Glen Storage
7072385495,Storage Pro Inc,StoragePRO Self Storage of Napa
9254489532,Storage Pro Inc,Stormaster Self Storage
6504828335,Storage Pro Inc,SecurePro Storage of Redwood City
4087635997,Storage Pro Inc,Grape Avenue Self Storage
8669715082,Storage Pro Inc,Lodi Stor-All
5108086027,Storage Pro Inc,StoragePRO Self Storage of Oakland
5109747562,Storage Pro Inc,Lockaway Storage Castro Valley
8315312702,Storage Pro Inc,Hannigan's Mini Storage
7073834656,Storage Pro Inc,StoragePRO Self Storage of Santa Rosa
5103067582,Storage Pro Inc,City Storage & City Cellars
7077660255,Storage Pro Inc,Redwood Self Storage
6614300545,Storage Pro Inc,All American Self Storage
9165963336,Storage Pro Inc,Taylor Street Self Storage
8054227912,Storage Pro Inc,Fort Locks Self Storage
4086178499,Storage Pro Inc,Butterfield Self Storage
5108172527,Storage Pro Inc,My Storage
2095466732,Storage Pro Inc,McHenry Self Storage
7074143516,Storage Pro Inc,Guy's Storage
8312756988,Storage Pro Inc,StoragePRO Self Storage of Carmel
9254489011,Storage Pro Inc,Statewide Self Storage
7072447825,Storage Pro Inc,Loc-n-Stor
5303631107,Storage Pro Inc,StoragePRO Self Storage of Woodland
5102983278,Storage Pro Inc,StoragePRO Self Storage of Hayward
5103284452,Storage Pro Inc,StoragePRO Self Storage of Richmond
8058045581,Storage Pro Inc,Fort Locks Self Storage
4155349285,Storage Pro Inc,City Storage & City Cellars
5307725306,Storage Pro Inc,Grass Valley Self Storage
9254489623,Storage Pro Inc,Valley Self - Storage
5103284473,Storage Pro Inc,Peralta Self Storage
8312377820,Storage Pro Inc,Leonard's Lockers Self Storage
8314530013,Storage Pro Inc,Marina U-Store Self Storage
5303792148,Storage Pro Inc,Locksley Mini-Storage LLC
5106626377,Storage Pro Inc,Rim Country Self Storage
4243428501,Storage Pro Inc,StoragePRO Self Storage of Windsor
5595884603,Storage Pro Inc,Lemoore Mini Storage
2092706599,Storage Pro Inc,Park West Self Storage
5306782192,Storage Pro Inc,Springhill Self Storage
7072385915,Storage Pro Inc,Lock-It-Up Self Storage
7075043710,Storage Pro Inc,The Storage Guy's
9167944281,Storage Pro Inc,StoragePRO North Highlands
4243495924,Storage Pro Inc,Sherpa Storage Mines Road
9254489090,Storage Pro Inc,Econo Storage
9165710168,Storage Pro Inc,Clock Tower Self Storage
8053303730,Storage Pro Inc,A to Z Self Storage
5309684415,Storage Pro Inc,Airport Self Storage
7076100872,Storage Pro Inc,StoragePRO Self Storage
7073834575,Storage Pro Inc,Solano Storage Center
9258923552,Storage Pro Inc,First Street Mini Storage
7072825139,Storage Pro Inc,Napa Storage and RV
5102983273,Storage Pro Inc,StoragePRO Self Storage of Oakland
2092294273,Storage Pro Inc,Stuff N Storage
8664415577,Storage Pro Inc,StoragePRO Self Storage of Stockton
4159429035,Storage Pro Inc,StoragePRO Self Storage of Beale
5108518637,Storage Pro Inc,Self Storage at Telegraph
9169150619,Storage Pro Inc,Joiner Parkway Self Storage
5593703047,Storage Pro Inc,Budget Mini Storage - Hanford
9253504968,Storage Pro Inc,Livermore Self Storage
4159429013,Storage Pro Inc,Fort Knox Self Storage
9165710071,Storage Pro Inc,21st and R Self Storage
8312695049,Storage Pro Inc,Coastal Storage
4088728115,Storage Pro Inc,Brokaw Self Storage
2512351031,A & B Mini Storage,A & B Mini Storage
8434613278,DMI Storage,Myrtle Beach Storage & Business Centre
7044438918,DMI Storage,Rocky River Self Storage and Offices
8036668259,DMI Storage,Storage and Business Centre Of Tega Cay
3363038930,DMI Storage,Reynolda Storage&Business Centre
7047650701,DMI Storage,Ballantyne Commons Storage Centre
8506608967,A-1 Crestview Mini Storage,A-1 Navarre Mini Storage Boat & RV Parking
3862843585,Storage Management Associates,DeLand Self Storage
9282242218,1st Show Low Storage,1st Show Low Storage
8057255282,American Self Storage,American Self Storage of Santa Maria
4094403813,Central Maxi Storage,Central Maxi Storage
3037207317,Petie's RV Storage,"Petie's RV, Boat & Self Storage"
7605719263,Adobe Self Storage,Adobe Self Storage
3342460623,Bass Agency Real Estate,Bass Mini Storage
5097742605,Pine River Management,Lyons Self Storage
5855984590,Gary P. Wall Real Estate,Lakeville Lock-up Mini Storage
5855635019,Gary P. Wall Real Estate,Geneseo-York Storage Solutions
8435475344,Stop N Stor Self Storage,Stop N Stor
9126234192,Stop N Stor Self Storage,Stop N Stor
9125843524,Stop N Stor Self Storage,Stop N Stor
9123887038,Stop N Stor Self Storage,Stop N Stor
9126234189,Stop N Stor Self Storage,Stop N Stor
9122894101,Stop N Stor Self Storage,Stop N Stor
9123485845,Stop N Stor Self Storage,Stop N Stor
9122096761,Stop N Stor Self Storage,Stop N Stor
9122447471,Stop N Stor Self Storage,Stop N Stor
9123485088,Stop N Stor Self Storage,Stop N Stor
8642491932,RMR Development LLC,Fairview Road Self-Storage
9163786651,RV Storage Depot,RV Storage Depot
9164720148,RV Storage Depot,RV Storage Depot - Roseville Road
2082285271,Stor-It Self Storage,Stor-It Self Storage - STSI
2084732151,Stor-It Self Storage,Stor-It Self Storage - FWSI
2088819527,Stor-It Self Storage,Stor-It Self Storage - MGSI
2088744856,Stor-It Self Storage,Stor-It Self Storage - LGSI
2082854515,Stor-It Self Storage,Stor-It Self Storage- LLSI
2082280247,Stor-It Self Storage,Stor-It Self Storage - CWSI
2084732281,Stor-It Self Storage,Stor-It Self Storage - PCSI
2086470135,Stor-It Self Storage,Stor-It Self Storage - GWSI
2084026527,Stor-It Self Storage,Stor-It Self Storage - TMSI
8476071463,Itasca Mini-Storage,Itasca Mini Storage
8016580044,Mountain View Storage,Mountain View Storage
5022760383,TKG StorageMart Partners LP,StorageMart
6476943314,TKG StorageMart Partners LP,StorageMart
5738304682,TKG StorageMart Partners LP,StorageMart
6476944573,TKG StorageMart Partners LP,StorageMart
5153466959,TKG StorageMart Partners LP,StorageMart
5156088832,TKG StorageMart Partners LP,StorageMart
8167354510,TKG StorageMart Partners LP,StorageMart
9138270529,TKG StorageMart Partners LP,StorageMart
9542288397,TKG StorageMart Partners LP,StorageMart
9137529276,TKG StorageMart Partners LP,StorageMart
9709864007,TKG StorageMart Partners LP,StorageMart
4046204768,TKG StorageMart Partners LP,StorageMart
5874104256,TKG StorageMart Partners LP,StorageMart
4086805864,TKG StorageMart Partners LP,StorageMart
5733494210,TKG StorageMart Partners LP,StorageMart
8162664682,TKG StorageMart Partners LP,StorageMart
7736722797,TKG StorageMart Partners LP,StorageMart
9528003725,TKG StorageMart Partners LP,StorageMart
2105985061,TKG StorageMart Partners LP,StorageMart
5156195902,TKG StorageMart Partners LP,StorageMart
5146130556,TKG StorageMart Partners LP,StorageMart
5878003407,TKG StorageMart Partners LP,StorageMart
8167444052,TKG StorageMart Partners LP,StorageMart
6476944263,TKG StorageMart Partners LP,StorageMart
2392080875,TKG StorageMart Partners LP,StorageMart
4023477064,TKG StorageMart Partners LP,StorageMart
5876000621,TKG StorageMart Partners LP,StorageMart
5636075580,TKG StorageMart Partners LP,StorageMart
7072719027,TKG StorageMart Partners LP,StorageMart
9137474208,TKG StorageMart Partners LP,StorageMart
8449850826,TKG StorageMart Partners LP,StorageMart
6476942507,TKG StorageMart Partners LP,StorageMart
8162054697,TKG StorageMart Partners LP,StorageMart
6476943729,TKG StorageMart Partners LP,StorageMart
5155124625,TKG StorageMart Partners LP,StorageMart
8166231507,TKG StorageMart Partners LP,StorageMart
8162664930,TKG StorageMart Partners LP,StorageMart
9138283272,TKG StorageMart Partners LP,StorageMart
7062528724,TKG StorageMart Partners LP,StorageMart
9546334140,TKG StorageMart Partners LP,StorageMart
4028824485,TKG StorageMart Partners LP,StorageMart
8318565132,TKG StorageMart Partners LP,StorageMart
2109609442,TKG StorageMart Partners LP,StorageMart
4788457766,TKG StorageMart Partners LP,StorageMart
3477651050,TKG StorageMart Partners LP,StorageMart
9133254357,TKG StorageMart Partners LP,StorageMart
4025074191,TKG StorageMart Partners LP,StorageMart
5735615232,TKG StorageMart Partners LP,StorageMart
5878003423,TKG StorageMart Partners LP,StorageMart
8162933078,TKG StorageMart Partners LP,StorageMart
5733559295,TKG StorageMart Partners LP,StorageMart
5105607027,TKG StorageMart Partners LP,StorageMart
2897993479,TKG StorageMart Partners LP,StorageMart
7052432196,TKG StorageMart Partners LP,StorageMart
8168399428,TKG StorageMart Partners LP,StorageMart
8556614175,TKG StorageMart Partners LP,StorageMart
8557126591,TKG StorageMart Partners LP,StorageMart
6303182041,TKG StorageMart Partners LP,StorageMart
5878020908,TKG StorageMart Partners LP,StorageMart
2264002188,TKG StorageMart Partners LP,StorageMart
9138719560,TKG StorageMart Partners LP,StorageMart
6308120049,TKG StorageMart Partners LP,StorageMart
3127577609,TKG StorageMart Partners LP,StorageMart
8163253839,TKG StorageMart Partners LP,StorageMart
2267980904,TKG StorageMart Partners LP,StorageMart
2012976926,TKG StorageMart Partners LP,StorageMart
5153934970,TKG StorageMart Partners LP,StorageMart
5156196718,TKG StorageMart Partners LP,StorageMart
8169344651,TKG StorageMart Partners LP,StorageMart
9255237602,TKG StorageMart Partners LP,StorageMart
2264002029,TKG StorageMart Partners LP,StorageMart
8162664788,TKG StorageMart Partners LP,StorageMart
4028095367,TKG StorageMart Partners LP,StorageMart
5153932949,TKG StorageMart Partners LP,StorageMart
6475032374,TKG StorageMart Partners LP,StorageMart
9543792187,TKG StorageMart Partners LP,StorageMart
5874105925,TKG StorageMart Partners LP,StorageMart
5106296981,TKG StorageMart Partners LP,StorageMart
7122645109,TKG StorageMart Partners LP,StorageMart
3658000966,TKG StorageMart Partners LP,StorageMart
2108809954,TKG StorageMart Partners LP,StorageMart
8168399271,TKG StorageMart Partners LP,StorageMart
3376804502,TKG StorageMart Partners LP,StorageMart
2892713466,TKG StorageMart Partners LP,StorageMart
7053023629,TKG StorageMart Partners LP,StorageMart
8162538995,TKG StorageMart Partners LP,StorageMart
5874105884,TKG StorageMart Partners LP,StorageMart
5147002058,TKG StorageMart Partners LP,StorageMart
8168399693,TKG StorageMart Partners LP,StorageMart
4026828905,TKG StorageMart Partners LP,StorageMart
8554664584,TKG StorageMart Partners LP,StorageMart
8446616850,TKG StorageMart Partners LP,StorageMart
4509141014,TKG StorageMart Partners LP,StorageMart
3057499938,TKG StorageMart Partners LP,StorageMart
4028095526,TKG StorageMart Partners LP,StorageMart
5156088181,TKG StorageMart Partners LP,StorageMart
4188007600,TKG StorageMart Partners LP,StorageMart
8165665063,TKG StorageMart Partners LP,StorageMart
9138719543,TKG StorageMart Partners LP,StorageMart
8165216958,TKG StorageMart Partners LP,StorageMart
6476943237,TKG StorageMart Partners LP,StorageMart
6304486658,TKG StorageMart Partners LP,StorageMart
2089963081,TKG StorageMart Partners LP,StorageMart
5874106057,TKG StorageMart Partners LP,StorageMart
9132257418,TKG StorageMart Partners LP,StorageMart
9522830695,TKG StorageMart Partners LP,StorageMart
3059307034,TKG StorageMart Partners LP,StorageMart
4109429629,TKG StorageMart Partners LP,StorageMart
9139378314,TKG StorageMart Partners LP,StorageMart
6475576337,TKG StorageMart Partners LP,StorageMart
4508230943,TKG StorageMart Partners LP,StorageMart
8557130507,TKG StorageMart Partners LP,StorageMart
9132257416,TKG StorageMart Partners LP,StorageMart
3658000817,TKG StorageMart Partners LP,StorageMart
2892713470,TKG StorageMart Partners LP,StorageMart
3475146437,TKG StorageMart Partners LP,StorageMart
8165654291,TKG StorageMart Partners LP,StorageMart
5874104773,TKG StorageMart Partners LP,StorageMart
5152001674,TKG StorageMart Partners LP,StorageMart
8472324124,TKG StorageMart Partners LP,StorageMart
6046707046,TKG StorageMart Partners LP,StorageMart
5873171904,TKG StorageMart Partners LP,StorageMart
4188003534,TKG StorageMart Partners LP,StorageMart
8167592010,TKG StorageMart Partners LP,StorageMart
3658000652,TKG StorageMart Partners LP,StorageMart
9139560321,TKG StorageMart Partners LP,StorageMart
8475139776,TKG StorageMart Partners LP,StorageMart
5155124349,TKG StorageMart Partners LP,StorageMart
5154978147,TKG StorageMart Partners LP,StorageMart
3126472261,TKG StorageMart Partners LP,StorageMart
5155051838,TKG StorageMart Partners LP,StorageMart
7033494628,TKG StorageMart Partners LP,StorageMart
2892720878,TKG StorageMart Partners LP,StorageMart
6476941283,TKG StorageMart Partners LP,StorageMart
7573303347,TKG StorageMart Partners LP,StorageMart
5739174712,TKG StorageMart Partners LP,StorageMart
5878011413,TKG StorageMart Partners LP,StorageMart
3373350393,TKG StorageMart Partners LP,StorageMart
5874106016,TKG StorageMart Partners LP,StorageMart
5153936863,TKG StorageMart Partners LP,StorageMart
8597564196,TKG StorageMart Partners LP,StorageMart
6476943946,TKG StorageMart Partners LP,StorageMart
6476942659,TKG StorageMart Partners LP,StorageMart
5873171560,TKG StorageMart Partners LP,StorageMart
4028095353,TKG StorageMart Partners LP,StorageMart
9136677564,TKG StorageMart Partners LP,StorageMart
8554722673,TKG StorageMart Partners LP,StorageMart
5153466869,TKG StorageMart Partners LP,StorageMart
5153495792,TKG StorageMart Partners LP,StorageMart
2108794069,TKG StorageMart Partners LP,StorageMart
3016846230,TKG StorageMart Partners LP,StorageMart
2262419469,TKG StorageMart Partners LP,StorageMart
5122702629,TKG StorageMart Partners LP,StorageMart
7053024213,TKG StorageMart Partners LP,StorageMart
2103483581,TKG StorageMart Partners LP,StorageMart
9135864620,TKG StorageMart Partners LP,StorageMart
7083152146,TKG StorageMart Partners LP,StorageMart
4023167657,TKG StorageMart Partners LP,StorageMart
3476964687,TKG StorageMart Partners LP,StorageMart
2269090973,TKG StorageMart Partners LP,StorageMart
7083846197,TKG StorageMart Partners LP,StorageMart
8162664708,TKG StorageMart Partners LP,StorageMart
4188007623,TKG StorageMart Partners LP,StorageMart
8164398814,TKG StorageMart Partners LP,StorageMart
4025182045,TKG StorageMart Partners LP,StorageMart
7632194515,TKG StorageMart Partners LP,Storagemart
8169344652,TKG StorageMart Partners LP,StorageMart
5153936244,TKG StorageMart Partners LP,StorageMart
4028756690,TKG StorageMart Partners LP,StorageMart
7052422935,TKG StorageMart Partners LP,StorageMart
8552739845,TKG StorageMart Partners LP,StorageMart
7069262053,TKG StorageMart Partners LP,StorageMart
2014251152,TKG StorageMart Partners LP,StorageMart
6475575989,TKG StorageMart Partners LP,StorageMart
3056900638,TKG StorageMart Partners LP,StorageMart
4508090032,TKG StorageMart Partners LP,StorageMart
2898061157,TKG StorageMart Partners LP,StorageMart
5735674694,TKG StorageMart Partners LP,StorageMart
6137063659,TKG StorageMart Partners LP,StorageMart
8162492728,TKG StorageMart Partners LP,StorageMart
4172834007,TKG StorageMart Partners LP,StorageMart
6476943712,TKG StorageMart Partners LP,StorageMart
3057499825,TKG StorageMart Partners LP,StorageMart
5878050318,TKG StorageMart Partners LP,StorageMart
6476944191,TKG StorageMart Partners LP,StorageMart
4026873084,TKG StorageMart Partners LP,StorageMart
3658000960,TKG StorageMart Partners LP,StorageMart
8553361379,TKG StorageMart Partners LP,StorageMart
8169877902,TKG StorageMart Partners LP,StorageMart
6197178942,Progress Management,Secure Self Storage - PAC HWY
6193204895,Progress Management,Secure Self Storage - Lakeside
6197549659,Progress Management,Secure Self Storage - ANNEX
8504241821,Regional Self Storage,Regional Self Storage
5622421808,Imperial Beach Self Storage,Imperial Beach Self Storage
5627350138,Best RV & Self Storage,Best Self Storage
2103992714,Stor Self Storage,Stor Self Storage - Leon Springs
2107022974,Stor Self Storage,Stor Self Storage - Cresta Bella
5129942718,Stor Self Storage,Stor Self Storage - Bee Caves
2102390670,Stor Self Storage,Stor Self Storage - Blanco Road
5129942802,Stor Self Storage,Stor Self Storage - South Lamar
5129942792,Stor Self Storage,Stor Self Storage - Pflugerville
5126436358,Stor Self Storage,Stor Self Storage - Cedar Park
9727762587,Stor Self Storage,Stor Self Storage - Las Colinas
5129942752,Stor Self Storage,Stor Self Storage - Circle C
3035299209,Mini Storage Companies,United Stor-All Self Storage
9703722391,Sunrise Mini Storage LLC,Carbondale Mini Storage
9706446224,Sunrise Mini Storage LLC,Breckenridge Mini Storage
7324107940,Treasure Island Storage,Treasure Island Storage - Woodbridge
9735878564,Treasure Island Storage,Treasure Island Storage - Paterson
7184120519,Treasure Island Storage,Treasure Island Storage -  Brooklyn / Redhook
9299303684,Treasure Island Storage,Treasure Island Storage- Brooklyn / Atlantic Ave
3476522346,Treasure Island Storage,Treasure Island Storage - Brooklyn / Clinton Hill
3475149635,Treasure Island Storage,Treasure Island Storage - Bronx / Co-op City
9293333635,Treasure Island Storage,Treasure Island Storage - Bronx / Grand Concourse
7185934464,Treasure Island Storage,Treasure Island Storage - Queens / Ozone Park
6468596681,Treasure Island Storage,Treasure Island Storage - Queens / Glendale
8442062101,Treasure Island Storage,Treasure Island Storage - Brooklyn / Crown Heights
3475999153,Treasure Island Storage,Treasure Island Storage - Brooklyn / East New York
7605306928,Reliable Self Storage,Reliable Self Storage & RV (Victorville)
9138008993,I-35/I-435 Self Storage,I-35/I-435 Self Storage
3039639634,Storage One,Storage One Pine Junction
3174343369,StoreNow,Heartland Crossing Self Storage
3179835982,StoreNow,Brookville Road Self Storage - StoreNow
3175972066,StoreNow,Lynhurst Self Storage
3176536910,StoreNow,New Palestine Self Storage
3176622773,StoreNow,Hoosier Self Storage
3177932510,StoreNow,Main Street Self Storage
5407092012,Harris Rentals LLC,Harris Self Storage - West Main Street Radford
5403853940,Harris Rentals LLC,Harris Self Storage - PFR
8023326191,Carney's Point Self Storage,Three Mountain Storage
8564222817,Carney's Point Self Storage,Carney's Point Self Storage
4094403272,Charlie's Mid-County Storage,Charlie's Mid-County Storage
4092045738,Charlie's Mid-County Storage,End Zone Mini Storage
8043138856,Staples Mill Mini Storage,Broad Street West Mini Storage
7575172970,Staples Mill Mini Storage,Ironbound Road Mini Storage
8043251552,Staples Mill Mini Storage,Broad Street Mini Storage
8044465472,Staples Mill Mini Storage,Huguenot Robious Mini Storage
8044515088,Staples Mill Mini Storage,Brook Road Mini Storage
8044176517,Staples Mill Mini Storage,Staples Mill Mini Storage
5403523334,Staples Mill Mini Storage,U-Stor-It
9724350531,All Storage Online,All Storage - Plano (190 @ Mapleshade)
2147122257,All Storage Online,All Storage - Kelly @ Hwy 161
8174354797,All Storage Online,All Storage - Camp Bowie @I30
8173506431,All Storage Online,All Storage - Mira Vista
9724719582,All Storage Online,All Storage - Carrollton West (190 @ Old Denton Rd)
8174063833,All Storage Online,All Storage - Basswood @377
8178357139,All Storage Online,All Storage - I-35 Fort Worth (@Basswood East & Sandshell)
8178576502,All Storage Online,All Storage - Watauga @377
8173823154,All Storage Online,All Storage - Frisco (Frisco St @All Stars Ave)
9724719571,All Storage Online,All Storage - Mesquite Hwy 80
9724719674,All Storage Online,All Storage - Lake Ridge @Camp Wisdom
9728486082,All Storage Online,All Storage - Rowlett (Firewheel Pkwy @ Castle Dr)
9402822518,All Storage Online,All Storage - Aubrey @Paloma Creek
8178576519,All Storage Online,All Storage - Boat Club
8177567846,All Storage Online,All Storage - Keller Haslet @ 377
4058352546,All Storage Online,All Storage - Mustang
8174096413,All Storage Online,All Storage - Arlington South
9725972477,All Storage Online,All Storage - McKinney (@Walmart Shopping Center)
9722013951,All Storage Online,All Storage - Pioneer @161
8175334123,All Storage Online,All Storage - Arlington East @ 360
8174382665,All Storage Online,All Storage - White Settlement @820
8173187174,All Storage Online,All Storage - Marine Creek @ Longhorn
9723609431,All Storage Online,All Storage - Spur 303 @Kroger Center
9728330142,All Storage Online,All Storage - Eldorado
8174022840,All Storage Online,All Storage - Hurst (Trinity and Precinct Line)
8172032539,All Storage Online,All Storage - Golden Triangle @ Riverside Dr
4058352619,All Storage Online,All Storage - Sara Rd
2545346189,All Storage Online,All Storage - Copperas Cove (@Cove Terrace Center)
8177278689,All Storage Online,All Storage - Wall Price Keller @377
9728939673,All Storage Online,All Storage - Carrollton @Belt Line
9729107230,All Storage Online,All Storage - Garland (Lavon Dr @ Bunker Hill)
8174899768,All Storage Online,All Storage - Crowley @ Sycamore
8176186150,All Storage Online,All Storage - Arlington I20 @ New York
8174063941,All Storage Online,All Storage - Fort Worth McCart (TCU)
8176637975,All Storage Online,All Storage - Arlington Sublett @ 287
8177784635,All Storage Online,All Storage - Bear Creek Plaza
8174947280,All Storage Online,All Storage - Trinity (Precinct Line Rd@Trinity Blvd
8174978830,All Storage Online,All Storage - Aledo @Walsh Ranch
9402912864,All Storage Online,All Storage - Denton (@I35 North)
8172032610,All Storage Online,All Storage - Beach/Tarrant Parkway
8177171316,All Storage Online,All Storage - Bedford @ Harwood
8172032743,All Storage Online,All Storage - Granbury/GB @Alta Mesa
4056225789,All Storage Online,All Storage - Yukon I-40
9723759339,All Storage Online,All Storage - Mesquite 635
6476940368,Secure Self Storage,Secure Self Storage
3022233228,Secure Self Storage,Secure Self Storage
8445087614,Secure Self Storage,I Store Green Self Storage
6072694365,Secure Self Storage,Secure Self Storage
2028001586,Secure Self Storage,Secure Self Storage
3025660278,Secure Self Storage,Secure Self Storage
3473529691,Secure Self Storage,Secure Self Storage
2897993168,Secure Self Storage,Secure Self Storage
5086037775,Secure Self Storage,Secure Self Storage
3022488486,Secure Self Storage,Secure Self Storage
9097435146,Secure Storage,Secure RV & Self Storage - Bloomington
9093202274,Secure Storage,Secure RV Storage - Highland
9099426985,Secure Storage,Secure Storage - Redlands
5095712775,Bitterroot Holdings / Keylock Storage,Keylock Storage
2087399047,Bitterroot Holdings / Keylock Storage,Keylock Storage
5096083942,Bitterroot Holdings / Keylock Storage,Keylock Storage
2085918039,Bitterroot Holdings / Keylock Storage,Keylock Storage
7752374148,Bitterroot Holdings / Keylock Storage,Keylock Storage
5413970383,Bitterroot Holdings / Keylock Storage,Keylock Storage
2087798206,Bitterroot Holdings / Keylock Storage,Keylock Storage
5098226069,Bitterroot Holdings / Keylock Storage,Keylock Storage
2089968902,Bitterroot Holdings / Keylock Storage,Keylock Storage
5412043048,Bitterroot Holdings / Keylock Storage,Keylock Storage - NW A Ave
2087144755,Bitterroot Holdings / Keylock Storage,Keylock Storage
3024164230,Central Storage of Dover,Central Storage Of Dover
3522341032,Finch's U Stor It,Finch's U-Stor It
8054914546,Hollywood Storage Center,Hollywood Storage Center
9793149353,Stop-N-Lock Storage,Stop-N-Lock
3607460423,Storageland,Storageland
5095712329,Storageland,Storageland
3607039835,Storageland,Storageland LLC
5095712400,Storageland,Storageland
4176220862,A & J Mini Storage,A & J Mini Storage LLC
8439680362,Rice Construction Company,Strand Storage Center
9104664776,Rice Construction Company,Street Smart Self-Storage
5205183692,Rawson Incorporated,Sierra Vista Self Storage
8137012018,Professional Realty Management,Discount Mini Storage
8635883570,Professional Realty Management,Discount Mini Storage
7722328095,Professional Realty Management,Discount Mini Storage
7722286819,Professional Realty Management,Discount Mini Storage
6012927836,Magnolia Mini Storage,Magnolia Mini Storage
9726454038,Macho Self Storage,Macho Self Storage Waxahachie
8178138410,Macho Self Storage,Macho Self Storage Fort Worth
8559370171,Macho Self Storage,Macho Self Storage Red Oak
9402510378,Macho Self Storage,Macho Self Storage Denton
8174383591,Macho Self Storage,Macho Boat & RV Storage
8449330026,Macho Self Storage,Macho Self Storage Willowbrook
8559370158,Macho Self Storage,Macho Self Storage Irving
8176637145,Macho Self Storage,Macho Self Storage Colleyville
8559361768,Macho Self Storage,Macho Self Storage Carrollton
8559351533,Macho Self Storage,Macho Self Storage Dallas
8558024039,Gibraltar Storage,Gibraltar Storage
7202634161,Elizabeth Storage LLC,Elizabeth Storage LLC
4054514194,Global Self Storage,Global Self Storage-Edmond
3176720768,Global Self Storage,Global Self storage-McCordsville
8454437085,Global Self Storage,Global Self Storage-Millbrook
8433804153,Global Self Storage,Global Self Storage-Summerville
8435939689,Global Self Storage,Global Self Storage-Summerville
2193646051,Global Self Storage,Global Self Storage-Merrillville
8602664254,Global Self Storage,Global Self Storage-Clinton
6303184414,Global Self Storage,Global Self Storage-Bolingbrook
4197075762,Global Self Storage,Global Self Storage-Lima
5853322079,Global Self Storage,Global Self Storage-Rochester
6108509285,Global Self Storage,Global Self Storage-Sadsburyville
7082942616,Global Self Storage,Global Self Storage-Dolton
5852570531,Global Self Storage,Global Self Storage-West Henrietta
5415267392,Bertelsen Self Storage,Bertelsen Self Storage
5415161750,Centennial Self Storage,Centennial Self Storage
7604175706,"Caster Properties, Inc.",A-1 Self Storage
6194576166,"Caster Properties, Inc.",A-1 Self Storage
6194576156,"Caster Properties, Inc.",A-1 Self Storage
8184950344,"Caster Properties, Inc.",A-1 Self Storage
7603034361,"Caster Properties, Inc.",A-1 Self Storage
4084127818,"Caster Properties, Inc.",A-1 Self Storage
6194523936,"Caster Properties, Inc.",A-1 Self Storage
6262614066,"Caster Properties, Inc.",A-1 Self Storage
6193574947,"Caster Properties, Inc.",A-1 Self Storage
4086375228,"Caster Properties, Inc.",A-1 Self Storage
6266714936,"Caster Properties, Inc.",A-1 Self Storage
7149474690,"Caster Properties, Inc.",A-1 Self Storage
6194576207,"Caster Properties, Inc.",A-1 Self Storage
7142527908,"Caster Properties, Inc.",A-1 Self Storage
8184954097,"Caster Properties, Inc.",A-1 Self Storage
4084125796,"Caster Properties, Inc.",A-1 Self Storage
7605920331,"Caster Properties, Inc.",A-1 Self Storage
6508876229,"Caster Properties, Inc.",A-1 Self Storage
6193822768,"Caster Properties, Inc.",A-1 Self Storage
5109965978,"Caster Properties, Inc.",A-1 Self Storage
6194576146,"Caster Properties, Inc.",A-1 Self Storage
6193761317,"Caster Properties, Inc.",A-1 Self Storage
8189626326,"Caster Properties, Inc.",A-1 Self Storage
5626534439,"Caster Properties, Inc.",A-1 Self Storage
7146602207,"Caster Properties, Inc.",A-1 Self Storage
4089161338,"Caster Properties, Inc.",A-1 Self Storage
4085658307,"Caster Properties, Inc.",A-1 Self Storage
5626454595,"Caster Properties, Inc.",A-1 Self Storage
6194576137,"Caster Properties, Inc.",A-1 Self Storage
8588779735,"Caster Properties, Inc.",A-1 Self Storage
6194576182,"Caster Properties, Inc.",A-1 Self Storage
9492386656,"Caster Properties, Inc.",A-1 Self Storage
7144595203,"Caster Properties, Inc.",A-1 Self Storage
9493475158,"Caster Properties, Inc.",A-1 Self Storage
3104212380,"Caster Properties, Inc.",A-1 Self Storage
4084127432,"Caster Properties, Inc.",A-1 Self Storage
6194576154,"Caster Properties, Inc.",A-1 Self Storage
5626454654,"Caster Properties, Inc.",A-1 Self Storage
9252914152,"Caster Properties, Inc.",A-1 Self Storage
7147076844,"Caster Properties, Inc.",A-1 Self Storage
6194576218,"Caster Properties, Inc.",A-1 Self Storage
8586838899,"Caster Properties, Inc.",A-1 Self Storage
7142159194,"Caster Properties, Inc.",A-1 Self Storage
7604174664,Baco Realty Corporation/Security Public Storage,Security Public Storage
5035494722,Baco Realty Corporation/Security Public Storage,Security Public Storage - Portland
7079985540,Baco Realty Corporation/Security Public Storage,Security Public Storage
9164720369,Baco Realty Corporation/Security Public Storage,Security Public Storage
7144087319,Baco Realty Corporation/Security Public Storage,Security Public Storage
4103948473,Baco Realty Corporation/Security Public Storage,Security Public Storage - Baltimore
2092596457,Baco Realty Corporation/Security Public Storage,Security Public Storage
5106718133,Baco Realty Corporation/Security Public Storage,Security Public Storage
9164720338,Baco Realty Corporation/Security Public Storage,Security Public Storage
9252302053,Baco Realty Corporation/Security Public Storage,Security Public Storage - Walnut Creek
9163032734,Baco Realty Corporation/Security Public Storage,Security Public Storage
6504899903,Baco Realty Corporation/Security Public Storage,Security Public Storage
8312500253,Baco Realty Corporation/Security Public Storage,Security Public Storage
7078627098,Baco Realty Corporation/Security Public Storage,Security Public Storage -  Fairfield
7039914249,Baco Realty Corporation/Security Public Storage,Security Public Storage
6265130025,Baco Realty Corporation/Security Public Storage,Security Public Storage
9164720431,Baco Realty Corporation/Security Public Storage,Security Public Storage
2402057351,Baco Realty Corporation/Security Public Storage,Security Public Storage
5105009587,Baco Realty Corporation/Security Public Storage,Security Public Storage
5597174362,Baco Realty Corporation/Security Public Storage,Security Public Storage
2099204626,Baco Realty Corporation/Security Public Storage,Security Public Storage
4159692991,Baco Realty Corporation/Security Public Storage,Security Public Storage
6504899951,Baco Realty Corporation/Security Public Storage,Security Public Storage
7606468276,Baco Realty Corporation/Security Public Storage,Security Public Storage
7753641086,Baco Realty Corporation/Security Public Storage,Security Public Storage
2092674561,Baco Realty Corporation/Security Public Storage,Security Public Storage
7079985840,Baco Realty Corporation/Security Public Storage,Security Public Storage
9252914594,Baco Realty Corporation/Security Public Storage,Security Public Storage
5102754357,Baco Realty Corporation/Security Public Storage,Security Public Storage
6506660901,Baco Realty Corporation/Security Public Storage,Security Public Storage - Daly City Carter St
3019458115,Baco Realty Corporation/Security Public Storage,Security Public Storage - Gaithersburg
5104173999,Baco Realty Corporation/Security Public Storage,Security Public Storage
9252415723,Baco Realty Corporation/Security Public Storage,Security Public Storage
7077854237,Baco Realty Corporation/Security Public Storage,Security Public Storage- Vacaville II
3017615851,Baco Realty Corporation/Security Public Storage,Security Public Storage
7079985184,Baco Realty Corporation/Security Public Storage,Security Public Storage
2097915134,Baco Realty Corporation/Security Public Storage,Security Public Storage
9252302164,Baco Realty Corporation/Security Public Storage,Security Public Storage
5595495109,Baco Realty Corporation/Security Public Storage,Security Public Storage
9164720417,Baco Realty Corporation/Security Public Storage,Security Public Storage
7072404132,Baco Realty Corporation/Security Public Storage,Security Public Storage - Napa
7604174158,Baco Realty Corporation/Security Public Storage,Security Public Storage
2095846005,Baco Realty Corporation/Security Public Storage,Security Public Storage
9165875289,Baco Realty Corporation/Security Public Storage,Security Public Storage
9516434068,Baco Realty Corporation/Security Public Storage,Security Public Storage
6504222562,Baco Realty Corporation/Security Public Storage,Security Public Storage
6194583156,Baco Realty Corporation/Security Public Storage,Security Public Storage
7039914233,Baco Realty Corporation/Security Public Storage,Security Public Storage
7142159696,Baco Realty Corporation/Security Public Storage,Security Public Storage
7708096266,McEver Road Storage,McEver Road Self Storage
9164720698,Carlo Inc./Got Stuff SS,Green Valley Road Self Storage
9167401581,Carlo Inc./Got Stuff SS,Harbour Point Self Storage
2134379861,Carlo Inc./Got Stuff SS,Los Angeles Self Storage
5623928950,Carlo Inc./Got Stuff SS,Lakewood Self Storage
6262614106,Carlo Inc./Got Stuff SS,Arroyo Parkway Self Storage
9093154610,Carlo Inc./Got Stuff SS,Chino Hills Self Storage
7027104412,Dejager Family Trust,Warm Springs RV & Mini Storage
8337250073,Taylor Storage and Parking llc,Dripping Springs Storage And Parking
5125984938,Taylor Storage and Parking llc,Panther Storage and Parking
5125511574,Taylor Storage and Parking llc,Taylor Storage and Parking
5129615209,Taylor Storage and Parking llc,Georgetown Mini Storage
7609786979,Ramona Self Storage,Ramona Self Storage
6193784613,Ramona Self Storage,First Street Storage
9516433913,Ramona Self Storage,Grand Avenue Storage
8643438400,Units Moving and Portable Storage,Units Mobile Storage of Greenville
8438897535,Units Moving and Portable Storage,Units Mobile Storage of Charleston
3013580205,The Storage Bin,Beaver Creek Mini-Storage
3012737367,The Storage Bin,The Storage Bin
3013272023,The Storage Bin,Storage Bin
5412294547,HP Self Storage Management,Acorn Self Storage
7075496484,C and M Self Storage,C&M Self Storage
3368998315,Lindsey Self Storage Group,Sheets Self Storage
9102393217,Lindsey Self Storage Group,America's Storage Space
3367506595,Lindsey Self Storage Group,All Pro Self Storage
9105344672,Lindsey Self Storage Group,Shallotte Storage Space
9106350428,Lindsey Self Storage Group,America's Storage Space
6105690997,Berks Storage,North Reading Self Storage
3187371670,Best Yet Storage,Best Yet Storage
6463625539,Manhattan Mini Storage,Manhattan Mini Storage
6463584165,Manhattan Mini Storage,Manhattan Mini Storage
6466635124,Manhattan Mini Storage,Manhattan Mini Storage
6466634731,Manhattan Mini Storage,Manhattan Mini Storage
6466635787,Manhattan Mini Storage,Manhattan Mini Storage
6468450456,Manhattan Mini Storage,Manhattan Mini Storage
6465536444,Manhattan Mini Storage,Manhattan Main Storage
6466814318,Manhattan Mini Storage,Manhattan Mini Storage
6464614671,Manhattan Mini Storage,Manhattan Mini Storage
6466634695,Manhattan Mini Storage,Manhattan Mini Storage
6463621436,Manhattan Mini Storage,Manhattan Mini Storage
6466817159,Manhattan Mini Storage,Manhattan Mini Storage
6466473430,Manhattan Mini Storage,Manhattan Mini Storage
6465767005,Manhattan Mini Storage,Manhattan Mini Storage
6466634331,Manhattan Mini Storage,Manhattan Mini Storage
6466811793,Manhattan Mini Storage,Manhattan Mini Storage
2486943046,1800SelfStorage.com,Miss Betty's Self Storage
3136629070,1800SelfStorage.com,1-800-Self-Storage of Melvindale
8102165476,1800SelfStorage.com,1-800-Self Storagecom of Grand Blanc
7342452956,1800SelfStorage.com,1-800-Self-Storage of Plymouth
7347209266,1800SelfStorage.com,Stow and Go Self Storage
2482434188,1800SelfStorage.com,1-800-Self Storagecom of Oak Park
4156874051,AAA Attic Self Storage Company,Attic Self Storage
7605121538,Grand Central Storage,Grand Central Storage
3155064051,Store America,Store America - North Syracuse
3156794602,Store America,Store America - Liverpool
5104013426,Richmond Associates Ltd.,Payless Self Storage
7575418011,"Jack Rabbit , Inc",Jack Rabbit Storage - Hampton Blvd
7573837160,"Jack Rabbit , Inc",Jack Rabbit Storage - Birdneck Rd
7575420875,"Jack Rabbit , Inc",Jack Rabbit Storage - Holland Rd
7573356792,"Jack Rabbit , Inc",Jack Rabbit Storage - Williamsburg
7576109016,"Jack Rabbit , Inc",Jack Rabbit Storage - Shore Drive
7575781194,"Jack Rabbit , Inc",Jack Rabbit Storage - Rosemont Rd
7572154699,"Jack Rabbit , Inc",Jack Rabbit Storage - Hilltop
7575504890,"Jack Rabbit , Inc",Jack Rabbit Storage - Lynnhaven Pkwy
7573478390,"Jack Rabbit , Inc",Jack Rabbit Storage - Military Hwy
7572161597,"Jack Rabbit , Inc",Jack Rabbit Storage - Witchduck Rd
7573478439,"Jack Rabbit , Inc",Jack Rabbit Storage - Providence Rd
2059007255,Alokin Test Company,Metro Mini Storage
9495654819,Alokin Test Company,Storage Outlet Demo - Laguna Beach
7752040064,Stor-All,Elko Stor-All
7752354907,Stor-All,Stor-All Gardnerville
7754554478,Stor-All,Dayton Stor-All
7752043661,Stor-All,Ranchos Stor-All
7755814021,Stor-All,Winnemucca Stor-All
6196498284,Storage Outlet,Storage Outlet - Chula Vista
7602354011,Storage Outlet,Storage Outlet - Escondido
5627310882,Storage Outlet,Storage Outlet - Bellflower
9093154313,Storage Outlet,Storage Outlet - Pomona
3109575684,Storage Outlet,Storage Outlet - Gardena
7144629491,Storage Outlet,Storage Outlet - Huntington Beach
6264145915,Storage Outlet,Storage Outlet - El Monte
9093452691,Storage Outlet,Storage Outlet - Chino
7148457976,Storage Outlet,Storage Outlet - Fullerton
5622174599,Storage Outlet,Storage Outlet - South Gate
5207294033,Parkwest Management Group LLC,Superior Boat & RV Storage
2095806951,Parkwest Management Group LLC,Double D Storage
7606005714,Gando Properties L.L.C.,Palm Springs Airport Self Storage
2096617830,camanche lake storage,Camanche Lake Storage
6059377891,HCI Real Estate,Titan Storage
4028107598,HCI Real Estate,Titan Storage
4235090392,Just Store It,Just Store It! - Johnson City
4234309873,Just Store It,Just Store It! - Kingsport
9312983593,Just Store It,Just Store It! - Clarksville
4237992028,Just Store It,Just Store It! - Elizabethton
4233015325,Just Store It,Just Store It! - Palm Desert
4238880557,Just Store It,Just Store It! - West Market St
9709991186,Just Store It,Just Store It! - Fort Collins
4807718304,"Taylor Building Managers, LLC",Apache Trails Self Storage
4805308092,"Taylor Building Managers, LLC",Ironwood Self Storage
6232304351,"Taylor Building Managers, LLC",Tolleson Self Storage
4807718102,"Taylor Building Managers, LLC",Apache Junction RV Boat Self Storage
7076825192,"Taylor Building Managers, LLC",Dixon Mini Storage & Splash Zone Car Wash
8439701296,"LockTite, LLC",LockTite Self Storage
4064207927,Columbia Custer,AAA Storage
2677991863,StoreHouse Self Storage,Storhouse of Quakertown
6104867212,StoreHouse Self Storage,Keystone Self-Storage
6106248662,StoreHouse Self Storage,StorHouse Self Storage - Lehigh Street
6104672784,StoreHouse Self Storage,Trexlertown Self-Storage
6107561606,StoreHouse Self Storage,Route 33 Self Storage
5128171581,Stash N Go,Stash N Go Storage
5122702974,Stash N Go,Round Rock Mini Storage
5122706109,Stash N Go,Round Rock Mini Storage
5127101757,Stash N Go,Stash N Go Storage
7608203288,IB New Ventures,Select Storage
7604562539,IB New Ventures,Select Storage North
2673148856,Keep Self Storage,Keep Self Storage - South Side Works
4129234258,Keep Self Storage,Keep Self Storage - South Side
4125321163,Keep Self Storage,Keep Self Storage - Spring Garden
9032877879,J&T Storage,Baywood Self Storage
6199373502,"Network Storage Capitol, Inc.",SuperStorage-Home Ave
7606217219,"Network Storage Capitol, Inc.",SuperStorage-Olive
7609834268,"Network Storage Capitol, Inc.",Super Storage-Robelini
8052108930,"Network Storage Capitol, Inc.",SuperStorage-Oceano
8052469336,"Network Storage Capitol, Inc.",SuperStorage - Morro Bay
8054192367,"Network Storage Capitol, Inc.",SuperStorage - Los Osos
7605374500,"Network Storage Capitol, Inc.",Super Storage-Valley Center
7608568114,"Network Storage Capitol, Inc.",Superstore-Annex
6194732687,"Network Storage Capitol, Inc.",SuperStorage-Lakeside
8059185230,"Network Storage Capitol, Inc.",Super Storage-28th Street
8054090848,"Network Storage Capitol, Inc.",SuperStorage-24th Street
9514325986,"Network Storage Capitol, Inc.",SuperStorage-Moreno Valley
6614034601,"Network Storage Capitol, Inc.",A-1 Sierra Self Storage
3193166852,Storelocal® Co-op,BraineTrust Storage
5123083279,Storelocal® Co-op,Storage Direct Cedar Park
9164722599,Storelocal® Co-op,Storage Direct Roseville
9099069246,Storelocal® Co-op,Security Storage
6155608942,Storelocal® Co-op,Storelocal® Brentwood
5203944966,Storelocal® Co-op,Storage Direct Marana
7813188158,Storelocal® Co-op,Storage Unlimited
5084667955,Storelocal® Co-op,Dennis Mini Storage
9168317882,Storelocal® Co-op,Storelocal® Self Storage
2089356082,Storelocal® Co-op,Storelocal Storage Co-op
5627356307,Storelocal® Co-op,U-Store Bell
2085368702,Storelocal® Co-op,Storelocal® At Coeur d'Alene
2149720295,Storelocal® Co-op,McKinney Self Storage
9493018685,Storelocal® Co-op,Laguna Self Storage
5594275922,Storelocal® Co-op,Storage Direct Kingsburg
6124452173,Storelocal® Co-op,Ramsey Storage Center
3464449496,Storelocal® Co-op,Storage Direct Willowbrook
5083324876,Storelocal® Co-op,Storage Direct Middleboro
5099564705,Storelocal® Co-op,Storage Direct Francis
6613753933,Storelocal® Co-op,Newhall-Valencia Mini-Storage
7602354083,Storelocal® Co-op,Storage Direct Amargosa
7602354074,Storelocal® Co-op,Absolute Self Storage
9094747193,Storelocal® Co-op,Storage Direct Fontana
9516662852,Storelocal® Co-op,Storage Direct Corona
9516662842,Storelocal® Co-op,Daytona RV & Boat Storage
9094932074,Storelocal® Co-op,LK Mini Storage
7027613572,Storelocal® Co-op,Red Mountain Storage
9513842419,Storelocal® Co-op,Yankee Mini Storage Corp
6614344193,Storelocal® Co-op,North Chester Mini Storage
2084231246,Storelocal® Co-op,Storelocal Storage Co-op
6012650702,River Town Investment Group LLC,Dixie Self Storage of Clinton
3603299891,Extra Storage,Olympia Extra-Storage
3602059976,Extra Storage,Extra Storage - Buckley
4782177834,"Iron Guard Storage, LLC",Iron Guard Storage - Macon - Shurling
8123625701,"Iron Guard Storage, LLC",Iron Guard Storage - Newburgh
7068432849,"Iron Guard Storage, LLC",Iron Guard Storage - Augusta - Bertram
9562420920,"Iron Guard Storage, LLC",Iron Guard Storage - Donna
5093591231,"Iron Guard Storage, LLC",Iron Guard Storage - Pine Bluff
9103874087,"Iron Guard Storage, LLC",Iron Guard Storage - Jacksonville  - Gum
5094170539,"Iron Guard Storage, LLC",Iron Guard Storage - Benton
2542710316,"Iron Guard Storage, LLC",Iron Guard Storage - Killeen
2819165593,"Iron Guard Storage, LLC",Iron Guard Storage - La Porte
4784491335,"Iron Guard Storage, LLC",Iron Guard Storage - Macon - Key
2548701331,"Iron Guard Storage, LLC",Iron Guard Storage - Belton
4343216057,"Iron Guard Storage, LLC",Iron Guard Storage - Danville
5094022916,"Iron Guard Storage, LLC",Iron Guard Storage - Greenwood
5094022983,"Iron Guard Storage, LLC",Iron Guard Storage - Lancelot
9103569299,"Iron Guard Storage, LLC",Iron Guard Storage - Conroe
9103569661,"Iron Guard Storage, LLC",Iron Guard Storage - Jacksonville - Center
8125419622,"Iron Guard Storage, LLC",Iron Guard Storage - Evansville
7752340901,"Iron Guard Storage, LLC",Iron Guard Storage - Sparks
2817849045,"Iron Guard Storage, LLC",Iron Guard Storage - Webster
8035004741,"Iron Guard Storage, LLC",Iron Guard Storage - Canyon Lake
3343928760,"Iron Guard Storage, LLC",Iron Guard Storage - Opelika
5094022862,"Iron Guard Storage, LLC",Iron Guard Storage - Arthur
2816231287,"Iron Guard Storage, LLC",Iron Guard Storage - Tomball
2818438390,"Iron Guard Storage, LLC",Iron Guard Storage - Katy
7062221659,"Iron Guard Storage, LLC",Iron Guard Storage - Augusta - Wylds
5126435874,"Iron Guard Storage, LLC",Iron Guard Storage - Del Valle
5094041984,"Iron Guard Storage, LLC",Iron Guard Storage - Pineville
8504276302,"Iron Guard Storage, LLC",Iron Guard Storage - Pensacola
3602051903,"Iron Guard Storage, LLC",Iron Guard Storage - Camas
3344588227,"Iron Guard Storage, LLC",Iron Guard Storage - Montgomery
2055095477,"Iron Guard Storage, LLC",Iron Guard Storage - Birmingham - Foust
2053869715,"Iron Guard Storage, LLC",Iron Guard Storage - Birmingham - 6th
5094021143,"Iron Guard Storage, LLC",Iron Guard Storage - Kingston
9405033551,"Iron Guard Storage, LLC",Iron Guard Storage - Denton
9104070058,"Iron Guard Storage, LLC",Iron Guard Storage - Jacksonville  - Marine
8442411219,Wise Space Storage dba Cole SS,Wise Space™ Storage
3604696276,Uncle John's RV Storage,RV Resident Living
3607270797,Uncle John's RV Storage,Self Storage
8056284461,Fortress Secure Mini Storage,Fortress-Secure Mini-Storage
8052504307,Fortress Secure Mini Storage,Fortress-Secure Mini-Storage
2084949773,208 Storage,208 Storage
8552834022,North Milpitas Self Storage,North Milpitas Self Storage
5129801950,SCA Forney,Forney Storage
9495372366,Golden State Storage,Golden State Storage Gardena
8057741537,Golden State Storage,Golden State Storage Camarillo
7753466543,Northwest Self Storage,Northwest Self Storage
8053986301,Central Coast Self Storage,Central Coast Self Storage
9252084601,Oakley Gateway Self Storage,Oakley Gateway Self Storage
5104803717,Point Richmond Self Storage,Point Richmond Self Storage
8054656713,Rock Safe Self Storage,Rock Safe Self Storage
9402027235,Storio Storage,Storio Self Storage
9514761575,Inland Empire Storage Solutions,Inland Empire Storage Solutions
8458394020,Neighborhood Self-Storage,Neighborhood Self-Storage
7402278326,Supply Side USA,Supply Side USA
8082022430,Gando Properties L.L.C.,Great American Self Storage of Kailua-Kona (behind Target)
5307716786,Wolff Realty Investments,American National Mini Storage
7607067173,"Network Storage Capitol, Inc.",SuperStorage-El Centro
7072814072,Anchor Self Storage,Anchor Self Storage
7075952336,Empire Mini Storage - Cloverdale,Empire Mini Storage Cloverdale
9405388815,Teasley Lane Self Storage,Teasley Lane Self Storage Denton
9033266955,Superior Storage,Superior Storage
7074750691,Empire Mini Storage - Middleton,Empire Mini Storage - Middletown
9706480379,Stor-Mor Self Storage,Stor-Mor of Midpoint
7206192599,Stor-Mor Self Storage,Stor-Mor of Littleton
9706808149,Stor-Mor Self Storage,Stor-Mor of Fort Collins
7146999656,Stor-Mor Self Storage,Stor-Mor of Cypress
3102992437,Stor-Mor Self Storage,Stor-Mor of Torrance
9513842522,Stor-Mor Self Storage,Stor-Mor of Anaheim
6157518893,Airport Village Self Storage,Airport Village Self Storage
9256902132,Gilroy Self Storage Depot,Gilroy Self Storage Depot
9254063151,"Claremont Homes, Inc.",Brentwood Self Storage Inc
7077866383,"Claremont Homes, Inc.",Self Storage of Vacaville
7855041951,Plaza Storage Of Lawrence,East 21st Street Mini Warehouses
5202264449,Anytime Storage,Anytime Storage
6029037048,Anytime Storage,Anytime Storage
5202241351,Anytime Storage,Anytime Storage
4806053837,Anytime Storage,Anytime Storage
5202104296,Anytime Storage,Anytime Storage - S Kolb Rd Exit
9286123490,Anytime Storage,Anytime Storage
5202148743,Anytime Storage,Anytime Storage
5202178480,Anytime Storage,Anytime Storage
5202148622,Anytime Storage,Anytime Storage
9283230538,Anytime Storage,Anytime Storage
4807254811,Anytime Storage,Anytime Storage
7079271811,Cubix Asset Mngmnt -  Forestville LLC,Empire Mini Storage
8315861292,Salinas Self Storage,Salinas Self Storage
8448441636,SpaceMan Self Storage,Spaceman Self Storage
5412756715,Acorn Self Storage,Acorn Self Storage
9514674560,ALL STAR SUPER STORAGE,All Star Super Storage - Menifee
9514255035,ALL STAR SUPER STORAGE,All Star Super Storage - Hemet
5033005153,Cornelius Self Storage,Cornelius Self Storage
7632517845,Sota Storage,Sota Storage
4256203035,Sherlock Investments,Sherlock Self Storage Woodinville
4252509616,Sherlock Investments,Sherlock Self Storage Bothell
9258544312,Mini-Stor,Mini Stor
9253022627,Pittsburg Mini Storage,Pittsburg Mini Storage
6072755859,Vestal Storage,Vestal Storage
9252906043,Brentwood Storage,Brentwood Storage
5106626387,Warm Springs Self Storage,Warm Springs Self Storage
2092672951,House Properties,Hammer Lane Self Storage
7073294166,House Properties,Sonoma Moll Self Storage
9169757185,Auburn Storage LLC,Auburn Blvd. Mini Stor
6075650168,X-tra Storage,X-tra Storage
6153984586,Mallory Station Storage,Mallory Station Storage
6154552565,Mallory Station Storage,Mallory Station Storage
4014968893,401 Storage,401 Storage - West Warwick
4092316566,"NOMS Managers, Inc.",North Orange Mini Storage
5302966748,Auburn Blvd. Mini Stor,Auburn Blvd. Mini Stor
8542031370,"Extra Room Self Storage, LLC",Extra Room Self Storage - Myrtle Beach
8437734806,"Extra Room Self Storage, LLC",Extra Room Self Storage - North Charleston
8435940789,"Extra Room Self Storage, LLC",Extra Room Self Storage - Pawleys Island
2139082115,Tenant V2 Test2,Self Storage HB
2134637091,Tenant V2 Test2,Self Storage Irvine
4172753726,QStorageM LLC,A-1 Neosho Mini Storage
8555010251,QStorageM LLC,Cardinal Storage
8557300504,QStorageM LLC,Lakeside Storage
7145824301,Bolsa Ave Mini Storage,Bolsa Ave Mini Storage
5128569198,Texoma Self Storage Management Services,Riverside/71 Self Storage
8559101527,Texoma Self Storage Management Services,Buckner Self Storage
6514274447,United / Star Mini Storage,Little Canada Self Storage
8163579439,Summit Self Storage,Summit Self Storage
8163579625,Summit Self Storage,I-29/I-35 Self Storage
7047349538,Storage Pro Inc,StoragePRO Self Storage of San Jose
7047349538,Mint Hill Self Storage,Mint Hill Self Storage (Blair Rd)
